%!PS-Adobe-3.0 EPSF-3.0
%%Creator: cairo 1.15.10 (http://cairographics.org)
%%CreationDate: Wed Aug 19 20:47:42 2020
%%Pages: 1
%%DocumentData: Clean7Bit
%%LanguageLevel: 2
%%BoundingBox: 0 0 1584 1044
%%EndComments
%%BeginProlog
50 dict begin
/q { gsave } bind def
/Q { grestore } bind def
/cm { 6 array astore concat } bind def
/w { setlinewidth } bind def
/J { setlinecap } bind def
/j { setlinejoin } bind def
/M { setmiterlimit } bind def
/d { setdash } bind def
/m { moveto } bind def
/l { lineto } bind def
/c { curveto } bind def
/h { closepath } bind def
/re { exch dup neg 3 1 roll 5 3 roll moveto 0 rlineto
      0 exch rlineto 0 rlineto closepath } bind def
/S { stroke } bind def
/f { fill } bind def
/f* { eofill } bind def
/n { newpath } bind def
/W { clip } bind def
/W* { eoclip } bind def
/BT { } bind def
/ET { } bind def
/BDC { mark 3 1 roll /BDC pdfmark } bind def
/EMC { mark /EMC pdfmark } bind def
/cairo_store_point { /cairo_point_y exch def /cairo_point_x exch def } def
/Tj { show currentpoint cairo_store_point } bind def
/TJ {
  {
    dup
    type /stringtype eq
    { show } { -0.001 mul 0 cairo_font_matrix dtransform rmoveto } ifelse
  } forall
  currentpoint cairo_store_point
} bind def
/cairo_selectfont { cairo_font_matrix aload pop pop pop 0 0 6 array astore
    cairo_font exch selectfont cairo_point_x cairo_point_y moveto } bind def
/Tf { pop /cairo_font exch def /cairo_font_matrix where
      { pop cairo_selectfont } if } bind def
/Td { matrix translate cairo_font_matrix matrix concatmatrix dup
      /cairo_font_matrix exch def dup 4 get exch 5 get cairo_store_point
      /cairo_font where { pop cairo_selectfont } if } bind def
/Tm { 2 copy 8 2 roll 6 array astore /cairo_font_matrix exch def
      cairo_store_point /cairo_font where { pop cairo_selectfont } if } bind def
/g { setgray } bind def
/rg { setrgbcolor } bind def
/d1 { setcachedevice } bind def
/cairo_data_source {
  CairoDataIndex CairoData length lt
    { CairoData CairoDataIndex get /CairoDataIndex CairoDataIndex 1 add def }
    { () } ifelse
} def
/cairo_flush_ascii85_file { cairo_ascii85_file status { cairo_ascii85_file flushfile } if } def
/cairo_image { image cairo_flush_ascii85_file } def
/cairo_imagemask { imagemask cairo_flush_ascii85_file } def
%%EndProlog
%%BeginSetup
%%EndSetup
%%Page: 1 1
%%BeginPageSetup
%%PageBoundingBox: 0 0 1584 1044
%%EndPageSetup
q 0 0 1584 1044 rectclip
1 0 0 -1 0 1044 cm q
0 g
0 57.516 m 0 743.082 l 79.219 743.082 l 79.219 723.145 l 104.652 736.395
 132.934 743.082 163.863 743.082 c 214.777 743.082 254.027 723.383 279.695
 684.598 c 305.359 645.816 317.758 588.586 317.758 512.953 c 317.758 476.512
 l 317.758 385.473 304.875 323.82 276.855 291.133 c 249.789 259.559 220.805
 243.082 190.359 243.082 c 150.594 243.082 l 128.93 243.082 105.242 253.82
 79.219 274.27 c 79.219 57.516 l h
820.305 57.516 m 820.305 662.074 l 820.305 688.316 827.281 708.895 841.691
 722.703 c 856.102 736.516 877.375 743.082 904.652 743.082 c 934.473 743.082
 l 939.281 743.094 l 939.289 738.289 l 939.289 670.508 l 904.652 670.508
 l 902.406 670.508 901.789 670.098 901.055 669.121 c 900.324 668.145 899.52
 665.895 899.52 662.078 c 899.52 57.516 l h
552.469 243.082 m 507.25 243.082 471.328 258.039 446.102 287.855 c 421.141
 317.344 407.449 352.754 405.199 393.422 c 404.926 398.512 l 483.723 398.512
 l 484.332 394.41 l 488.668 366.242 496.793 346.184 507.973 333.992 c 519.039
 321.918 535.668 315.656 559.094 315.656 c 582.656 315.656 600.852 320.996
 614.172 331.238 c 627.055 341.148 633.812 358.09 633.812 383.727 c 633.812
 415.82 l 559.312 421.75 502.617 439.348 464.188 469.422 c 424.969 500.113
 405.199 543.863 405.199 599.113 c 405.199 646.227 415.867 682.344 437.922
 706.723 c 459.977 731.098 493.043 743.082 535.898 743.082 c 571.371 743.082
 604.148 732.309 633.812 711.266 c 633.812 743.082 l 708.215 743.082 l 713.016
 743.035 l 713.008 738.285 l 713.008 383.727 l 713.008 334.258 699.359 297.699
 671.434 275.594 c 644.312 254.121 616.715 243.082 588.934 243.082 c h
1117.664 243.082 m 1085.48 243.082 1055.969 255.875 1029.863 280.852 c 
1003.566 306.004 990.242 338.469 990.242 377.102 c 990.242 428.887 1006.312
 467.266 1038.652 490.367 c 1069.875 512.668 1100.238 526.266 1129.754 530.895
 c 1129.801 530.898 1129.836 530.906 1129.879 530.914 c 1156.25 537.516 
l 1156.523 537.578 l 1156.84 537.617 l 1173.738 539.73 1186.395 545.426 
1195.449 554.484 c 1205.078 564.109 1211.242 573.008 1214.211 580.918 c 
1217.203 588.883 1218.879 600.539 1218.879 615.66 c 1218.879 634.648 1213.766
 647.941 1203.906 656.812 c 1194.281 665.473 1176.711 670.504 1150.805 670.504
 c 1127.379 670.504 1109.449 664.23 1096.086 651.891 c 1083.016 639.828 
1073.758 617.75 1069.422 585.207 c 1068.852 581.043 l 989.824 581.043 l 
990.266 586.258 l 994.75 640.074 1011.723 680.168 1041.66 705.496 c 1071.262
 730.543 1107.906 743.078 1150.805 743.078 c 1193.578 743.078 1228.516 732.316
 1254.922 710.504 c 1281.477 688.566 1294.773 656.445 1294.773 615.66 c 
1294.773 586.387 1289.715 561.336 1279.359 540.625 c 1269.051 520.012 1254.039
 503.289 1234.586 490.699 c 1215.227 478.172 1190.984 468.629 1161.91 461.91
 c 1161.824 461.891 l 1135.391 455.266 l 1135.305 455.246 l 1135.18 455.227
 l 1113.816 450.953 1097.121 442.531 1084.625 430.035 c 1072.41 417.82 1066.16
 400.527 1066.16 377.102 c 1066.16 358.207 1071.707 344.363 1082.793 334.285
 c 1093.656 324.41 1111.695 318.953 1137.535 318.953 c 1158.582 318.953 
1175.969 325.645 1190.594 339.227 c 1204.969 352.574 1213.438 372.758 1215.578
 400.676 c 1215.914 405.113 l 1295.004 405.113 l 1294.773 400.086 l 1292.523
 350.621 1277.199 311.676 1248.57 284.191 c 1220.266 257.02 1188.523 243.078
 1154.105 243.078 c 1117.664 243.078 l h
1529.484 243.082 m 1484.266 243.082 1448.344 258.039 1423.117 287.855 c
 1398.156 317.348 1384.465 352.75 1382.215 393.422 c 1381.922 398.512 l 
1460.719 398.512 l 1461.352 394.41 l 1465.68 366.242 1473.812 346.184 1484.988
 333.992 c 1496.059 321.918 1512.688 315.656 1536.109 315.656 c 1554.227
 315.656 1569.148 318.816 1581.133 324.93 c 1581.133 244.176 l 1576.074 
243.441 1571.004 243.082 1565.93 243.082 c h
170.488 318.957 m 195.355 318.957 213.121 330.93 225.816 356.852 c 238.508
 382.773 245.184 422.785 245.184 476.512 c 245.184 509.652 l 245.184 564.461
 237.949 605.242 224.195 631.688 c 210.445 658.137 191.035 670.508 163.863
 670.508 c 132.508 670.508 104.52 660.336 79.219 639.828 c 79.219 356.305
 l 111.113 331.234 141.488 318.957 170.488 318.957 c h
1581.133 418.93 m 1521.098 426.824 1474.355 443.477 1441.203 469.422 c 
1401.984 500.113 1382.215 543.863 1382.215 599.113 c 1382.215 646.227 1392.883
 682.344 1414.938 706.723 c 1436.992 731.098 1470.078 743.082 1512.934 743.082
 c 1536.961 743.082 1559.723 738.133 1581.133 728.402 c 1581.133 649.27 
l 1559.281 663.523 1539.785 670.508 1522.863 670.508 c 1500.547 670.508 
1484.742 664.535 1474.219 653.012 c 1463.727 641.52 1458.117 623.852 1458.09
 599.281 c 1458.09 599.27 1458.09 599.254 1458.09 599.242 c 1459.16 568.555
 1472.238 544.93 1498.258 526.879 c 1518.121 513.094 1545.797 502.828 1581.133
 496.301 c h
633.812 491.902 m 633.812 626.66 l 599.625 656.211 570.09 670.508 545.844
 670.508 c 523.531 670.508 507.723 664.535 497.203 653.012 c 486.711 641.523
 481.102 623.852 481.074 599.281 c 481.074 599.27 481.074 599.254 481.074
 599.242 c 482.145 568.555 495.219 544.93 521.242 526.879 c 546.363 509.445
 583.992 497.633 633.812 491.906 c h
59.871 644.516 m 59.871 647.711 l 56.691 648.996 54.496 652.398 54.191 
656.629 c 54.191 659.445 l 54.566 663.777 56.691 667.199 59.871 668.551 
c 59.871 671.727 l 54.121 669.699 51.207 664.348 51.207 658.121 c 51.207
 651.93 54.121 646.547 59.871 644.516 c h
64.668 646.957 m 64.668 649.941 l 61.316 651.125 58.926 654.305 58.926 
658.059 c 58.926 659.047 l 56.105 659.047 l 56.105 658.059 l 56.105 652.781
 59.727 648.207 64.668 646.957 c h
40.504 653.074 m 43.152 653.074 l 44.078 653.074 45.293 653.438 46.348 
654.336 c 47.391 655.227 48.246 656.656 48.262 658.668 c 48.262 658.75 l
 48.242 660.762 47.391 662.191 46.348 663.082 c 45.293 663.98 44.078 664.363
 43.152 664.363 c 40.504 664.363 l 40.504 663.23 l 43.152 663.23 l 43.75
 663.23 44.828 662.887 45.656 662.18 c 46.473 661.477 47.09 660.457 47.105
 658.75 c 47.105 658.688 l 47.086 656.98 46.391 655.941 45.57 655.242 c 
44.742 654.531 43.75 654.211 43.152 654.211 c 40.504 654.211 l h
28.117 653.727 m 28.137 653.727 28.164 653.719 28.176 653.727 c 28.191 
653.746 28.195 653.805 28.195 653.875 c 28.195 655.051 l 28.191 655.613 
28.195 656.152 28.195 656.23 c 28.195 660.332 l 28.195 660.496 28.203 660.816
 28.219 661.047 c 28.23 661.277 28.25 661.492 28.258 661.527 c 28.258 661.57
 28.293 661.73 28.316 661.887 c 28.359 662.043 28.387 662.18 28.379 662.203
 c 28.379 662.223 28.379 662.316 28.398 662.391 c 28.418 662.469 28.465 
662.555 28.484 662.582 c 28.504 662.605 28.543 662.762 28.59 662.938 c 28.637
 663.117 28.688 663.305 28.715 663.336 c 28.742 663.379 28.793 663.441 28.82
 663.484 c 28.848 663.531 28.898 663.633 28.945 663.715 c 28.992 663.801
 29.094 663.922 29.156 663.988 c 29.223 664.059 29.262 664.117 29.262 664.137
 c 29.262 664.156 29.273 664.176 29.301 664.176 c 29.328 664.176 29.406 
664.246 29.469 664.305 c 29.535 664.371 29.562 664.422 29.555 664.43 c 29.555
 664.441 29.633 664.488 29.723 664.535 c 29.816 664.59 29.91 664.652 29.934
 664.684 c 29.953 664.715 30.008 664.742 30.059 664.742 c 30.113 664.742
 30.145 664.762 30.145 664.781 c 30.145 664.805 30.203 664.836 30.27 664.867
 c 30.336 664.902 30.613 664.992 30.879 665.078 c 31.141 665.164 31.441 
665.254 31.551 665.266 c 31.66 665.281 31.785 665.293 31.824 665.309 c 31.867
 665.32 31.992 665.355 32.121 665.367 c 32.246 665.383 32.383 665.387 32.434
 665.387 c 32.961 665.387 l 33.191 665.387 33.371 665.402 33.383 665.43 
c 33.387 665.457 33.434 665.457 33.484 665.43 c 33.531 665.402 33.844 665.387
 34.18 665.387 c 34.516 665.387 34.805 665.383 34.832 665.367 c 34.859 665.348
 34.906 665.348 34.938 665.367 c 34.969 665.387 35.215 665.395 35.484 665.387
 c 35.754 665.387 35.992 665.367 36.031 665.367 c 36.578 665.367 l 36.832
 665.367 37.652 665.375 38.406 665.387 c 40.238 665.387 l 40.34 665.387 
40.762 665.383 41.184 665.367 c 44.062 665.367 l 44.613 665.367 45.227 665.355
 45.43 665.328 c 45.633 665.301 45.812 665.293 45.832 665.309 c 45.852 665.32
 45.898 665.301 45.914 665.266 c 45.934 665.238 45.977 665.246 46.02 665.266
 c 46.066 665.285 46.129 665.254 46.145 665.227 c 46.168 665.199 46.266 
665.18 46.375 665.188 c 46.508 665.188 46.605 665.172 46.652 665.125 c 46.691
 665.086 46.797 665.039 46.902 665.02 c 47.008 665 47.219 664.918 47.367
 664.832 c 47.512 664.746 47.652 664.684 47.68 664.684 c 47.707 664.684 
47.742 664.648 47.742 664.625 c 47.742 664.602 47.797 664.57 47.867 664.539
 c 47.938 664.508 48.043 664.426 48.098 664.371 c 48.16 664.312 48.312 664.145
 48.457 663.992 c 48.598 663.84 48.773 663.605 48.836 663.469 c 48.895 663.324
 48.961 663.16 48.984 663.109 c 49.004 663.055 49.066 662.965 49.086 662.898
 c 49.113 662.84 49.164 662.637 49.215 662.457 c 49.266 662.281 49.324 661.977
 49.34 661.762 c 49.352 661.551 49.387 661.348 49.402 661.32 c 49.422 661.297
 49.434 660.359 49.441 659.262 c 49.449 658.16 49.453 657.254 49.461 657.242
 c 49.461 657.184 l 49.453 657.156 49.449 656.605 49.441 655.961 c 49.441
 655.316 49.449 654.785 49.461 654.785 c 49.473 654.785 49.508 654.812 49.547
 654.844 c 49.586 654.879 49.664 654.961 49.715 655.035 c 49.785 655.145
 49.805 655.281 49.82 655.664 c 49.82 655.934 49.848 656.219 49.84 656.297
 c 49.84 656.371 49.824 657.602 49.82 659.031 c 49.801 661.23 49.773 661.68
 49.715 661.953 c 49.668 662.133 49.641 662.332 49.629 662.395 c 49.617 
662.461 49.602 662.578 49.59 662.668 c 49.582 662.758 49.523 662.91 49.484
 663.004 c 49.445 663.098 49.422 663.199 49.422 663.215 c 49.422 663.234
 49.355 663.383 49.277 663.551 c 49.195 663.723 49.09 663.902 49.043 663.949
 c 48.992 664.004 48.93 664.109 48.898 664.184 c 48.863 664.254 48.797 664.309
 48.75 664.309 c 48.703 664.309 48.668 664.324 48.668 664.348 c 48.668 664.375
 48.574 664.496 48.457 664.602 c 48.336 664.707 48.203 664.816 48.16 664.855
 c 48.113 664.895 48 664.98 47.887 665.043 c 47.773 665.109 47.598 665.188
 47.508 665.234 c 47.422 665.281 47.23 665.352 47.09 665.402 c 46.949 665.457
 46.828 665.492 46.816 665.508 c 46.801 665.52 46.664 665.559 46.5 665.59
 c 46.336 665.629 46.133 665.668 46.059 665.676 c 45.98 665.68 45.766 665.715
 45.574 665.734 c 45.383 665.762 45.004 665.797 44.734 665.797 c 43.137 
665.797 l 42.734 665.797 42.391 665.781 42.379 665.797 c 42.363 665.809 
42.148 665.824 41.875 665.816 c 41.602 665.816 41.059 665.797 40.676 665.797
 c 36.387 665.797 l 35.688 665.797 35.105 665.801 35.082 665.816 c 35.055
 665.836 34.992 665.828 34.934 665.816 c 34.867 665.797 34.695 665.789 34.555
 665.816 c 34.41 665.836 34.293 665.836 34.262 665.816 c 34.227 665.789 
34.191 665.789 34.176 665.816 c 34.164 665.836 34.066 665.844 33.965 665.836
 c 33.863 665.836 33.762 665.816 33.734 665.797 c 33.707 665.777 33.645 
665.777 33.586 665.797 c 33.527 665.816 33.324 665.828 33.145 665.836 c 
33.125 665.836 l 32.949 665.836 32.734 665.836 32.641 665.816 c 32.547 665.797
 32.422 665.809 32.367 665.816 c 32.316 665.816 32.266 665.816 32.266 665.797
 c 32.266 665.777 32.133 665.742 31.949 665.734 c 31.766 665.734 31.48 665.688
 31.34 665.652 c 31.195 665.609 31.047 665.59 31.004 665.59 c 30.953 665.59
 30.863 665.535 30.793 665.508 c 30.723 665.465 30.633 665.445 30.582 665.445
 c 30.527 665.445 30.441 665.418 30.391 665.387 c 30.336 665.344 30.262 
665.324 30.203 665.324 c 30.141 665.324 30.098 665.289 30.098 665.266 c 
30.098 665.242 30.051 665.219 29.992 665.203 c 29.934 665.184 29.789 665.102
 29.676 665.035 c 29.566 664.969 29.344 664.785 29.172 664.613 c 29.004 
664.445 28.816 664.246 28.75 664.172 c 28.684 664.098 28.559 663.926 28.477
 663.793 c 28.398 663.664 28.32 663.516 28.309 663.457 c 28.305 663.398 
28.262 663.273 28.227 663.184 c 28.188 663.094 28.109 662.879 28.059 662.703
 c 28.004 662.523 27.938 662.211 27.91 662.008 c 27.883 661.801 27.871 661.605
 27.871 661.566 c 27.871 661.523 27.855 661.016 27.852 660.43 c 27.852 659.844
 27.816 659.238 27.809 659.082 c 27.805 658.93 27.824 658.742 27.852 658.684
 c 27.871 658.617 27.852 658.578 27.809 658.578 c 27.762 658.578 27.762 
658.566 27.809 658.52 c 27.852 658.473 27.863 658.336 27.828 658.012 c 27.809
 657.766 27.809 657.539 27.828 657.508 c 27.852 657.477 27.863 657.238 27.852
 656.984 c 27.836 656.727 27.809 656.496 27.809 656.457 c 27.809 656.418
 27.816 655.852 27.828 655.195 c 27.828 654.09 27.855 653.996 27.934 653.891
 c 27.988 653.832 28.051 653.758 28.102 653.746 c h
39.387 655.766 m 44.645 655.766 l 44.645 656.902 l 39.387 656.902 l h
18.191 657.871 m 19.164 658.062 20.066 658.398 20.902 658.816 c 20.902 
670.402 l 20.902 670.402 20.855 671.809 21.281 672.969 c 21.477 673.504 
21.758 673.961 22.039 674.379 c 22.203 674.621 22.352 674.848 22.523 675.051
 c 22.562 675.09 l 22.707 675.258 22.848 675.418 22.984 675.555 c 23.223
 675.793 23.469 676.016 23.742 676.227 c 24.543 676.855 25.5 677.363 26.539
 677.594 c 26.539 680.348 l 21.602 679.367 18.188 675.102 18.188 669.961
 c 18.188 657.867 l h
39.387 658.164 m 44.645 658.164 l 44.645 659.301 l 39.387 659.301 l h
56.254 660.078 m 61.195 661.059 64.562 665.117 64.562 670.699 c 64.562 
686.953 l 61.66 686.953 l 61.66 670.699 l 61.66 668.23 60.91 665.688 59.113
 664.367 c 57.355 663.199 56.254 662.875 56.254 662.875 c h
39.809 660.562 m 44.227 660.562 l 44.75 661.699 l 39.285 661.699 l h
35.289 660.582 m 38.672 660.582 l 35.812 664.219 l 32.449 664.219 l h
70.238 666.742 m 70.934 668.238 l 66.727 677.258 l 65.32 677.258 l h
34.277 666.996 m 39.535 666.996 l 39.535 668.133 l 34.277 668.133 l h
40.566 666.996 m 43.742 666.996 l 43.742 669.793 l 40.566 669.793 l h
44.961 666.996 m 48.242 666.996 l 48.242 669.836 l 44.961 669.836 l h
49.504 667.586 m 54.918 669.039 59.066 674.07 59.641 679.824 c 56.801 681.211
 l 56.652 679.824 l 56.281 676.812 54.734 673.918 52.469 672.191 c 51.035
 671.141 49.504 670.676 49.504 670.676 c h
29.84 667.902 m 32.723 667.902 l 32.723 674.105 l 29.84 674.105 l h
34.152 669.75 m 39.766 681.758 l 38.359 681.758 l 33.438 671.242 l h
38.926 671.055 m 47.441 671.055 l 47.441 675.051 l 47.441 680.363 43.781
 684.902 38.844 686.152 c 38.844 683.188 l 42.191 681.969 44.539 678.773
 44.539 675.051 c 44.539 673.852 l 38.926 673.852 l h
26.664 671.16 m 29.27 673.324 31.188 676.25 31.188 683.355 c 31.188 698.059
 l 28.242 698.059 l 28.242 683.441 l 28.242 678.57 27.75 676.406 26.664 
675.051 c h
49.504 671.855 m 52.922 673.57 55.141 677.043 55.141 681.527 c 55.141 686.027
 l 49.883 686.027 l 49.465 684.867 49.504 683.461 49.504 683.461 c 52.344
 683.461 l 52.344 681.527 l 52.344 677.637 50.926 675.613 49.504 674.734
 c h
70.406 674.379 m 70.406 678.27 l 69.324 679.621 68.809 681.785 68.809 686.66
 c 68.809 701.273 l 65.863 701.273 l 65.863 686.574 l 65.863 679.469 67.801
 676.543 70.406 674.379 c h
74.613 674.379 m 74.613 678.27 l 73.531 679.621 73.016 681.785 73.016 686.66
 c 73.016 701.273 l 70.07 701.273 l 70.07 686.574 l 70.07 679.469 72.008
 676.543 74.613 674.379 c h
81.09 674.418 m 81.09 677.699 l 80.605 677.91 79.793 678.184 78.965 679.148
 c 77.695 680.684 77.094 682.922 77.094 685.016 c 77.094 701.273 l 74.215
 701.273 l 74.215 685.016 l 74.215 679.434 77.469 676.176 81.09 674.418 
c h
38.926 674.773 m 42.207 674.773 l 42.207 677.613 l 38.926 677.613 l h
32.027 675.469 m 35.445 677.184 37.664 680.66 37.664 685.141 c 37.664 689.645
 l 32.406 689.645 l 31.984 688.48 32.027 687.078 32.027 687.078 c 34.867
 687.078 l 34.867 685.141 l 34.867 681.25 33.449 679.23 32.027 678.352 c
 h
48.789 678.184 m 51.586 678.184 l 50.367 679.949 l 49.082 681.801 l 46.18
 681.801 l h
86.621 679.129 m 86.621 681.969 l 86.582 681.969 l 85.426 682.223 84.508
 682.652 83.785 683.207 c 81.992 684.527 81.176 687.008 81.176 689.746 c
 81.176 701.273 l 78.273 701.273 l 78.273 689.746 l 78.273 684.164 81.684
 680.109 86.625 679.129 c h
21.641 679.211 m 24.246 681.379 26.184 684.305 26.184 691.41 c 26.184 706.09
 l 23.238 706.09 l 23.238 691.492 l 23.238 686.621 22.723 684.457 21.641
 683.102 c h
15.227 679.254 m 18.844 681.012 22.102 684.27 22.102 689.852 c 22.102 706.109
 l 19.242 706.109 l 19.242 689.852 l 19.242 687.758 18.641 685.52 17.371
 683.984 c 16.543 683.02 15.711 682.746 15.227 682.535 c h
45.949 682.387 m 46.348 682.387 l 48.938 686.023 l 46.012 686.023 l 44.73
 684.176 l h
56.508 683.289 m 60.504 683.289 l 60.504 686.023 l 56.508 686.023 l h
5.551 683.691 m 10.492 684.672 13.902 688.934 13.902 694.078 c 13.902 706.148
 l 12.926 705.957 12.027 705.625 11.188 705.203 c 11.188 693.617 l 11.188
 693.617 11.234 692.211 10.809 691.051 c 10.613 690.516 10.332 690.059 10.051
 689.641 c 9.891 689.398 9.738 689.172 9.57 688.969 c 9.555 688.957 9.543
 688.949 9.527 688.93 c 9.387 688.762 9.246 688.602 9.109 688.465 c 8.871
 688.227 8.625 688.004 8.352 687.793 c 7.547 687.164 6.59 686.68 5.555 686.445
 c 5.555 683.691 l h
12.637 684.09 m 15.953 685.816 18.086 689.246 18.086 693.68 c 18.086 706.109
 l 15.184 706.109 l 15.184 693.68 l 15.184 691.211 14.535 688.5 12.637 687.18
 c h
51.668 686.781 m 51.691 686.781 l 52.027 686.781 52.316 686.789 52.34 686.801
 c 52.367 686.82 52.637 686.836 52.93 686.844 c 53.25 686.848 53.48 686.875
 53.496 686.902 c 53.52 686.938 53.52 686.938 53.539 686.902 c 53.559 686.867
 53.648 686.867 53.789 686.902 c 53.914 686.922 54.047 686.949 54.086 686.941
 c 54.125 686.941 54.227 686.949 54.316 686.965 c 54.406 686.984 54.676 
686.984 54.906 687.004 c 55.133 687.016 55.316 687.07 55.324 687.086 c 55.324
 687.109 55.43 687.109 55.535 687.086 c 55.645 687.066 55.762 687.066 55.789
 687.086 c 55.816 687.109 55.906 687.137 56 687.148 c 56.09 687.16 56.184
 687.148 56.207 687.129 c 56.234 687.094 56.312 687.102 56.398 687.129 c
 56.473 687.156 56.602 687.16 56.691 687.148 c 56.785 687.137 57.125 687.121
 57.469 687.109 c 57.816 687.086 58.324 687.062 58.605 687.047 c 58.887 
687.035 59.301 687.035 59.531 687.027 c 60.035 687.027 l 60.082 687.035 
60.121 687.062 60.121 687.086 c 60.121 687.121 60.148 687.102 60.18 687.066
 c 60.215 687.035 60.262 687.008 60.309 687.008 c 60.355 687.008 60.453 
687.074 60.516 687.133 c 60.625 687.234 60.625 687.281 60.664 687.785 c 
60.684 688.09 60.711 688.559 60.707 688.816 c 60.707 689.07 60.66 689.484
 60.645 689.742 c 60.625 689.996 60.609 690.461 60.605 690.793 c 60.605 
691.125 60.586 691.613 60.586 691.863 c 60.586 692.137 60.559 692.352 60.523
 692.391 c 60.484 692.438 60.484 692.449 60.523 692.449 c 60.559 692.449
 60.586 692.586 60.586 692.809 c 60.586 693.004 60.59 693.605 60.605 694.156
 c 60.625 694.703 60.645 695.539 60.645 696.004 c 60.645 696.469 60.672 
696.848 60.684 696.848 c 60.699 696.848 60.699 697.379 60.707 698.023 c 
60.711 698.668 60.719 699.266 60.707 699.348 c 60.684 699.453 60.652 699.496
 60.602 699.496 c 60.555 699.496 60.398 699.398 60.266 699.266 c 60.129 
699.129 59.996 698.957 59.969 698.887 c 59.941 698.816 59.891 698.742 59.844
 698.719 c 59.789 698.691 59.758 698.629 59.758 698.59 c 59.758 698.551 
59.73 698.508 59.699 698.484 c 59.664 698.465 59.598 698.379 59.551 698.297
 c 59.504 698.215 59.422 698.102 59.363 698.043 c 59.301 697.992 59.238 
697.898 59.215 697.855 c 59.188 697.809 59.102 697.785 59.027 697.77 c 58.918
 697.75 58.887 697.758 58.836 697.832 c 58.797 697.895 58.727 698.152 58.688
 698.422 c 58.648 698.691 58.629 698.992 58.629 699.094 c 58.621 699.195
 58.629 699.34 58.648 699.41 c 58.668 699.477 58.668 699.562 58.648 699.578
 c 58.629 699.598 58.613 699.742 58.609 699.914 c 58.602 700.086 58.594 
700.254 58.59 700.293 c 58.59 700.332 58.594 700.461 58.609 700.586 c 58.621
 700.715 58.656 701.285 58.668 701.848 c 58.688 702.41 58.695 702.938 58.711
 703.027 c 58.723 703.117 58.734 703.332 58.75 703.508 c 58.762 703.684 
58.797 703.867 58.809 703.91 c 58.824 703.957 58.809 704 58.789 704.035 
c 58.77 704.074 58.777 704.191 58.809 704.309 c 58.844 704.422 58.852 704.527
 58.832 704.539 c 58.809 704.555 58.789 704.715 58.789 704.918 c 58.789 
705.242 58.789 705.305 58.707 705.383 c 58.652 705.434 58.535 705.504 58.434
 705.527 c 58.332 705.555 58.148 705.562 58.031 705.547 c 57.918 705.535
 57.551 705.535 57.234 705.527 c 56.914 705.527 56.582 705.535 56.477 705.547
 c 56.371 705.57 55.996 705.598 55.656 705.609 c 55.312 705.621 54.961 705.645
 54.855 705.648 c 54.754 705.648 54.363 705.719 53.996 705.754 c 53.5 705.824
 53.07 705.828 52.355 705.816 c 51.82 705.816 51.27 705.809 51.156 705.797
 c 51.043 705.781 50.785 705.75 50.566 705.734 c 50.352 705.723 50.156 705.695
 50.148 705.676 c 50.141 705.648 50.102 705.633 50.062 705.656 c 50.016 
705.676 49.91 705.695 49.832 705.695 c 49.754 705.695 49.43 705.676 49.094
 705.656 c 48.766 705.633 48.473 705.621 48.445 705.613 c 48.41 705.602 
48.316 705.594 48.234 705.613 c 48.148 705.633 47.895 705.68 47.664 705.699
 c 47.438 705.719 47.117 705.73 46.973 705.738 c 46.828 705.738 46.684 705.766
 46.656 705.777 c 46.629 705.801 46.582 705.777 46.531 705.758 c 46.477 
705.727 46.395 705.727 46.34 705.758 c 46.293 705.785 46.094 705.812 45.898
 705.82 c 45.703 705.832 45.531 705.832 45.52 705.82 c 45.508 705.805 45.391
 705.805 45.27 705.801 c 45.148 705.801 44.902 705.758 44.723 705.738 c 
44.543 705.719 44.293 705.699 44.152 705.68 c 44.012 705.656 43.82 705.629
 43.734 705.617 c 43.645 705.605 43.531 705.57 43.48 705.559 c 43.426 705.543
 43.273 705.531 43.145 705.516 c 43.016 705.504 42.848 705.488 42.785 705.477
 c 42.727 705.461 42.473 705.41 42.219 705.391 c 41.965 705.371 41.676 705.359
 41.59 705.371 c 41.5 705.371 41.203 705.398 40.938 705.414 c 40.668 705.426
 40.367 705.473 40.262 705.496 c 40.16 705.516 39.961 705.535 39.82 705.535
 c 39.68 705.535 39.5 705.508 39.402 705.496 c 39.266 705.469 39.199 705.434
 39.191 705.371 c 39.184 705.316 39.172 705.172 39.148 705.035 c 39.129 
704.895 39.109 704.461 39.109 704.066 c 39.109 703.668 39.129 701.98 39.148
 700.324 c 39.172 698.664 39.184 696.855 39.191 696.305 c 39.191 695.758
 39.223 695.086 39.23 694.812 c 39.23 694.539 39.266 694.301 39.293 694.285
 c 39.312 694.273 39.312 694.219 39.293 694.184 c 39.27 694.137 39.238 693.969
 39.23 693.805 c 39.23 693.637 39.219 693.375 39.211 693.234 c 39.211 693.098
 39.184 692.828 39.172 692.625 c 39.156 692.422 39.137 692.238 39.129 692.227
 c 39.129 692.215 39.117 692.137 39.109 692.059 c 39.102 691.977 39.074 
691.875 39.051 691.828 c 39.023 691.781 38.98 691.559 38.965 691.344 c 38.945
 691.125 38.93 690.855 38.926 690.754 c 38.918 690.652 38.891 690.438 38.863
 690.27 c 38.836 690.105 38.785 689.906 38.781 689.828 c 38.766 689.75 38.762
 689.617 38.762 689.512 c 38.762 689.262 l 38.762 689.223 38.746 688.938
 38.719 688.629 c 38.699 688.324 38.691 687.895 38.699 687.664 c 38.699 
687.434 38.711 687.18 38.738 687.117 c 38.766 687.047 38.832 686.977 38.867
 686.949 c 38.906 686.914 39.008 686.879 39.098 686.863 c 39.184 686.844
 39.402 686.824 39.582 686.824 c 42.652 686.824 l 43.199 686.824 43.875 
686.852 44.145 686.863 c 44.414 686.883 44.652 686.898 44.691 686.902 c 
44.73 686.918 45.258 686.926 45.848 686.926 c 46.438 686.926 46.934 686.945
 46.961 686.965 c 46.996 686.984 47.117 686.984 47.234 686.965 c 47.355 
686.945 47.777 686.91 48.16 686.902 c 48.543 686.891 49.125 686.879 49.465
 686.863 c 49.801 686.852 50.113 686.816 50.137 686.805 c 50.164 686.781
 50.176 686.816 50.176 686.844 c 50.176 686.879 50.238 686.879 50.324 686.844
 c 50.402 686.816 50.602 686.789 50.766 686.805 c 50.93 686.816 51.062 686.809
 51.062 686.805 c 51.062 686.789 51.332 686.781 51.672 686.781 c h
40.273 687.77 m 40.273 695.316 l 41.152 695.316 l 41.152 695.086 l 41.434
 695.234 41.734 695.297 42.074 695.297 c 42.637 695.297 43.055 695.09 43.336
 694.664 c 43.621 694.238 43.758 693.605 43.758 692.773 c 43.758 692.375
 l 43.758 691.375 43.625 690.695 43.316 690.332 c 43.02 689.988 42.703 689.809
 42.371 689.809 c 41.93 689.809 l 41.691 689.809 41.434 689.941 41.152 690.164
 c 41.152 687.77 l h
49.293 687.77 m 49.293 694.434 l 49.293 694.723 49.367 694.934 49.523 695.086
 c 49.684 695.238 49.918 695.316 50.219 695.316 c 50.613 695.316 l 50.613
 694.52 l 50.215 694.52 l 50.188 694.52 50.188 694.52 50.176 694.5 c 50.168
 694.484 50.156 694.453 50.156 694.414 c 50.156 687.77 l h
63.301 687.832 m 64.562 687.832 l 64.562 699.125 l 63.301 699.125 l h
46.348 689.809 m 45.852 689.809 45.449 689.965 45.172 690.293 c 44.898 
690.617 44.754 691.023 44.73 691.469 c 44.73 691.508 l 45.609 691.508 l 
45.609 691.469 l 45.66 691.16 45.738 690.93 45.859 690.797 c 45.984 690.664
 46.172 690.605 46.43 690.605 c 46.688 690.605 46.891 690.66 47.039 690.777
 c 47.18 690.883 47.25 691.062 47.25 691.344 c 47.25 691.699 l 46.43 691.77
 45.801 691.961 45.375 692.289 c 44.945 692.629 44.727 693.113 44.727 693.719
 c 44.727 694.238 44.84 694.629 45.082 694.898 c 45.324 695.164 45.703 695.297
 46.176 695.297 c 46.566 695.297 46.922 695.172 47.25 694.938 c 47.25 695.297
 l 48.125 695.297 l 48.125 691.363 l 48.125 690.82 47.969 690.406 47.664
 690.164 c 47.363 689.93 47.062 689.805 46.758 689.805 c 46.336 689.805 
l h
52.555 689.809 m 52.199 689.809 51.895 689.953 51.605 690.227 c 51.316 
690.504 51.164 690.855 51.164 691.281 c 51.164 691.848 51.336 692.266 51.691
 692.52 c 52.035 692.766 52.375 692.91 52.699 692.961 c 52.996 693.047 l
 53.18 693.066 53.316 693.137 53.414 693.234 c 53.523 693.34 53.594 693.441
 53.625 693.531 c 53.66 693.617 53.664 693.723 53.664 693.887 c 53.664 694.098
 53.625 694.254 53.52 694.352 c 53.414 694.445 53.215 694.496 52.93 694.496
 c 52.672 694.496 52.465 694.445 52.32 694.309 c 52.176 694.176 52.07 693.93
 52.027 693.57 c 52.027 693.512 l 51.168 693.512 l 51.168 693.57 l 51.223
 694.164 51.406 694.617 51.734 694.898 c 52.062 695.172 52.461 695.297 52.934
 695.297 c 53.406 695.297 53.781 695.18 54.07 694.938 c 54.363 694.699 54.512
 694.336 54.512 693.887 c 54.512 693.566 54.465 693.297 54.344 693.066 c
 54.23 692.84 54.051 692.66 53.84 692.52 c 53.625 692.383 53.383 692.281
 53.062 692.203 c 52.766 692.145 l 52.531 692.098 52.336 691.988 52.199 
691.848 c 52.066 691.715 52.008 691.539 52.008 691.281 c 52.008 691.074 
52.055 690.93 52.176 690.82 c 52.297 690.711 52.504 690.629 52.785 690.629
 c 53.02 690.629 53.195 690.715 53.355 690.859 c 53.516 691.008 53.625 691.23
 53.648 691.535 c 53.648 691.594 l 54.508 691.594 l 54.508 691.535 l 54.48
 690.992 54.316 690.574 54.004 690.273 c 53.691 689.973 53.332 689.809 52.953
 689.809 c 52.551 689.809 l h
57.094 689.809 m 56.598 689.809 56.195 689.965 55.918 690.293 c 55.645 
690.617 55.504 691.023 55.477 691.469 c 55.457 691.508 l 56.332 691.508 
l 56.332 691.469 l 56.387 691.16 56.465 690.93 56.586 690.797 c 56.707 690.664
 56.895 690.605 57.152 690.605 c 57.414 690.605 57.617 690.66 57.766 690.777
 c 57.906 690.883 57.973 691.062 57.973 691.344 c 57.973 691.699 l 57.156
 691.77 56.547 691.961 56.125 692.289 c 55.691 692.629 55.473 693.113 55.473
 693.719 c 55.473 694.238 55.586 694.629 55.828 694.898 c 56.07 695.164 
56.43 695.297 56.902 695.297 c 57.293 695.297 57.645 695.172 57.973 694.938
 c 57.973 695.297 l 58.852 695.297 l 58.852 691.363 l 58.852 690.82 58.695
 690.406 58.387 690.164 c 58.09 689.93 57.789 689.805 57.484 689.805 c 57.086
 689.805 l h
62.164 690.082 m 62.164 690.102 l 62.191 690.102 62.195 690.148 62.203 
690.27 c 62.203 690.52 l 62.203 690.547 62.184 690.77 62.184 691.027 c 62.184
 694.18 l 62.176 694.465 62.184 694.723 62.203 694.75 c 62.223 694.777 62.203
 694.859 62.184 694.938 c 62.164 695.016 62.156 695.164 62.184 695.254 c
 62.203 695.344 62.211 695.434 62.203 695.441 c 62.191 695.449 62.184 695.668
 62.184 695.945 c 62.184 696.227 62.191 696.781 62.203 697.168 c 62.211 
697.547 62.23 697.879 62.246 697.902 c 62.258 697.93 62.285 698.047 62.305
 698.176 c 62.324 698.305 62.359 698.461 62.367 698.512 c 62.371 698.566
 62.426 698.727 62.473 698.891 c 62.523 699.059 62.578 699.258 62.617 699.332
 c 62.66 699.41 62.703 699.516 62.703 699.543 c 62.703 699.578 62.73 699.605
 62.742 699.605 c 62.762 699.609 62.816 699.695 62.867 699.793 c 62.922 
699.895 63.047 700.102 63.164 700.258 c 63.277 700.41 63.469 700.641 63.582
 700.762 c 63.699 700.883 63.809 700.992 63.836 700.992 c 63.863 700.992
 63.945 701.031 64.004 701.098 c 64.07 701.164 64.172 701.25 64.258 701.285
 c 64.34 701.328 64.426 701.383 64.426 701.414 c 64.426 701.445 64.445 701.445
 64.465 701.434 c 64.484 701.418 64.633 701.453 64.781 701.516 c 64.93 701.586
 65.102 701.668 65.18 701.707 c 65.258 701.746 65.434 701.809 65.559 701.832
 c 65.684 701.859 65.941 701.898 66.148 701.938 c 66.352 701.977 66.707 
702.027 66.926 702.043 c 67.105 702.059 68.008 702.059 69.07 702.062 c 69.703
 702.062 l 71.016 702.062 72.109 702.082 72.141 702.105 c 72.176 702.125
 72.211 702.125 72.227 702.105 c 72.238 702.082 73.211 702.078 74.391 702.082
 c 75.57 702.082 76.543 702.062 76.555 702.043 c 76.57 702.023 76.598 702.023
 76.617 702.043 c 76.645 702.062 77.227 702.062 77.898 702.062 c 78.684 
702.062 79.121 702.098 79.121 702.125 c 79.121 702.152 79.16 702.145 79.203
 702.125 c 79.25 702.105 79.527 702.09 79.836 702.082 c 80.141 702.082 80.41
 702.082 80.422 702.105 c 80.438 702.125 80.523 702.125 80.613 702.105 c
 80.703 702.078 80.855 702.051 80.969 702.043 c 81.086 702.031 81.242 702.016
 81.309 702.004 c 81.375 701.988 81.484 701.957 81.559 701.941 c 81.637 
701.93 81.816 701.91 81.961 701.883 c 82.098 701.855 82.332 701.785 82.484
 701.734 c 82.637 701.68 82.812 701.633 82.863 701.609 c 82.918 701.582 
83.02 701.527 83.113 701.504 c 83.207 701.469 83.316 701.434 83.348 701.398
 c 83.379 701.359 83.422 701.312 83.453 701.312 c 83.48 701.312 83.566 701.266
 83.641 701.207 c 83.715 701.141 83.824 701.078 83.871 701.062 c 83.926 
701.043 84.016 700.961 84.105 700.871 c 84.191 700.785 84.316 700.66 84.355
 700.598 c 84.402 700.531 84.434 700.492 84.461 700.492 c 84.488 700.492
 84.559 700.445 84.609 700.387 c 84.656 700.336 84.691 700.25 84.691 700.219
 c 84.691 700.195 84.734 700.129 84.777 700.074 c 84.832 700.012 84.918 
699.859 84.988 699.715 c 85.055 699.57 85.133 699.402 85.156 699.359 c 85.176
 699.312 85.246 699.16 85.301 699 c 85.355 698.84 85.406 698.637 85.406 
698.559 c 85.406 698.48 85.434 698.383 85.469 698.328 c 85.5 698.266 85.547
 698.078 85.551 697.906 c 85.566 697.734 85.586 697.527 85.613 697.465 c
 85.633 697.406 85.641 697.281 85.613 697.191 c 85.594 697.102 85.578 696.793
 85.594 696.5 c 85.605 696.203 85.613 695.938 85.613 695.91 c 85.613 695.883
 85.598 695.629 85.594 695.34 c 85.586 695.055 85.598 694.816 85.613 694.816
 c 85.625 694.816 85.625 694.695 85.613 694.543 c 85.598 694.391 85.613 
694.219 85.633 694.164 c 85.652 694.102 85.66 694.027 85.633 693.977 c 85.613
 693.922 85.605 693.566 85.613 693.195 c 85.613 692.418 l 85.613 692.352
 85.625 692.266 85.613 692.23 c 85.613 691.957 l 85.613 691.848 85.625 691.766
 85.652 691.766 c 85.68 691.766 85.719 691.801 85.734 691.852 c 85.75 691.902
 85.777 691.957 85.797 691.957 c 85.816 691.957 85.883 692.004 85.922 692.082
 c 85.984 692.195 85.984 692.398 85.984 693.09 c 85.984 693.566 86.004 694.172
 86.004 694.418 c 86.004 696.246 l 86.004 697.301 85.977 697.754 85.922 
698.16 c 85.871 698.453 85.816 698.719 85.793 698.746 c 85.766 698.781 85.762
 698.82 85.773 698.832 c 85.793 698.852 85.773 698.879 85.754 698.918 c 
85.727 698.949 85.707 699.059 85.691 699.168 c 85.68 699.277 85.625 699.418
 85.586 699.465 c 85.547 699.512 85.527 699.586 85.527 699.652 c 85.527 
699.719 85.492 699.805 85.465 699.82 c 85.441 699.84 85.426 699.883 85.426
 699.926 c 85.426 699.973 85.352 700.062 85.277 700.137 c 85.203 700.207
 85.152 700.297 85.152 700.324 c 85.152 700.359 85.078 700.473 85.004 700.578
 c 84.93 700.684 84.859 700.773 84.859 700.789 c 84.859 700.809 84.832 700.859
 84.797 700.895 c 84.758 700.934 84.727 700.953 84.715 700.953 c 84.699 
700.953 84.57 701.059 84.441 701.184 c 84.309 701.312 84.184 701.418 84.145
 701.418 c 84.105 701.418 84.043 701.469 84 701.523 c 83.953 701.574 83.828
 701.641 83.727 701.691 c 83.625 701.742 83.469 701.84 83.367 701.902 c 
83.266 701.961 83.152 701.996 83.137 701.984 c 83.117 701.973 83.051 702.02
 82.969 702.07 c 82.883 702.121 82.703 702.164 82.59 702.195 c 82.473 702.227
 82.348 702.277 82.297 702.301 c 82.242 702.32 82.09 702.355 81.961 702.383
 c 81.824 702.418 81.688 702.438 81.664 702.426 c 81.637 702.406 81.625 
702.426 81.605 702.445 c 81.582 702.473 81.48 702.473 81.371 702.465 c 81.266
 702.457 81.152 702.48 81.121 702.504 c 81.086 702.527 80.703 702.555 80.281
 702.566 c 79.852 702.578 79.496 702.594 79.48 702.605 c 79.461 702.621 
79.434 702.605 79.395 702.586 c 79.355 702.566 79.285 702.566 79.227 702.586
 c 79.168 702.605 79.102 702.605 79.082 702.586 c 79.055 702.566 78.844 
702.559 78.598 702.586 c 78.348 702.605 77.965 702.605 77.754 702.586 c 
77.543 702.574 76.133 702.559 74.602 702.566 c 73.07 702.566 71.781 702.586
 71.742 702.586 c 70.27 702.586 l 69.504 702.586 68.758 702.574 68.609 702.586
 c 68.336 702.586 l 68.328 702.586 67.945 702.566 67.473 702.547 c 67 702.531
 66.531 702.504 66.441 702.484 c 66.352 702.465 66.184 702.438 66.062 702.426
 c 65.941 702.41 65.832 702.383 65.832 702.363 c 65.832 702.344 65.766 702.324
 65.664 702.324 c 65.562 702.324 65.465 702.305 65.453 702.285 c 65.441 
702.262 65.34 702.238 65.223 702.223 c 65.105 702.203 64.953 702.156 64.887
 702.117 c 64.816 702.078 64.609 701.988 64.445 701.906 c 64.277 701.828
 64.082 701.719 64.004 701.676 c 63.922 701.629 63.785 701.543 63.688 701.465
 c 63.586 701.391 63.336 701.156 63.141 700.961 c 62.945 700.766 62.742 
700.543 62.699 700.457 c 62.652 700.371 62.609 700.301 62.594 700.289 c 
62.574 700.273 62.527 700.211 62.488 700.141 c 62.441 700.07 62.402 699.969
 62.402 699.93 c 62.402 699.891 62.391 699.871 62.363 699.871 c 62.336 699.871
 62.324 699.836 62.324 699.809 c 62.324 699.777 62.254 699.652 62.195 699.535
 c 62.129 699.422 62.07 699.195 62.027 699.031 c 61.988 698.863 61.922 698.539
 61.883 698.297 c 61.84 698.055 61.793 697.648 61.777 697.41 c 61.758 697.109
 61.758 696.977 61.797 696.926 c 61.832 696.887 61.844 696.859 61.816 696.844
 c 61.789 696.824 61.777 696.473 61.777 696.004 c 61.777 695.512 61.789 
695.18 61.816 695.16 c 61.852 695.141 61.852 695.109 61.816 695.078 c 61.789
 695.043 61.758 694.883 61.758 694.719 c 61.758 694.555 61.777 694.34 61.777
 694.234 c 61.777 694.133 61.77 693.977 61.758 693.898 c 61.758 692.09 l
 61.762 691.117 61.789 690.395 61.816 690.344 c 61.844 690.297 61.891 690.262
 61.922 690.262 c 61.957 690.262 62.012 690.207 62.07 690.156 c 62.109 690.117
 62.137 690.102 62.152 690.098 c h
33.543 690.605 m 37.664 690.605 l 37.664 691.723 l 33.543 691.723 l h
42.145 690.648 m 42.418 690.648 42.613 690.785 42.754 691.066 c 42.891 
691.352 42.965 691.781 42.965 692.371 c 42.965 692.75 l 42.965 693.352 42.883
 693.785 42.73 694.074 c 42.582 694.367 42.379 694.516 42.082 694.516 c 
41.734 694.516 41.414 694.387 41.133 694.16 c 41.133 691.066 l 41.484 690.793
 41.824 690.648 42.145 690.648 c h
34.215 692.477 m 37.031 693.887 l 36.457 699.641 32.332 704.672 26.918 
706.125 c 26.918 703.012 l 26.918 703.012 28.43 702.566 29.863 701.52 c 
32.129 699.793 33.695 696.898 34.066 693.887 c h
47.23 692.562 m 47.23 694.035 l 46.855 694.359 46.531 694.516 46.266 694.516
 c 46.02 694.516 45.855 694.457 45.738 694.328 c 45.625 694.203 45.551 694.004
 45.551 693.738 c 45.562 693.406 45.73 693.137 46.012 692.941 c 46.289 692.746
 46.688 692.625 47.23 692.562 c h
58 692.562 m 58 694.035 l 57.625 694.359 57.277 694.516 57.012 694.516 
c 56.766 694.516 56.602 694.457 56.484 694.328 c 56.371 694.203 56.297 694.004
 56.297 693.738 c 56.309 693.406 56.477 693.137 56.758 692.941 c 57.035 
692.746 57.453 692.625 58 692.562 c h
7.402 694.621 m 7.422 694.621 7.422 694.684 7.402 694.727 c 7.391 694.781
 7.41 694.82 7.422 694.832 c 7.441 694.848 7.457 694.902 7.441 694.957 c
 7.43 695.012 7.422 695.238 7.422 695.441 c 7.422 696.516 l 7.422 696.695
 7.43 696.902 7.441 697 c 7.457 697.09 7.43 697.195 7.402 697.207 c 7.375
 697.23 7.363 697.25 7.383 697.27 c 7.395 697.289 7.422 697.551 7.422 697.836
 c 7.422 699.668 l 7.422 700.383 7.438 701.199 7.441 701.477 c 7.441 701.754
 7.465 701.984 7.484 702 c 7.504 702.02 7.535 702.094 7.543 702.168 c 7.551
 702.246 7.551 702.379 7.562 702.465 c 7.578 702.547 7.625 702.648 7.648
 702.695 c 7.676 702.742 7.703 702.852 7.707 702.926 c 7.73 703 7.742 703.07
 7.75 703.094 c 7.75 703.121 7.832 703.297 7.918 703.473 c 8.004 703.652
 8.117 703.875 8.168 703.977 c 8.223 704.078 8.344 704.285 8.445 704.441
 c 8.539 704.594 8.676 704.805 8.758 704.902 c 8.844 705 9.023 705.188 9.156
 705.324 c 9.293 705.461 9.434 705.574 9.453 705.578 c 9.473 705.578 9.523
 705.617 9.578 705.66 c 9.641 705.715 9.684 705.777 9.684 705.809 c 9.684
 705.836 9.711 705.867 9.746 705.867 c 9.785 705.867 9.891 705.922 9.977
 705.992 c 10.062 706.07 10.18 706.148 10.25 706.16 c 10.316 706.184 10.375
 706.207 10.375 706.223 c 10.375 706.242 10.414 706.27 10.461 706.281 c 
10.508 706.297 10.574 706.336 10.629 706.367 c 10.684 706.402 10.758 706.449
 10.797 706.473 c 10.836 706.5 10.938 706.539 11.027 706.578 c 11.117 706.617
 11.234 706.656 11.277 706.684 c 11.328 706.711 11.375 706.742 11.406 706.742
 c 11.438 706.742 11.516 706.77 11.594 706.805 c 11.676 706.844 11.883 706.906
 12.035 706.949 c 12.188 707 12.328 707.039 12.352 707.035 c 12.371 707.035
 12.512 707.055 12.668 707.098 c 12.824 707.148 13.051 707.211 13.172 707.223
 c 13.293 707.234 13.41 707.25 13.426 707.262 c 13.438 707.277 13.504 707.262
 13.57 707.242 c 13.656 707.207 13.742 707.215 13.824 707.242 c 13.902 707.277
 14.535 707.281 15.465 707.281 c 17.355 707.281 l 17.555 707.281 17.742 
707.309 17.777 707.324 c 17.816 707.336 17.863 707.324 17.863 707.301 c 
17.863 707.281 17.988 707.254 18.156 707.262 c 18.324 707.262 18.477 707.289
 18.492 707.301 c 18.508 707.324 18.555 707.301 18.598 707.281 c 18.652 
707.254 18.703 707.25 18.723 707.262 c 18.75 707.277 18.871 707.281 18.996
 707.281 c 19.121 707.281 19.395 707.277 19.605 707.262 c 19.816 707.262
 19.984 707.262 19.984 707.281 c 19.984 707.301 20.074 707.297 20.176 707.262
 c 20.293 707.227 20.375 707.227 20.426 707.262 c 20.48 707.289 20.566 707.297
 20.66 707.262 c 20.746 707.234 21.953 707.242 23.52 707.262 c 25.008 707.281
 26.363 707.289 26.527 707.281 c 26.691 707.281 26.891 707.262 26.969 707.262
 c 27.043 707.262 27.77 707.27 28.586 707.281 c 29.402 707.281 30.129 707.281
 30.184 707.262 c 30.254 707.242 30.289 707.25 30.289 707.281 c 30.289 707.316
 30.332 707.328 30.375 707.301 c 30.422 707.281 30.578 707.25 30.73 707.242
 c 30.883 707.242 31.203 707.195 31.445 707.156 c 31.691 707.117 31.992 
707.082 32.121 707.051 c 32.246 707.02 32.414 707 32.477 706.992 c 32.543
 706.992 32.594 706.938 32.605 706.906 c 32.617 706.875 32.676 706.867 32.75
 706.867 c 32.824 706.867 32.906 706.836 32.918 706.809 c 32.934 706.785
 32.988 706.762 33.066 706.746 c 33.145 706.727 33.391 706.641 33.613 706.535
 c 33.836 706.43 34.043 706.32 34.055 706.305 c 34.066 706.285 34.125 706.238
 34.203 706.199 c 34.281 706.16 34.391 706.109 34.453 706.074 c 34.523 706.035
 34.602 705.98 34.621 705.945 c 34.645 705.914 34.676 705.887 34.707 705.887
 c 34.742 705.887 34.824 705.816 34.895 705.762 c 34.965 705.695 35.023 
705.641 35.023 705.613 c 35.023 705.578 35.062 705.555 35.105 705.555 c 
35.16 705.555 35.211 705.539 35.211 705.512 c 35.211 705.484 35.34 705.336
 35.504 705.176 c 35.672 705.016 35.82 704.863 35.82 704.84 c 35.82 704.82
 35.863 704.742 35.906 704.691 c 35.961 704.637 36.035 704.547 36.094 704.48
 c 36.148 704.414 36.219 704.367 36.223 704.355 c 36.223 704.344 36.328 
704.082 36.473 703.789 c 36.617 703.488 36.746 703.223 36.746 703.199 c 
36.746 703.172 36.785 703.074 36.832 702.969 c 36.883 702.863 36.934 702.734
 36.934 702.672 c 36.934 702.613 36.941 702.488 36.977 702.398 c 37.004 
702.312 37.047 702.031 37.082 701.789 c 37.121 701.492 37.152 700.801 37.141
 699.625 c 37.141 698.574 37.141 697.895 37.16 697.879 c 37.188 697.859 
37.23 697.887 37.246 697.938 c 37.258 698 37.285 698.043 37.305 698.043 
c 37.332 698.043 37.352 698.086 37.367 698.129 c 37.387 698.184 37.434 698.211
 37.473 698.211 c 37.512 698.211 37.531 698.238 37.531 698.273 c 37.531 
698.301 37.559 698.359 37.594 698.398 c 37.633 698.438 37.652 698.496 37.652
 698.547 c 37.652 698.602 37.695 698.652 37.738 698.652 c 37.805 698.652
 37.797 698.672 37.777 698.82 c 37.766 698.922 37.777 699.035 37.797 699.051
 c 37.824 699.07 37.84 699.109 37.816 699.156 c 37.805 699.203 37.797 699.457
 37.797 699.723 c 37.797 704.496 l 37.805 705.023 37.805 705.48 37.777 705.508
 c 37.758 705.539 37.758 705.547 37.777 705.547 c 37.797 705.547 37.816 
706.484 37.816 707.609 c 37.816 709.312 37.816 709.656 37.758 709.691 c 
37.719 709.719 37.648 709.73 37.59 709.73 c 37.535 709.73 37.484 709.723
 37.484 709.691 c 37.484 709.664 37.449 709.648 37.426 709.668 c 37.391 
709.691 37.293 709.703 37.191 709.711 c 37.09 709.711 36.727 709.73 36.395
 709.73 c 13.008 709.73 l 12.98 709.723 12.707 709.711 12.398 709.711 c 
12.09 709.711 11.816 709.719 11.789 709.73 c 11.535 709.73 l 11.371 709.73
 11.32 709.719 11.348 709.668 c 11.375 709.621 11.359 709.621 11.309 709.668
 c 11.258 709.703 10.922 709.723 10.359 709.73 c 9.414 709.73 l 9.375 709.73
 9.176 709.723 8.973 709.711 c 8.77 709.711 8.582 709.711 8.551 709.73 c
 8.551 709.75 l 8.52 709.77 8.48 709.766 8.469 709.75 c 8.449 709.73 8.066
 709.73 7.625 709.73 c 6.824 709.73 6.828 709.719 6.828 708.953 c 6.828 
708.535 6.848 708.184 6.867 708.176 c 6.887 708.16 6.883 708.102 6.848 708.027
 c 6.82 707.949 6.812 707.75 6.828 707.586 c 6.84 707.422 6.855 707.27 6.867
 707.25 c 6.883 707.23 6.867 707.043 6.848 706.828 c 6.82 706.574 6.82 706.371
 6.848 706.262 c 6.875 706.168 6.887 706.098 6.867 706.094 c 6.848 706.094
 6.84 705.809 6.848 705.48 c 6.855 705.156 6.855 704.848 6.848 704.809 c
 6.848 700.457 l 6.848 700.418 6.84 700.043 6.828 699.617 c 6.812 699.148
 6.828 698.832 6.848 698.816 c 6.875 698.801 6.867 698.754 6.848 698.73 
c 6.828 698.703 6.832 697.898 6.828 696.922 c 6.828 695.219 6.828 695.145
 6.91 695.008 c 6.965 694.934 7.016 694.852 7.039 694.84 c 7.059 694.84 
7.133 694.773 7.207 694.715 c 7.277 694.656 7.355 694.609 7.375 694.609 
c h
47.23 696.641 m 47.23 698.023 l 48.109 698.023 l 48.109 696.641 l h
40.504 698.66 m 40.441 698.68 l 40.441 704.164 l 41.281 704.164 l 41.281
 699.793 l 41.465 699.57 41.73 699.477 42.078 699.477 c 42.289 699.477 42.445
 699.512 42.582 699.582 c 42.707 699.656 42.773 699.793 42.773 700.023 c
 42.773 704.164 l 43.609 704.164 l 43.609 699.812 l 43.84 699.59 44.125 
699.477 44.473 699.477 c 44.734 699.477 44.902 699.52 44.996 699.582 c 45.086
 699.652 45.145 699.789 45.145 700.023 c 45.145 704.164 l 46.02 704.164 
l 46.02 700.023 l 46.02 699.551 45.879 699.211 45.621 698.992 c 45.371 698.777
 45.121 698.676 44.863 698.676 c 44.465 698.676 l 44.031 698.676 43.645 
698.836 43.328 699.137 c 43.227 699.004 43.109 698.883 42.949 698.801 c 
42.773 698.715 42.586 698.676 42.383 698.676 c 42.066 698.676 l 41.738 698.676
 41.469 698.77 41.27 698.926 c 41.27 698.656 l 40.492 698.656 l h
47.297 698.66 m 47.234 698.68 l 47.234 704.164 l 48.113 704.164 l 48.113
 698.656 l 47.293 698.656 l h
49.355 698.66 m 49.273 698.68 l 49.273 704.164 l 50.109 704.164 l 50.109
 700.129 l 50.25 699.945 50.41 699.793 50.57 699.668 c 50.73 699.543 50.922
 699.477 51.184 699.477 c 51.395 699.477 51.555 699.52 51.664 699.582 c 
51.762 699.645 51.832 699.766 51.832 700.023 c 51.832 704.164 l 52.668 704.164
 l 52.668 699.895 l 52.668 699.52 52.539 699.207 52.309 698.992 c 52.086
 698.777 51.832 698.676 51.555 698.676 c 51.152 698.676 l 50.93 698.676 
50.762 698.688 50.629 698.738 c 50.504 698.789 50.383 698.859 50.27 698.945
 c 50.203 699 50.172 699.055 50.125 699.117 c 50.125 698.656 l 49.348 698.656
 l h
55.434 698.68 m 55.004 698.68 54.613 698.895 54.277 699.289 c 53.938 699.691
 53.773 700.289 53.773 701.098 c 53.773 701.707 l 53.773 702.422 53.969 
703.016 54.34 703.473 c 54.715 703.934 55.211 704.168 55.832 704.168 c 56.207
 704.168 56.551 704.082 56.863 703.895 c 57.18 703.707 57.395 703.395 57.496
 702.969 c 57.516 702.91 l 56.59 702.91 l 56.57 702.93 l 56.5 703.066 56.41
 703.184 56.297 703.266 c 56.188 703.34 56.039 703.367 55.836 703.371 c 
55.438 703.344 55.148 703.195 54.949 702.906 c 54.762 702.625 54.645 702.27
 54.613 701.816 c 57.516 701.816 l 57.516 701.102 l 57.516 700.293 57.363
 699.676 57.012 699.273 c 56.664 698.879 56.281 698.684 55.875 698.684 c
 55.434 698.684 l h
55.645 699.48 m 55.973 699.48 56.238 699.594 56.422 699.836 c 56.598 700.066
 56.672 700.469 56.652 701.016 c 54.613 701.016 l 54.621 700.52 54.719 700.133
 54.91 699.879 c 55.109 699.609 55.344 699.48 55.645 699.48 c h
59.621 701.055 m 62.5 701.055 l 62.5 720.172 l 62.5 722.508 63.484 723.785
 65.109 724.797 c 65.109 727.934 l 61.859 726.68 59.621 723.758 59.621 720.172
 c h
63.676 702.719 m 64.648 702.91 65.551 703.223 66.391 703.641 c 66.391 715.25
 l 66.391 715.25 66.352 716.656 66.77 717.816 c 66.965 718.352 67.246 718.785
 67.527 719.203 c 67.691 719.449 67.84 719.695 68.012 719.898 c 68.051 719.938
 l 68.191 720.105 68.336 720.242 68.473 720.383 c 68.707 720.621 68.953 
720.84 69.227 721.055 c 70.031 721.68 70.988 722.188 72.023 722.422 c 72.023
 725.176 l 67.086 724.195 63.676 719.93 63.676 714.785 c 63.676 702.715 
l h
67.844 703.578 m 67.895 703.566 67.902 703.656 67.902 704.125 c 67.902 
708.164 l 67.902 709.621 67.91 710.867 67.922 710.918 c 67.941 710.973 67.977
 711.133 67.984 711.297 c 67.984 711.461 68.023 711.641 68.043 711.695 c
 68.078 711.758 68.098 711.867 68.086 711.93 c 68.07 711.996 68.07 712.035
 68.086 712.035 c 68.105 712.035 68.133 712.082 68.168 712.16 c 68.203 712.234
 68.25 712.352 68.254 712.414 c 68.258 712.473 68.301 712.562 68.336 712.602
 c 68.379 712.641 68.426 712.754 68.441 712.832 c 68.461 712.91 68.484 712.957
 68.504 712.957 c 68.523 712.957 68.562 713.047 68.609 713.148 c 68.656 
713.246 68.691 713.352 68.691 713.379 c 68.691 713.414 68.73 713.465 68.797
 713.504 c 68.863 713.555 68.922 713.602 68.922 713.633 c 68.922 713.664
 68.996 713.777 69.09 713.883 c 69.188 713.992 69.348 714.164 69.449 714.285
 c 69.551 714.398 69.855 714.652 70.121 714.832 c 70.391 715.008 70.652 
715.152 70.711 715.168 c 70.766 715.18 70.816 715.215 70.816 715.227 c 70.816
 715.246 70.91 715.301 71.027 715.332 c 71.141 715.367 71.266 715.395 71.277
 715.418 c 71.293 715.438 71.344 715.457 71.406 715.457 c 71.473 715.457
 71.535 715.469 71.551 715.496 c 71.57 715.523 71.613 715.559 71.68 715.559
 c 71.746 715.559 71.805 715.578 71.805 715.598 c 71.805 715.617 71.918 
715.668 72.078 715.703 c 72.234 715.742 72.426 715.758 72.477 715.766 c 
72.531 715.766 72.672 715.785 72.812 715.805 c 72.953 715.824 73.152 715.852
 73.254 715.863 c 73.355 715.879 73.82 715.891 74.285 715.906 c 74.75 715.918
 75.164 715.926 75.191 715.945 c 75.215 715.965 75.23 715.961 75.23 715.945
 c 75.23 715.926 75.684 715.891 76.238 715.887 c 80.887 715.887 l 81.434
 715.887 81.938 715.879 82 715.863 c 82.422 715.863 l 82.512 715.863 82.715
 715.879 82.863 715.863 c 83.012 715.852 83.117 715.852 83.117 715.863 c
 83.117 715.887 83.258 715.906 83.41 715.906 c 83.566 715.906 83.691 715.879
 83.703 715.863 c 83.719 715.852 83.934 715.852 84.168 715.863 c 84.402 
715.879 85.949 715.898 87.617 715.906 c 89.285 715.906 90.652 715.891 90.664
 715.863 c 90.68 715.844 90.754 715.844 90.832 715.844 c 90.914 715.844 
91.121 715.844 91.273 715.824 c 91.43 715.812 91.652 715.766 91.781 715.738
 c 91.906 715.707 92.059 715.68 92.117 715.656 c 92.176 715.637 92.258 715.598
 92.305 715.598 c 92.359 715.598 92.465 715.57 92.539 715.535 c 92.609 715.496
 92.75 715.43 92.852 715.387 c 92.953 715.34 93.082 715.289 93.148 715.262
 c 93.215 715.234 93.297 715.195 93.336 715.18 c 93.379 715.156 93.441 715.129
 93.484 715.117 c 93.531 715.098 93.566 715.078 93.566 715.059 c 93.566 
715.035 93.621 714.996 93.672 714.996 c 93.734 714.996 93.836 714.938 93.926
 714.848 c 94.012 714.762 94.129 714.68 94.18 714.68 c 94.227 714.68 94.27
 714.652 94.281 714.621 c 94.297 714.586 94.41 714.484 94.535 714.387 c 
94.664 714.293 94.766 714.188 94.766 714.156 c 94.766 714.125 94.844 714.027
 94.934 713.945 c 95.023 713.863 95.102 713.766 95.102 713.738 c 95.102 
713.703 95.156 713.594 95.25 713.484 c 95.34 713.375 95.418 713.27 95.418
 713.23 c 95.418 713.191 95.48 713.121 95.523 713.062 c 95.578 713.004 95.609
 712.918 95.609 712.895 c 95.609 712.875 95.641 712.797 95.691 712.727 c
 95.746 712.656 95.77 712.594 95.754 712.582 c 95.738 712.566 95.773 712.512
 95.812 712.453 c 95.852 712.395 95.938 712.125 96.004 711.863 c 96.07 711.605
 96.109 711.328 96.109 711.254 c 96.109 711.184 96.113 711.09 96.129 711.043
 c 96.133 710.996 96.156 710.953 96.168 710.941 c 96.184 710.926 96.195 
710.504 96.188 709.992 c 96.188 709.484 96.188 709.059 96.207 709.047 c 
96.23 709.035 96.207 708.914 96.188 708.773 c 96.16 708.633 96.16 708.484
 96.188 708.438 c 96.207 708.383 96.234 708.316 96.23 708.289 c 96.223 708.262
 96.195 707.855 96.188 707.363 c 96.184 706.629 96.195 706.461 96.25 706.461
 c 96.289 706.461 96.316 706.508 96.332 706.543 c 96.352 706.59 96.441 706.723
 96.523 706.84 c 96.605 706.957 96.691 707.145 96.73 707.262 c 96.793 707.426
 96.809 707.652 96.793 708.395 c 96.781 708.906 96.773 709.336 96.773 709.363
 c 96.773 709.391 96.758 709.633 96.773 709.91 c 96.781 710.246 96.773 710.465
 96.73 710.539 c 96.691 710.609 96.699 710.648 96.73 710.668 c 96.758 710.688
 96.758 710.859 96.754 711.066 c 96.754 711.273 96.719 711.535 96.691 711.633
 c 96.652 711.734 96.637 711.824 96.652 711.844 c 96.664 711.863 96.617 
712.078 96.547 712.309 c 96.473 712.535 96.395 712.773 96.379 712.855 c 
96.359 712.934 96.316 713 96.293 713 c 96.266 713 96.262 713.035 96.273 
713.062 c 96.289 713.09 96.289 713.168 96.234 713.25 c 96.188 713.336 96.121
 713.422 96.086 713.441 c 96.055 713.461 96.02 713.543 96.004 713.629 c 
95.98 713.715 95.91 713.855 95.832 713.926 c 95.762 713.996 95.688 714.062
 95.688 714.094 c 95.688 714.125 95.613 714.254 95.52 714.367 c 95.422 714.477
 95.277 714.645 95.184 714.742 c 95.086 714.844 94.992 714.93 94.992 714.953
 c 94.992 714.98 94.965 715.016 94.934 715.016 c 94.891 715.016 94.84 715.055
 94.805 715.098 c 94.766 715.152 94.672 715.242 94.574 715.309 c 94.48 715.375
 94.371 715.43 94.344 715.438 c 94.316 715.438 94.242 715.504 94.195 715.562
 c 94.148 715.621 94.09 715.668 94.07 715.668 c 94.051 715.668 93.941 715.715
 93.816 715.793 c 93.699 715.867 93.559 715.941 93.504 715.941 c 93.441 
715.941 93.363 715.969 93.332 716 c 93.301 716.043 93.211 716.098 93.125
 716.125 c 93.035 716.16 92.953 716.195 92.953 716.211 c 92.953 716.23 92.883
 716.246 92.785 716.25 c 92.691 716.25 92.516 716.293 92.41 716.336 c 92.301
 716.391 92.184 716.434 92.133 716.418 c 92.082 716.406 91.98 716.418 91.902
 716.461 c 91.828 716.5 91.711 716.543 91.652 716.543 c 91.441 716.543 l
 91.379 716.543 91.301 716.559 91.273 716.586 c 91.238 716.609 91.121 716.645
 91.02 716.645 c 90.922 716.645 90.672 716.66 90.453 716.684 c 90.234 716.707
 90.051 716.711 90.031 716.707 c 90.012 716.707 88.504 716.691 86.688 716.684
 c 84.871 716.684 83.375 716.664 83.367 716.645 c 83.352 716.625 83.281 
716.625 83.199 716.645 c 83.113 716.664 82.789 716.672 82.461 716.664 c 
82.133 716.664 81.859 716.66 81.852 716.645 c 81.84 716.645 81.672 716.633
 81.473 716.645 c 81.273 716.664 81.09 716.672 81.074 716.664 c 81.055 716.652
 80.84 716.637 80.59 716.645 c 80.34 716.645 79.949 716.652 79.727 716.664
 c 79.477 716.664 79.309 716.664 79.309 716.625 c 79.309 716.598 79.285 
716.605 79.266 716.625 c 79.238 716.664 78.703 716.68 77.289 716.684 c 76.215
 716.684 75.066 716.691 74.723 716.707 c 74.094 716.707 l 74.094 716.707
 73.887 716.691 73.629 716.684 c 73.375 716.672 72.906 716.625 72.602 716.578
 c 72.293 716.531 72.023 716.48 71.988 716.453 c 71.957 716.426 71.898 716.422
 71.863 716.434 c 71.824 716.445 71.781 716.434 71.758 716.414 c 71.738 
716.395 71.613 716.34 71.484 716.309 c 71.359 716.273 71.18 716.207 71.086
 716.16 c 70.992 716.113 70.867 716.078 70.812 716.078 c 70.75 716.078 70.695
 716.035 70.688 715.992 c 70.672 715.941 70.609 715.918 70.52 715.91 c 70.438
 715.91 70.363 715.867 70.352 715.848 c 70.336 715.828 70.281 715.809 70.223
 715.789 c 70.156 715.766 70.082 715.719 70.055 715.703 c 70.027 715.684
 69.941 715.617 69.867 715.555 c 69.789 715.496 69.633 715.391 69.531 715.324
 c 69.43 715.258 69.281 715.145 69.191 715.051 c 69.105 714.961 69.016 714.883
 68.984 714.883 c 68.949 714.883 68.922 714.844 68.922 714.801 c 68.922 
714.754 68.863 714.676 68.797 714.629 c 68.727 714.582 68.641 714.504 68.605
 714.461 c 68.574 714.422 68.465 714.281 68.375 714.148 c 68.289 714.012
 68.191 713.918 68.164 713.918 c 68.141 713.918 68.125 713.883 68.125 713.855
 c 68.125 713.82 68.055 713.625 67.957 713.434 c 67.859 713.246 67.727 712.934
 67.664 712.742 c 67.594 712.551 67.531 712.398 67.516 712.383 c 67.496 
712.371 67.477 712.258 67.453 712.133 c 67.434 712.004 67.387 711.859 67.371
 711.816 c 67.352 711.77 67.324 711.469 67.309 711.145 c 67.297 710.816 
67.285 709.949 67.27 709.23 c 67.258 708.363 67.25 707.926 67.289 707.926
 c 67.316 707.926 67.332 707.887 67.309 707.84 c 67.289 707.793 67.262 707.453
 67.27 707.086 c 67.27 706.715 67.289 706.395 67.289 706.367 c 67.289 706.344
 67.277 705.824 67.27 705.234 c 67.258 704.156 67.27 704.172 67.418 704.016
 c 67.496 703.926 67.598 703.781 67.648 703.719 c 67.703 703.652 67.758 
703.602 67.797 703.594 c 67.836 703.574 l h
57.18 706.25 m 57.523 706.398 58.016 706.586 58.566 707.008 c 58.566 729.824
 l 55.812 729.824 l 55.812 706.984 l 56.348 706.602 56.852 706.395 57.18
 706.25 c h
39.074 706.461 m 44.332 706.461 l 44.75 707.621 44.707 709.027 44.707 709.027
 c 41.871 709.027 l 41.871 710.961 l 41.871 714.852 43.289 716.875 44.707
 717.754 c 44.707 720.633 l 41.293 718.922 39.074 715.445 39.074 710.961
 c h
45.426 706.461 m 46.707 706.461 l 46.707 717.773 l 45.426 717.773 l h
47.652 706.461 m 50.535 706.461 l 50.535 725.578 l 50.535 727.91 51.52 
729.207 53.141 730.223 c 53.141 733.359 l 49.895 732.105 47.652 729.164 
47.652 725.578 c h
51.754 706.48 m 51.754 706.48 53.262 706.945 54.699 707.996 c 54.699 726.039
 l 53.262 727.086 51.754 727.555 51.754 727.555 c h
43.551 709.91 m 44.688 709.91 l 44.688 712.199 l 43.551 712.199 l h
22.965 710.855 m 25.824 710.855 l 25.824 737.375 l 22.965 737.375 l h
26.898 710.855 m 29.84 710.855 l 29.84 737.375 l 26.898 737.375 l h
30.914 710.875 m 33.793 710.875 l 33.793 711.129 l 33.754 711.129 l 33.754
 737.375 l 30.914 737.375 l h
34.91 713.336 m 34.91 713.336 36.008 713.641 37.77 714.809 c 37.77 737.375
 l 34.91 737.375 l h
45.426 718.594 m 46.707 718.594 l 46.707 729.887 l 45.426 729.887 l h
41.637 719.496 m 41.68 719.496 l 41.68 726.984 l 38.84 726.984 l 38.84 
720.738 l 39.562 720.184 40.48 719.754 41.637 719.496 c h
44.395 724.062 m 44.414 724.082 l 44.449 724.082 44.473 724.137 44.473 
724.207 c 44.473 727.426 l 44.488 730.086 44.473 730.5 44.414 730.535 c 
44.375 730.562 44.367 730.578 44.395 730.578 c 44.422 730.578 44.453 730.605
 44.453 730.637 c 44.453 730.672 44.469 730.906 44.473 731.164 c 44.488 
731.418 44.523 731.73 44.535 731.855 c 44.555 731.984 44.57 732.113 44.574
 732.152 c 44.582 732.191 44.617 732.301 44.637 732.402 c 44.656 732.504
 44.723 732.754 44.785 732.949 c 44.852 733.148 44.922 733.379 44.973 733.477
 c 45.027 733.574 45.078 733.699 45.078 733.727 c 45.078 733.762 45.105 
733.781 45.117 733.789 c 45.137 733.797 45.18 733.859 45.223 733.938 c 45.27
 734.012 45.32 734.141 45.348 734.211 c 45.383 734.281 45.441 734.336 45.477
 734.336 c 45.516 734.336 45.535 734.355 45.535 734.398 c 45.535 734.438
 45.598 734.535 45.664 734.605 c 45.734 734.676 45.918 734.828 46.039 734.945
 c 46.164 735.062 46.266 735.16 46.293 735.176 c 46.32 735.188 46.484 735.266
 46.652 735.363 c 46.816 735.461 46.992 735.555 47.027 735.574 c 47.07 735.594
 47.156 735.66 47.238 735.699 c 47.324 735.746 47.461 735.762 47.535 735.762
 c 47.605 735.762 47.68 735.816 47.703 735.848 c 47.723 735.887 47.848 735.914
 47.977 735.93 c 48.102 735.949 48.312 735.988 48.438 736.016 c 48.566 736.043
 48.75 736.066 48.836 736.074 c 48.926 736.082 49.43 736.094 49.953 736.117
 c 50.477 736.129 51.188 736.137 51.531 736.137 c 52.582 736.137 l 52.824
 736.137 53.203 736.141 53.402 736.156 c 53.602 736.168 53.77 736.156 53.781
 736.156 c 53.781 736.137 54.039 736.137 54.348 736.137 c 54.656 736.137
 54.918 736.141 54.938 736.156 c 54.957 736.176 54.996 736.184 55.02 736.156
 c 55.047 736.129 55.172 736.129 55.293 736.156 c 55.418 736.176 55.602 
736.176 55.691 736.156 c 55.789 736.137 56.234 736.129 56.684 736.137 c 
60.277 736.137 l 60.305 736.137 61.441 736.129 62.824 736.117 c 64.199 736.102
 65.492 736.094 65.684 736.074 c 65.875 736.055 66.098 736.035 66.188 736.035
 c 66.277 736.027 66.363 736.016 66.375 735.996 c 66.391 735.973 66.457 
735.941 66.523 735.934 c 66.594 735.926 66.676 735.914 66.691 735.895 c 
66.711 735.875 66.781 735.852 66.859 735.852 c 66.941 735.852 67.023 735.84
 67.051 735.812 c 67.074 735.785 67.242 735.715 67.43 735.645 c 67.613 735.574
 67.77 735.5 67.785 735.477 c 67.801 735.457 67.863 735.438 67.91 735.438
 c 67.965 735.438 68.023 735.387 68.039 735.352 c 68.051 735.312 68.09 735.293
 68.121 735.293 c 68.164 735.293 68.254 735.238 68.332 735.164 c 68.406 
735.09 68.488 735.027 68.523 735.039 c 68.555 735.055 68.613 735 68.648 
734.934 c 68.68 734.867 68.758 734.805 68.816 734.766 c 68.875 734.727 68.922
 734.656 68.922 734.617 c 68.922 734.578 68.953 734.559 68.98 734.559 c 
69.008 734.559 69.023 734.504 69.023 734.473 c 69.023 734.434 69.062 734.406
 69.105 734.391 c 69.16 734.371 69.215 734.305 69.23 734.242 c 69.25 734.176
 69.277 734.137 69.293 734.137 c 69.312 734.137 69.441 733.914 69.566 733.652
 c 69.688 733.391 69.824 733.023 69.883 732.836 c 69.934 732.641 70.02 732.355
 70.051 732.203 c 70.082 732.051 70.109 731.902 70.133 731.867 c 70.152 
731.824 70.152 731.758 70.133 731.719 c 70.113 731.68 70.102 731.477 70.113
 731.277 c 70.133 731.078 70.125 730.914 70.113 730.898 c 70.094 730.887
 70.102 730.844 70.133 730.816 c 70.16 730.781 70.168 730.746 70.152 730.73
 c 70.133 730.711 70.125 730.48 70.133 730.203 c 70.141 729.93 70.148 729.469
 70.152 729.176 c 70.152 728.879 70.148 728.621 70.113 728.605 c 70.086 
728.586 70.086 728.527 70.113 728.48 c 70.141 728.426 70.152 728.359 70.133
 728.312 c 70.113 728.258 70.113 728.137 70.133 728.02 c 70.152 727.902 
70.16 727.477 70.152 727.094 c 70.148 726.711 70.152 726.363 70.172 726.316
 c 70.199 726.23 70.199 726.23 70.277 726.336 c 70.324 726.402 70.363 726.477
 70.363 726.504 c 70.363 726.531 70.434 726.629 70.512 726.734 c 70.652 
726.93 70.66 726.926 70.656 727.914 c 70.656 728.453 70.637 729.348 70.637
 729.887 c 70.637 730.43 70.637 730.918 70.656 730.984 c 70.676 731.059 
70.672 731.109 70.637 731.109 c 70.602 731.109 70.602 731.121 70.617 731.148
 c 70.637 731.176 70.645 731.301 70.637 731.422 c 70.637 731.543 70.625 
731.703 70.617 731.781 c 70.609 731.855 70.574 732.094 70.555 732.305 c 
70.523 732.52 70.473 732.75 70.449 732.809 c 70.43 732.871 70.438 732.922
 70.449 732.938 c 70.465 732.949 70.449 733.004 70.41 733.062 c 70.375 733.121
 70.328 733.176 70.328 733.188 c 70.328 733.203 70.312 733.301 70.285 733.398
 c 70.266 733.496 70.184 733.742 70.098 733.926 c 70.008 734.105 69.887 
734.34 69.824 734.449 c 69.754 734.562 69.609 734.723 69.508 734.828 c 69.406
 734.938 69.297 735.094 69.254 735.164 c 69.207 735.234 69.141 735.293 69.109
 735.293 c 69.074 735.293 69.027 735.344 68.98 735.398 c 68.934 735.457 
68.801 735.566 68.688 735.648 c 68.574 735.73 68.461 735.789 68.434 735.773
 c 68.414 735.762 68.395 735.773 68.395 735.797 c 68.395 735.82 68.312 735.879
 68.207 735.941 c 68.098 736.004 67.867 736.113 67.703 736.172 c 67.535 
736.227 67.344 736.309 67.281 736.34 c 67.215 736.375 67.137 736.383 67.09
 736.383 c 67.043 736.383 66.969 736.414 66.922 736.441 c 66.875 736.461
 66.668 736.504 66.461 736.547 c 66.254 736.594 65.84 736.664 65.535 736.695
 c 65.234 736.73 64.668 736.742 64.273 736.734 c 63.879 736.734 63.504 736.715
 63.453 736.715 c 63.398 736.715 63.145 736.707 62.863 736.715 c 62.586 
736.715 62.352 736.715 62.34 736.695 c 62.324 736.676 62.277 736.676 62.234
 736.695 c 62.188 736.715 61.766 736.742 61.289 736.734 c 60.809 736.734
 60.41 736.715 60.383 736.695 c 60.355 736.676 60.324 736.668 60.324 736.695
 c 60.324 736.723 60.262 736.75 60.176 736.734 c 60.094 736.723 58.711 736.715
 57.105 736.715 c 55.496 736.715 53.555 736.73 52.793 736.734 c 52.035 736.742
 51.395 736.73 51.387 736.715 c 51.387 736.703 51.285 736.688 51.176 736.695
 c 51.062 736.695 50.797 736.73 50.586 736.734 c 50.375 736.734 50.176 736.734
 50.164 736.715 c 50.152 736.695 50.117 736.695 50.082 736.715 c 50.039 
736.73 49.891 736.73 49.746 736.734 c 49.598 736.734 49.328 736.734 49.133
 736.715 c 48.945 736.695 48.648 736.66 48.461 736.633 c 48.277 736.598 
48.105 736.551 48.105 736.527 c 48.105 736.5 48.098 736.492 48.086 736.508
 c 48.062 736.52 47.93 736.508 47.789 736.484 c 47.648 736.461 47.488 736.418
 47.434 736.383 c 47.371 736.34 47.289 736.32 47.223 736.32 c 47.152 736.32
 47.055 736.285 47.012 736.262 c 46.965 736.234 46.832 736.188 46.715 736.133
 c 46.602 736.082 46.457 735.996 46.379 735.945 c 46.305 735.891 46.188 
735.824 46.129 735.797 c 46.066 735.77 45.941 735.684 45.832 735.586 c 45.727
 735.492 45.473 735.25 45.289 735.062 c 45.102 734.871 44.973 734.68 44.973
 734.641 c 44.973 734.602 44.953 734.582 44.93 734.602 c 44.91 734.621 44.836
 734.516 44.762 734.371 c 44.688 734.223 44.605 734.074 44.574 734.035 c
 44.539 733.992 44.473 733.883 44.426 733.781 c 44.379 733.68 44.336 733.539
 44.32 733.465 c 44.309 733.391 44.273 733.266 44.238 733.191 c 44.195 733.117
 44.148 732.984 44.133 732.875 c 44.121 732.77 44.121 732.625 44.113 732.562
 c 44.113 732.5 44.059 732.348 44.027 732.246 c 44 732.145 43.988 731.738
 43.988 731.34 c 43.988 729.828 l 43.992 729.738 43.992 729.285 43.988 728.84
 c 43.988 726.695 l 43.988 726.223 43.98 725.789 43.969 725.727 c 43.969
 725.031 l 43.969 724.445 43.969 724.445 44.156 724.254 c 44.254 724.148
 44.355 724.066 44.387 724.066 c h
54.383 730.539 m 59.598 730.539 l 59.598 733.418 l 54.383 733.418 l h
60.629 730.621 m 63.805 730.621 l 63.805 733.418 l 60.629 733.418 l h
637.684 868.156 m 637.684 984.113 l 707.27 984.113 l 707.27 868.156 l h
637.684 868.156 m f
1575.836 0 8.074 1043.531 re f
Q Q
showpage
%%Trailer
end
%%EOF
