<?xml version="1.0" encoding="UTF-8" standalone="no"?>
<svg
   xmlns:dc="http://purl.org/dc/elements/1.1/"
   xmlns:cc="http://creativecommons.org/ns#"
   xmlns:rdf="http://www.w3.org/1999/02/22-rdf-syntax-ns#"
   xmlns:svg="http://www.w3.org/2000/svg"
   xmlns="http://www.w3.org/2000/svg"
   xmlns:sodipodi="http://sodipodi.sourceforge.net/DTD/sodipodi-0.dtd"
   xmlns:inkscape="http://www.inkscape.org/namespaces/inkscape"
   sodipodi:docname="balsa-logo-20-21.svg"
   inkscape:version="1.0 (4035a4fb49, 2020-05-01)"
   id="svg6555"
   version="1.1"
   viewBox="0 0 147.99999 148.00089"
   height="148.0009mm"
   width="148mm">
  <defs
     id="defs6549" />
  <sodipodi:namedview
     inkscape:window-maximized="1"
     inkscape:window-y="0"
     inkscape:window-x="0"
     inkscape:window-height="1051"
     inkscape:window-width="1920"
     fit-margin-bottom="0"
     fit-margin-right="0"
     fit-margin-left="0"
     fit-margin-top="0"
     inkscape:showpageshadow="false"
     borderlayer="true"
     height="148mm"
     showgrid="false"
     inkscape:document-rotation="0"
     inkscape:current-layer="layer1"
     inkscape:document-units="mm"
     inkscape:cy="293.94821"
     inkscape:cx="413.27656"
     inkscape:zoom="0.98994949"
     inkscape:pageshadow="2"
     inkscape:pageopacity="0.0"
     borderopacity="1.0"
     bordercolor="#666666"
     pagecolor="#ffffff"
     id="base" />
  <metadata
     id="metadata6552">
    <rdf:RDF>
      <cc:Work
         rdf:about="">
        <dc:format>image/svg+xml</dc:format>
        <dc:type
           rdf:resource="http://purl.org/dc/dcmitype/StillImage" />
        <dc:title></dc:title>
      </cc:Work>
    </rdf:RDF>
  </metadata>
  <g
     transform="translate(3.5127562,4.4425969)"
     id="layer1"
     inkscape:groupmode="layer"
     inkscape:label="Layer 1">
    <g
       clip-path="none"
       transform="matrix(0.59086144,0,0,0.59086144,-18367.049,-9393.2683)"
       id="g6445"
       style="display:inline;opacity:0.995;fill:#000000;fill-opacity:1">
      <path
         id="path6443"
         style="color:#000000;font-style:normal;font-variant:normal;font-weight:normal;font-stretch:normal;font-size:7224.79px;line-height:125%;font-family:'Ume P Gothic C5';-inkscape-font-specification:'Ume P Gothic C5';text-indent:0;text-align:start;text-decoration:none;text-decoration-line:none;letter-spacing:10.3211px;word-spacing:0px;text-transform:none;writing-mode:lr-tb;direction:ltr;baseline-shift:baseline;text-anchor:start;display:inline;overflow:visible;visibility:visible;fill:#000000;fill-opacity:1;fill-rule:nonzero;stroke:none;stroke-width:198.178;marker:none;enable-background:accumulate"
         d="m 6754.7969,9627.8125 c 3.0477,6.4437 6.0899,12.8855 9.1015,19.3359 3.2085,6.872 6.4288,13.92 7.1993,21.4649 0.3852,3.7728 0.1366,7.6381 -1.0196,11.25 -1.156,3.6113 -3.2479,6.9605 -6.1797,9.3652 -3.9375,3.2297 -9.1482,4.5586 -14.2539,4.5918 v 455.1977 c 5.2399,-2.541 10.3281,-5.394 15.2207,-8.545 18.6724,-12.028 34.5445,-28.241 46.7871,-46.774 24.4851,-37.064 34.0458,-82.711 32.0938,-127.0896 -1.952,-44.3789 -14.8434,-87.6929 -32.2539,-128.5606 -2.6781,-6.2863 -5.4851,-12.547 -9.0762,-18.3574 2.0217,-1.1082 3.9652,-2.359 5.7988,-3.7578 8.0689,-6.1554 14.0418,-15.0112 16.7247,-24.7988 2.203,-8.0372 2.203,-16.666 0,-24.7032 -1.2936,-4.7189 -3.3599,-9.2154 -6.0489,-13.3027 2.2564,-2.4182 4.2921,-5.0397 6.0489,-7.8477 8.8871,-14.2041 10.2316,-31.9381 8.4609,-48.5996 -1.7707,-16.6614 -6.3752,-32.9083 -8.4609,-49.5332 -0.8069,-6.431 -1.2296,-12.8781 -1.3731,-19.3359 z m 90.2793,0 c -0.3725,3.0175 -0.6198,6.0501 -0.6973,9.0918 -0.3791,14.8775 3.0041,29.8797 10.043,42.9922 6.4682,12.0494 16.0454,22.4471 27.6289,29.7012 v -3.9024 c 0,-0.097 0,-0.1966 -0.018,-0.293 -0.014,-0.096 -0.036,-0.1895 -0.055,-0.2851 -0.018,-0.096 -0.032,-0.1939 -0.025,-0.291 0,-0.049 0.013,-0.097 0.025,-0.1446 l 0.072,-0.1211 h 0.023 l 0.1211,-0.072 0.1445,-0.025 0.2911,0.025 c 0.1855,0.06 0.3831,0.072 0.5781,0.072 h 16.6933 c 0.1921,0 0.3864,-0.01 0.5743,-0.049 0.093,-0.024 0.1896,-0.032 0.2851,-0.023 0.095,0.01 0.1886,0.033 0.2754,0.072 l 0.1934,0.2422 0.023,0.3105 c -0.078,0.1954 -0.1588,0.391 -0.2422,0.584 -1.5975,3.6962 -4.1783,6.8409 -6.498,10.1465 15.1818,5.8869 32.2848,6.8314 47.9707,2.4121 19.0069,-5.355 35.6927,-18.5018 45.3457,-35.7285 5.8243,-5.856 11.1661,-12.1871 15.9824,-18.8965 1.2198,0.9073 2.4549,1.7933 3.7187,2.6348 9.5887,6.3841 20.6088,11.0101 32.1133,11.5957 5.7524,0.2928 11.5763,-0.4371 17.0059,-2.3594 5.4295,-1.9223 10.4565,-5.0515 14.4141,-9.2363 3.712,-3.9251 6.3827,-8.7311 7.9843,-13.8926 3.5726,5.1577 8.1268,9.7538 12.8653,13.8926 16.3884,14.3141 36.6829,25.0902 58.4004,26.4414 10.8581,0.6755 21.9213,-1.0527 31.8437,-5.5137 9.9229,-4.4611 18.6608,-11.7047 24.4316,-20.9277 7.0996,-11.3467 9.3777,-24.9456 9.1075,-38.4512 z m 49.4375,88.0293 c -3.2143,-1.2464 -6.3475,-2.7019 -9.3575,-4.3887 -1.0525,-0.5898 -2.0835,-1.2155 -3.1054,-1.8554 v 158.4433 c 0,0.195 -0.012,0.3926 -0.072,0.5781 l -0.025,0.2871 0.025,0.1446 c 0.014,0.045 0.039,0.087 0.072,0.1211 0.034,0.034 0.076,0.058 0.1211,0.072 0.047,0.013 0.095,0.022 0.1445,0.025 0.097,0.01 0.1935,-0.01 0.2891,-0.025 0.096,-0.018 0.1908,-0.041 0.2871,-0.055 0.096,-0.014 0.1937,-0.018 0.291,-0.018 h 16.6953 c 0.1921,0 0.3844,0.01 0.5723,0.049 0.093,0.024 0.1896,0.032 0.2851,0.023 0.095,-0.01 0.1886,-0.033 0.2754,-0.072 l 0.1934,-0.2403 0.025,-0.3086 c -0.08,-0.1912 -0.1539,-0.3851 -0.2188,-0.582 -0.4106,-1.246 -0.4995,-2.6404 0,-3.8535 0.3839,-0.9324 1.0972,-1.7084 1.9414,-2.2598 0.8425,-0.5502 1.818,-0.8884 2.8164,-1.0136 1.997,-0.2505 4.0248,0.3426 5.7989,1.2929 3.5489,1.9011 6.2355,5.1709 9.8398,6.9649 2.57,1.2791 5.5157,1.7392 8.373,1.4629 2.8569,-0.2763 5.6245,-1.2708 8.0899,-2.7403 4.932,-2.9397 8.5681,-7.6678 11.3379,-12.6972 6.8634,-12.4627 8.9575,-27.0217 9.1426,-41.2481 0.038,-2.92 7e-4,-5.8414 0,-8.7617 0,-7.7829 0.2517,-15.6138 -0.9668,-23.3008 -1.2163,-7.6727 -3.9739,-15.2282 -8.8555,-21.2715 -5.1109,-6.3271 -12.6657,-10.8356 -20.7734,-11.4824 -6.2379,-0.4976 -12.5084,1.2632 -18.045,4.1797 -1.3949,0.7348 -2.7525,1.543 -4.1816,2.209 -1.4291,0.6659 -2.9461,1.1915 -4.5176,1.3183 -2.3849,0.1926 -4.8007,-0.561 -6.7754,-1.9121 -1.9746,-1.3511 -3.5222,-3.2729 -4.6133,-5.4023 -2.4311,-4.7449 -2.5975,-10.3458 -1.9257,-15.6348 0.6482,-5.1037 2.0499,-10.161 4.6074,-14.625 0.6746,-1.1775 1.4271,-2.3097 2.209,-3.4238 z m 333.6718,-88.0293 c -0.4657,2.8205 -0.7128,5.6757 -0.7128,8.5352 0,10.5969 3.2738,21.1716 9.2597,29.916 9.6781,14.138 26.568,23.0449 43.7012,23.0449 15.6503,0 31.0961,-7.4341 41.0293,-19.4961 8.2662,7.0848 17.6581,12.8365 27.8281,16.6973 1.9316,0.7332 3.8953,1.3745 5.8731,1.9668 v -60.6641 z m -148.8964,76.6367 c -0.1014,0.01 -0.2013,0.033 -0.295,0.072 v -0.033 c -0.097,0.059 -0.1738,0.1503 -0.2168,0.2558 -0.042,0.1043 -0.05,0.2228 -0.023,0.3321 0.082,0.2068 0.1635,0.4137 0.2441,0.6211 3.7538,9.6575 5.7935,19.8602 8.211,29.9472 3.0951,-10.1314 6.847,-20.1026 10.7969,-29.914 0.084,-0.208 0.168,-0.4152 0.2519,-0.6231 0.013,-0.1121 0,-0.2283 -0.049,-0.332 -0.045,-0.1042 -0.1203,-0.1976 -0.2188,-0.2539 -0.083,-0.048 -0.1797,-0.067 -0.2754,-0.072 -0.096,-0.01 -0.1929,0 -0.2871,0.024 -0.187,0.04 -0.379,0.049 -0.5703,0.049 h -16.6543 c -0.2041,0 -0.4092,-0.01 -0.6093,-0.049 -0.099,-0.024 -0.2028,-0.032 -0.3047,-0.024 z m 7.9199,31.1953 c -4.1005,13.4225 -7.0449,27.1262 -7.7442,41.1211 -0.7143,14.2949 1.0024,28.6939 4.9473,42.4512 0.7292,-2.1509 1.4791,-4.2934 2.2441,-6.416 4.3062,-11.9474 8.8667,-24.1402 8.8809,-36.8399 0.013,-12.0089 -4.0402,-23.586 -7.0605,-35.2089 -0.4409,-1.6966 -0.8586,-3.401 -1.2676,-5.1075 z m -2.7969,83.5723 c -3.3749,9.9555 -6.0849,20.1974 -5.4141,30.6191 0.1686,2.6192 0.5527,5.2364 1.3458,7.7383 0.7923,2.4998 2.0165,4.9058 3.8652,6.7656 1.9066,1.918 4.4038,3.1763 7.0078,3.9063 2.6033,0.7298 5.3241,0.9567 8.0273,1.0059 2.0392,0.037 4.0777,0 6.1172,0 h 1.0586 c 0.2169,0 0.4353,0.01 0.6485,0.049 0.1066,0.02 0.2157,0.027 0.3242,0.023 0.1077,0 0.2184,-0.02 0.3125,-0.072 0.086,-0.048 0.1556,-0.1254 0.1933,-0.2168 0.041,-0.094 0.065,-0.1947 0.072,-0.2969 0.015,-0.2046 -0.041,-0.4084 -0.098,-0.6055 -0.057,-0.1977 -0.1169,-0.3956 -0.1445,-0.5996 -0.028,-0.2031 -0.023,-0.4083 -0.023,-0.6133 v -14.0527 c 0,-0.1776 0,-0.3548 0.023,-0.5313 v -0.2675 c 0,-0.044 -6e-4,-0.087 -0.01,-0.1309 -0.01,-0.044 -0.021,-0.087 -0.041,-0.127 -0.053,-0.1054 -0.1518,-0.1858 -0.2656,-0.2167 l -0.3536,-0.025 c -0.2199,0.093 -0.4408,0.181 -0.664,0.2656 -1.1471,0.4347 -2.3515,0.7636 -3.5781,0.7734 -1.2354,0.01 -2.4564,-0.3052 -3.5996,-0.7734 -0.2413,-0.099 -0.4843,-0.2065 -0.6797,-0.3789 -0.2154,-0.19 -0.3624,-0.4535 -0.4121,-0.7363 -5.9493,-9.8283 -10.5484,-20.4594 -13.7149,-31.502 z m 270.752,-106.0293 c -18.6217,7.0645 -35.5833,18.5432 -48.8594,33.3984 -7.626,8.5331 -14.0061,18.1507 -18.9942,28.4473 0.4744,2.6085 0.7314,5.2614 0.8204,7.9121 0.4795,14.2934 -3.5533,28.2987 -5.6914,42.4395 -1.0692,7.0706 -1.6662,14.2612 -0.9375,21.375 0.7281,7.1093 2.8193,14.1449 6.6289,20.1914 0.2413,0.3831 0.4953,0.7757 0.5683,1.2226 0.037,0.2242 0.024,0.4625 -0.072,0.668 -0.096,0.2044 -0.2749,0.3667 -0.4844,0.4512 -0.2022,0.082 -0.4329,0.091 -0.6406,0.025 -0.2137,-0.02 -0.428,-0.025 -0.6426,-0.025 h -1.0586 -4.3985 c 5.364,15.7445 13.8168,30.4395 24.9024,42.8437 13.2761,14.8553 30.2377,26.3359 48.8594,33.4004 z m -73.7618,156.1055 c -4.3732,-12.8366 -6.6954,-26.3703 -6.6953,-39.9336 2e-4,-18.7543 4.4293,-37.4524 12.6035,-54.3262 -0.3821,-2.1013 -0.9012,-4.1752 -1.6132,-6.1894 -1.5961,-4.5151 -4.1433,-8.7449 -7.6914,-11.961 -5.3584,-4.8569 -12.6582,-7.1077 -19.8653,-7.707 -2.8645,-0.2382 -5.7488,-0.2382 -8.6133,0 l -0.029,-0.043 c -9.547,-0.067 -19.0563,3.9323 -25.6855,10.8027 -6.7362,6.9815 -10.3966,16.8313 -9.8555,26.5176 5.9794,-0.5094 12.0025,-0.502 17.9805,0.023 0.1781,0.016 0.3571,0.032 0.5352,0.049 0.087,0.024 0.1776,0.034 0.2675,0.025 0.089,-0.01 0.1758,-0.035 0.2559,-0.074 l 0.1699,-0.2168 0.024,-0.2871 -0.1934,-0.5469 c -0.6073,-1.2825 -0.9099,-2.7083 -0.877,-4.127 0.033,-1.4199 0.3995,-2.8224 0.9961,-4.1113 1.193,-2.5774 3.2762,-4.6632 5.6211,-6.2656 3.6498,-2.4942 7.9877,-3.912 12.3907,-4.3067 2.3441,-0.2101 4.7322,-0.1345 7.0136,0.4434 2.2819,0.5779 4.4584,1.6776 6.1309,3.334 1.622,1.6064 2.7204,3.6816 3.4414,5.8476 0.7208,2.1656 1.0827,4.4321 1.3926,6.6934 0.3509,2.5609 0.6354,5.1976 0,7.7031 -0.4675,1.8432 -1.4257,3.5482 -2.6875,4.9707 -1.2621,1.4227 -2.8218,2.5689 -4.5157,3.4336 -3.3872,1.7292 -7.2447,2.3256 -11.0449,2.4727 -3.8003,0.147 -7.6059,-0.1314 -11.4082,-0.049 -3.8024,0.083 -7.6651,0.5462 -11.1367,2.0997 -5.5183,2.4693 -9.5851,7.5551 -11.7617,13.1953 -2.1768,5.6405 -2.6262,11.813 -2.3672,17.8535 0.3903,9.1031 2.4554,18.3883 7.707,25.834 2.6384,3.7406 6.1138,6.9906 10.3223,8.791 2.1045,0.9003 4.3773,1.4283 6.666,1.4648 2.2888,0.037 4.5921,-0.4244 6.6563,-1.414 2.114,-1.0136 3.9305,-2.5484 5.6621,-4.1289 1.7314,-1.5804 3.4153,-3.233 5.3593,-4.543 1.9441,-1.31 4.1969,-2.2745 6.5411,-2.2949 1.1724,-0.01 2.3554,0.2202 3.4101,0.7324 1.0539,0.5118 1.973,1.3096 2.5977,2.3008 0.6332,1.0048 0.955,2.2044 0.8945,3.3906 -0.06,1.178 -0.4824,2.303 -0.8945,3.4082 -0.073,0.1949 -0.1445,0.3909 -0.2168,0.5859 l 0.023,0.3106 0.1934,0.2422 c 0.039,0.02 0.082,0.034 0.125,0.041 0.043,0.01 0.087,0.01 0.1308,0.01 h 0.2696 c 0.1738,-0.04 0.3528,-0.049 0.5312,-0.049 z m -262.2812,-120.3223 c -1.4748,0 -2.9505,0.064 -4.4199,0.1895 l 0.01,-0.027 c -4.7922,-0.2318 -9.6356,0.6371 -14.0488,2.5195 -4.3602,1.8599 -8.298,4.7076 -11.4102,8.2832 -3.0276,3.4785 -5.2537,7.6048 -6.875,11.9219 -1.7564,4.677 -2.8252,9.6111 -3.1601,14.5957 5.9786,-0.5093 12.0013,-0.502 17.9785,0.023 0.1781,0.016 0.3571,0.032 0.5352,0.049 h 0.2656 c 0.044,0 0.089,-6e-4 0.1328,-0.01 0.044,-0.01 0.085,-0.021 0.125,-0.041 0.082,-0.054 0.149,-0.1294 0.1934,-0.2168 0.044,-0.087 0.067,-0.1844 0.074,-0.2813 0.015,-0.1957 -0.028,-0.3936 -0.1211,-0.5664 -0.7066,-2.661 -0.529,-5.5491 0.498,-8.1035 1.0301,-2.5619 2.8789,-4.7507 5.0918,-6.4024 3.5499,-2.6493 7.9764,-3.9362 12.3907,-4.3046 2.3714,-0.198 4.7842,-0.1438 7.0957,0.4218 2.3114,0.5656 4.5235,1.6639 6.1992,3.3536 1.5979,1.6112 2.6514,3.6986 3.3261,5.8652 0.6748,2.1666 0.9914,4.4251 1.2813,6.6758 0.3301,2.5627 0.6253,5.198 0,7.705 -0.4597,1.8431 -1.4105,3.5492 -2.666,4.9747 -1.2554,1.4252 -2.8089,2.575 -4.4981,3.4433 -3.3788,1.737 -7.2331,2.3412 -11.0293,2.4922 -3.7961,0.151 -7.5962,-0.1268 -11.3945,-0.049 -3.7978,0.078 -7.6571,0.5294 -11.1309,2.0664 -5.5388,2.4508 -9.6393,7.5262 -11.8378,13.1699 -2.1984,5.6434 -2.6534,11.8314 -2.3633,17.8809 0.4374,9.1225 2.6333,18.3948 7.9316,25.8339 2.639,3.7054 6.0818,6.9382 10.2578,8.7422 2.0879,0.902 4.3433,1.4351 6.6172,1.4805 2.2739,0.045 4.566,-0.4026 6.6192,-1.3809 2.1115,-1.0061 3.925,-2.5379 5.6503,-4.1171 1.7256,-1.5794 3.3995,-3.2328 5.336,-4.545 1.9357,-1.3116 4.1833,-2.2796 6.5215,-2.3027 1.1699,-0.012 2.3483,0.2185 3.4004,0.7305 1.0509,0.5114 1.9669,1.3074 2.5859,2.2988 0.6283,1.0063 0.942,2.2077 0.8828,3.3926 -0.059,1.1771 -0.4712,2.3038 -0.8828,3.4082 -0.072,0.1942 -0.1442,0.3879 -0.2168,0.582 l 0.023,0.3106 0.1934,0.2421 c 0.087,0.04 0.1803,0.064 0.2754,0.072 0.096,0.01 0.1943,0 0.2871,-0.025 0.1878,-0.04 0.3802,-0.047 0.5723,-0.047 h 15.5605 1.0586 c 0.2146,0 0.4289,0 0.6426,0.024 0.2077,0.066 0.4384,0.058 0.6406,-0.024 0.2095,-0.084 0.3882,-0.2487 0.4844,-0.4531 0.097,-0.2055 0.1089,-0.4437 0.072,-0.668 -0.073,-0.4468 -0.3269,-0.8395 -0.5683,-1.2226 -3.8099,-6.0468 -5.9025,-13.0799 -6.6328,-20.1895 -0.7308,-7.1135 -0.1347,-14.3042 0.9336,-21.375 2.1365,-14.1412 6.1702,-28.1474 5.6992,-42.4414 -0.1575,-4.7795 -0.8299,-9.5724 -2.4102,-14.0859 -1.5806,-4.5146 -4.1022,-8.7517 -7.6367,-11.9746 -5.3096,-4.8415 -12.5594,-7.0934 -19.7187,-7.707 -1.4695,-0.126 -2.9432,-0.1895 -4.418,-0.1895 z m 135.666,0.01 c -1.4745,0 -2.9487,0.048 -4.4199,0.1464 l 0.018,0.01 c -7.8076,0.1314 -15.518,3.4314 -21.002,8.9902 -5.9844,6.0661 -9.1885,14.5979 -9.4414,23.1153 -0.1522,5.1244 0.717,10.2924 2.6777,15.0293 1.9606,4.7363 5.0219,9.0331 8.9551,12.3203 6.1763,5.1619 14.1223,7.6183 21.9063,9.668 2.085,0.549 4.1761,1.0778 6.2715,1.5859 h 0.1445 c 3.441,0.4191 6.7471,1.8866 9.3672,4.1562 1.9578,1.6961 3.5417,3.8451 4.459,6.2676 0.987,2.6069 1.1843,5.4519 1.0546,8.2364 -0.084,1.8151 -0.3054,3.6354 -0.8496,5.3691 -0.5443,1.7341 -1.4239,3.3847 -2.7011,4.6777 -1.597,1.6167 -3.7535,2.6068 -5.9786,3.0684 -2.2252,0.4617 -4.5262,0.4236 -6.7871,0.1933 -4.6293,-0.4715 -9.2584,-1.7854 -13.0683,-4.457 -2.5283,-1.7728 -4.6725,-4.1527 -5.9219,-6.9765 -1.2499,-2.8251 -1.5583,-6.1102 -0.5762,-9.0391 0.062,-0.1855 0.1305,-0.3749 0.1211,-0.5703 0,-0.099 -0.031,-0.1962 -0.074,-0.2852 -0.044,-0.081 -0.1121,-0.1492 -0.1934,-0.1933 -0.033,-0.018 -0.067,-0.033 -0.1035,-0.041 -0.037,-0.01 -0.075,-0.01 -0.1133,-0.01 h -0.2167 c -0.076,0 -0.1526,0 -0.2286,0.012 -0.076,0.01 -0.1522,0.012 -0.2285,0.012 h -16.8476 -1.2832 l -0.2188,0.6523 c 0.119,0.2104 0.2373,0.4229 0.3535,0.6348 2.5134,4.5806 4.3653,9.494 5.9805,14.4629 1.6198,4.9828 3.0877,10.1911 6.4082,14.2441 3.0326,3.7016 7.4118,6.1325 12.0078,7.4649 4.5926,1.3314 9.4266,1.6358 14.207,1.5253 4.4512,-0.1028 8.9181,-0.5634 13.2012,-1.7792 4.283,-1.216 8.3901,-3.2128 11.7305,-6.1563 3.1899,-2.811 5.6198,-6.4373 7.2187,-10.377 1.599,-3.9395 2.3812,-8.1863 2.5254,-12.4355 0.2093,-6.1636 -0.9435,-12.4287 -3.7773,-17.9062 -2.5003,-4.833 -6.2821,-8.9813 -10.8028,-12.0098 -5.204,-3.4864 -11.2726,-5.4615 -17.375,-6.875 -2.1725,-0.5033 -4.363,-0.9416 -6.498,-1.586 -4.2994,-1.2976 -8.4021,-3.4774 -11.4922,-6.7363 -3.0901,-3.2589 -5.095,-7.6609 -4.9765,-12.1504 0.096,-3.639 1.5962,-7.2106 4.0683,-9.8828 2.4721,-2.6722 5.8864,-4.435 9.4844,-4.9883 2.9413,-0.4522 5.9905,-0.1109 8.7871,0.9063 2.7966,1.0172 5.3389,2.7008 7.4238,4.8242 3.871,3.9424 6.1182,9.4339 6.1211,14.959 -0.1068,0.1623 -0.1737,0.3516 -0.1933,0.5449 -0.01,0.096 -0.01,0.1955 0.023,0.2871 0.031,0.089 0.091,0.1669 0.1699,0.2168 0.076,0.048 0.1663,0.069 0.2559,0.074 0.089,0.01 0.1788,0 0.2656,-0.025 0.1754,-0.036 0.3561,-0.046 0.5352,-0.049 l 18.1972,-0.2695 c -0.3932,-4.9762 -1.4496,-9.9003 -3.1328,-14.5996 -1.8617,-5.1977 -4.5242,-10.1676 -8.2793,-14.2149 -2.8824,-3.1066 -6.3984,-5.6421 -10.3105,-7.2715 -3.9264,-1.6353 -8.184,-2.3409 -12.4278,-2.625 -1.4712,-0.098 -2.9454,-0.1464 -4.4199,-0.1464 z m -234.8555,18.1386 c 1.0245,-0.012 2.049,0.057 3.0645,0.2227 5.448,0.8861 10.2544,4.4859 13.2207,9.1406 2.6462,4.1524 3.9189,9.0545 4.4355,13.9512 0.5166,4.8963 0.3161,9.8348 0.2481,14.7578 -0.037,2.6437 -0.034,5.2879 0,7.9316 0.065,5.0385 0.2442,10.0957 -0.332,15.1016 -0.5763,5.0058 -1.9491,10.0093 -4.7305,14.2109 -3.2643,4.9312 -8.5657,8.6018 -14.4297,9.3672 -3.7016,0.4832 -7.4931,-0.1746 -10.9844,-1.4961 -3.5029,-1.3258 -6.7671,-3.3325 -9.4121,-5.9843 -4.0132,-4.0238 -6.4709,-9.3954 -7.7793,-14.9258 -1.3084,-5.5304 -1.5365,-11.2548 -1.5996,-16.9375 -0.071,-6.3575 0.062,-12.7629 1.3535,-18.9883 1.291,-6.2254 3.8042,-12.3081 8.0254,-17.0625 2.7419,-3.0882 6.168,-5.5622 9.9492,-7.2227 2.8262,-1.241 5.8975,-2.029 8.9707,-2.0664 z m 98.8145,41.8301 c 2.2179,0.056 4.405,0.5496 6.3769,1.5664 2.5956,1.3383 4.7151,3.5277 6.127,6.084 1.4119,2.5563 2.1331,5.4672 2.2598,8.3848 0.2494,5.7461 -1.804,11.4747 -5.2364,16.0898 -2.4519,3.2969 -5.6144,6.0829 -9.2636,7.9707 -3.6517,1.8891 -7.7786,2.8626 -11.8887,2.7578 -4.2252,-0.1077 -8.5365,-1.4298 -11.6328,-4.3066 -1.7092,-1.588 -3.0095,-3.6228 -3.6797,-5.8574 -0.8845,-2.9494 -0.6573,-6.1401 0.1211,-9.1192 1.5162,-5.8029 5.0466,-10.9244 9.293,-15.1601 3.1415,-3.1337 6.774,-5.8875 10.9628,-7.3516 2.0944,-0.732 4.3427,-1.1143 6.5606,-1.0586 z m 234.7461,0.1524 c 2.2114,0.029 4.4005,0.469 6.4101,1.3925 2.7037,1.2425 5.0074,3.3382 6.5,5.9121 1.4927,2.574 2.1687,5.6145 1.9043,8.5782 h 0.01 c 0,5.7362 -1.8649,11.4575 -5.248,16.0898 -2.431,3.3285 -5.6334,6.0974 -9.3028,7.9746 -3.6696,1.8774 -7.803,2.8555 -11.9238,2.7539 -4.2269,-0.1041 -8.5443,-1.421 -11.6348,-4.3066 -1.7034,-1.5905 -2.995,-3.628 -3.6543,-5.8633 -0.8702,-2.9503 -0.6273,-6.1362 0.1465,-9.1133 1.5071,-5.7982 4.9695,-10.9588 9.2402,-15.1601 3.1534,-3.1021 6.83,-5.7705 11.0176,-7.1953 2.0938,-0.7125 4.3277,-1.0919 6.5391,-1.0625 z m -200.6328,88.955 c -0.1114,0 -0.2229,0.012 -0.3282,0.049 -0.213,0.06 -0.4368,0.072 -0.6582,0.072 h -16.6933 c -0.1809,0 -0.3627,-0.01 -0.5391,-0.049 -0.087,-0.023 -0.1795,-0.03 -0.2695,-0.023 -0.049,0 -0.097,0.011 -0.1445,0.023 l -0.1211,0.074 0.017,-0.092 -0.072,0.1192 -0.025,0.1464 0.025,0.2676 c 0.04,0.1764 0.049,0.3582 0.049,0.5391 v 28.0273 c 0,0.1809 -0.01,0.3627 -0.049,0.5391 -0.023,0.088 -0.032,0.1807 -0.025,0.2715 0,0.049 0.013,0.097 0.025,0.1445 l 0.072,0.1211 0.1211,0.072 0.1446,0.025 c 0.09,0 0.1785,-0.013 0.2675,-0.025 0.1792,-0.024 0.3584,-0.049 0.5391,-0.049 h 15.6387 1.0566 c 0.2169,0 0.4353,0.01 0.6485,0.049 0.1066,0.02 0.2158,0.029 0.3242,0.025 0.1077,0 0.2164,-0.022 0.3105,-0.074 0.086,-0.048 0.1557,-0.1253 0.1934,-0.2168 0.041,-0.094 0.068,-0.1945 0.074,-0.2968 0.013,-0.2046 -0.045,-0.4074 -0.098,-0.6055 -0.053,-0.1987 -0.1007,-0.3987 -0.1446,-0.5996 -0.02,-0.2039 -0.025,-0.4084 -0.025,-0.6133 v -26.7441 c 0,-0.1801 0.01,-0.3616 0.049,-0.5371 0.025,-0.087 0.034,-0.1777 0.025,-0.2676 -0.01,-0.087 -0.035,-0.1735 -0.074,-0.252 l -0.1445,-0.096 c -0.055,-0.014 -0.1129,-0.023 -0.1699,-0.025 z m -125.1543,43.1758 c -3.8884,0.1766 -7.7362,1.5384 -10.7813,3.9629 -1.3283,1.0576 -2.4991,2.3048 -3.8672,3.3106 -1.3694,1.0067 -2.9774,1.7717 -4.6757,1.8378 -0.8486,0.033 -1.711,-0.113 -2.4786,-0.4765 -0.7673,-0.3634 -1.4338,-0.9473 -1.8632,-1.6797 -0.3786,-0.6457 -0.5687,-1.4006 -0.5371,-2.1484 0.031,-0.7441 0.2751,-1.4631 0.5371,-2.1602 0.083,-0.2216 0.1683,-0.4422 0.2558,-0.6621 l -0.023,-0.3535 -0.2188,-0.2676 c -0.087,-0.04 -0.1803,-0.064 -0.2754,-0.072 -0.096,-0.01 -0.1935,0 -0.2871,0.023 -0.187,0.04 -0.379,0.049 -0.5703,0.049 h -15.9414 c -0.2203,0 -0.4392,-0.024 -0.6543,-0.072 -0.1076,-0.024 -0.2159,-0.05 -0.3262,-0.049 -0.057,8e-4 -0.1148,0.01 -0.1699,0.025 l -0.1445,0.072 -0.01,0.033 c -0.032,0.044 -0.057,0.093 -0.072,0.1445 -0.016,0.055 -0.022,0.1128 -0.023,0.1699 0,0.1105 0.014,0.2212 0.049,0.3262 0.06,0.2122 0.072,0.4338 0.072,0.6543 v 117.7012 c 0,0.22 -0.024,0.439 -0.072,0.654 -0.024,0.108 -0.05,0.216 -0.049,0.326 7e-4,0.06 0.01,0.115 0.023,0.17 l 0.072,0.147 c 0.044,0.03 0.094,0.05 0.1465,0.07 0.055,0.02 0.1108,0.02 0.1679,0.02 0.1105,0 0.2212,-0.01 0.3262,-0.05 0.2122,-0.06 0.4357,-0.07 0.6563,-0.07 h 15.9394 c 0.1913,0 0.3833,0 0.5703,0.05 h 0.2852 l 0.2793,-0.07 c 0.1048,-0.06 0.1888,-0.156 0.2402,-0.266 0.051,-0.11 0.069,-0.236 0.049,-0.355 l -0.2734,-0.661 v -94.2062 c 4.5762,-4.4274 10.8586,-7.0456 17.2246,-7.1778 3.8809,-0.081 7.7925,0.7451 11.2559,2.4981 5.8244,2.948 10.0508,8.3274 12.9629,14.207 2.637,-3.6016 5.8129,-6.7986 9.4589,-9.373 5.5079,-3.8891 11.9913,-6.3217 18.6582,-7.3282 2.0541,-0.31 4.1505,-0.487 6.2032,-0.1679 2.0526,0.3191 4.0726,1.1702 5.5058,2.6738 0.9886,1.0372 1.6644,2.3479 2.0547,3.7266 0.3903,1.3786 0.5029,2.8258 0.4531,4.2578 -0.099,2.8639 -0.8336,5.6649 -1.2089,8.5058 -0.8496,6.4299 0.1578,12.9651 1.6562,19.2754 1.4984,6.3096 3.4883,12.5086 4.6543,18.8886 2.699,14.768 0.8357,30.233 -4.5879,44.232 -0.085,0.221 -0.1707,0.441 -0.2578,0.66 l 0.023,0.354 c 0.034,0.114 0.1147,0.214 0.2188,0.271 0.094,0.05 0.2029,0.07 0.3105,0.07 0.1085,0 0.2176,0 0.3243,-0.03 0.2131,-0.04 0.4315,-0.05 0.6484,-0.05 h 15.5625 1.1348 c 0.2025,0 0.4039,0 0.6054,0.02 0.1958,0.06 0.4131,0.05 0.6035,-0.02 0.2112,-0.08 0.3886,-0.248 0.4903,-0.451 0.1022,-0.204 0.1261,-0.44 0.096,-0.666 -0.061,-0.452 -0.3267,-0.844 -0.5781,-1.224 -4.139,-6.259 -6.2972,-13.682 -7.0391,-21.149 -0.7418,-7.465 -0.12,-15.007 1.0059,-22.424 2.2516,-14.832 6.5275,-29.5185 6.0332,-44.5131 -0.1363,-4.1325 -0.6441,-8.2842 -1.9629,-12.2031 -1.3174,-3.9146 -3.4604,-7.5798 -6.4219,-10.459 -4.4311,-4.3079 -10.538,-6.672 -16.6973,-7.1777 -5.1704,-0.4245 -10.5446,0.4431 -14.9961,3.1074 -1.9813,1.1859 -3.7422,2.697 -5.584,4.0899 -1.8417,1.3928 -3.8083,2.689 -6.0214,3.3476 -2.2144,0.659 -4.6615,0.6337 -6.7871,-0.2715 -1.686,-0.7179 -3.1037,-1.9436 -4.3868,-3.2519 -1.283,-1.3083 -2.4661,-2.7199 -3.8476,-3.9238 -3.5691,-3.1105 -8.3956,-4.6757 -13.125,-4.461 z m 17.8008,35.6543 c -2.4739,3.3788 -4.4739,7.115 -5.9297,11.041 -3.0077,8.111 -3.7565,16.9851 -2.6192,25.5601 1.1926,8.992 4.3648,17.451 8.0293,25.78 2.0101,-6.092 3.7427,-12.259 4.9043,-18.569 2.5962,-14.101 2.2616,-29.125 -3.6094,-42.2066 -0.2425,-0.5404 -0.5111,-1.072 -0.7753,-1.6055 z m -0.5196,62.3811 c -2.482,7.521 -5.3951,14.923 -8.2871,22.298 -0.086,0.221 -0.1736,0.441 -0.2597,0.661 l 0.025,0.353 c 0.034,0.114 0.1127,0.213 0.2168,0.27 0.095,0.05 0.2049,0.07 0.3125,0.07 0.1085,0 0.2157,0 0.3223,-0.02 0.2132,-0.04 0.4315,-0.05 0.6484,-0.05 h 15.7911 c 0.204,0 0.4092,0 0.6093,0.05 0.099,0.02 0.2028,0.03 0.3047,0.02 0.1014,0 0.2013,-0.03 0.2949,-0.07 l 0.2168,-0.268 0.049,-0.351 c -0.088,-0.221 -0.1765,-0.443 -0.2657,-0.665 -3.0379,-7.514 -6.7037,-14.855 -9.9785,-22.298 z m 272.9844,-96.8479 c -1.5891,0 -3.1781,0.075 -4.7598,0.2285 l 0.025,-0.043 c -9.7685,0.7521 -19.1447,5.6778 -25.3066,13.2949 -4.3933,5.4309 -7.1341,12.0582 -8.7109,18.8633 -1.577,6.8048 -2.0394,13.8186 -2.2442,20.8007 -0.1314,4.4805 -0.1592,8.9655 0,13.4455 0.2443,6.874 0.9389,13.774 2.8203,20.39 1.8797,6.611 4.9639,12.916 9.3418,18.213 7.9321,9.598 20.2652,15.547 32.7129,15.26 8.3678,-0.193 16.8525,-3.281 22.5899,-9.375 2.7855,-2.959 4.8502,-6.511 6.7968,-10.078 1.9499,-3.573 3.8668,-7.276 6.875,-10.018 0.2127,-0.193 0.4387,-0.392 0.5449,-0.66 0.053,-0.133 0.072,-0.281 0.047,-0.422 -0.025,-0.14 -0.098,-0.276 -0.2168,-0.355 -0.1013,-0.07 -0.2259,-0.09 -0.3476,-0.1 -0.1213,0 -0.244,0 -0.3633,0.02 -0.2415,0.03 -0.4826,0.05 -0.7246,0.07 -5.8457,0.526 -11.7322,0 -17.6016,0 h -0.3789 -0.1933 c -0.065,0 -0.1339,0 -0.1954,0.03 -0.052,0.02 -0.098,0.05 -0.1386,0.09 -0.04,0.04 -0.075,0.08 -0.1055,0.129 -0.062,0.1 -0.111,0.198 -0.1445,0.307 -1.4873,2.735 -3.4975,5.186 -5.8907,7.179 -3.4679,2.886 -7.7978,4.806 -12.3007,5.092 -5.7945,0.369 -11.5935,-2.013 -15.8868,-5.922 -4.2932,-3.909 -7.145,-9.241 -8.6347,-14.853 -1.1292,-4.254 -1.4978,-8.838 -0.1211,-13.018 0.7759,-2.356 2.0974,-4.516 3.7793,-6.342 -1.5746,-2.148 -2.8286,-4.549 -3.752,-7.0503 -2.1612,-5.855 -2.6353,-12.463 -0.5234,-18.3359 1.7323,-4.8173 5.1596,-8.9705 9.4433,-11.7735 4.2839,-2.803 9.392,-4.2724 14.5098,-4.3965 4.6417,-0.1125 9.3641,0.8902 13.3477,3.2754 5.9726,3.5762 9.9222,10.245 10.3789,17.1914 0.3164,4.8139 -0.9381,9.6267 -2.8887,14.0391 -1.8372,4.1553 -4.3745,8.0873 -7.8574,10.9863 0.3913,0.594 0.7822,1.19 1.1816,1.777 1.8648,2.745 3.9445,5.421 6.6797,7.299 1.3676,0.939 2.8917,1.668 4.5078,2.043 1.6161,0.375 3.3272,0.389 4.9258,-0.05 2.5456,-0.706 4.6908,-2.558 6.0391,-4.83 1.3482,-2.271 1.9445,-4.935 2.0234,-7.576 0.1579,-5.281 -1.6586,-10.3898 -2.7363,-15.5623 -1.3775,-6.611 -1.5533,-13.4109 -2.5508,-20.0898 -0.9975,-6.6789 -2.9358,-13.4568 -7.2754,-18.6309 -2.6656,-3.1781 -6.1485,-5.6234 -9.9414,-7.3027 -3.7929,-1.6793 -7.8909,-2.6095 -12.0195,-3.0098 -1.5817,-0.1533 -3.1707,-0.2285 -4.7598,-0.2285 z m 13.9258,66.1659 c -1.4357,-2.181 -2.8611,-4.37 -4.5899,-6.322 -2.1999,-2.4843 -4.9828,-4.5979 -8.2226,-5.3146 -1.9229,-0.4253 -3.9349,-0.3409 -5.8633,0.059 -1.9284,0.3995 -3.7801,1.1073 -5.5723,1.9238 -2.677,1.2188 -5.2663,2.7038 -7.4179,4.7108 -0.3448,0.321 -0.6726,0.661 -0.9922,1.007 1.295,1.768 2.8016,3.368 4.5527,4.688 3.8994,2.94 8.8273,4.415 13.711,4.381 4.8852,-0.03 9.7832,-1.576 13.6718,-4.533 0.2498,-0.19 0.4822,-0.4 0.7227,-0.6 z m -107.7422,-66.1171 c -1.4749,0.01 -2.9495,0.077 -4.4199,0.1914 -3.8675,0.3008 -7.7137,0.9037 -11.4844,1.8145 -1.5026,0.3629 -3.0038,0.7781 -4.3867,1.4688 -1.3828,0.6906 -2.6513,1.6764 -3.4688,2.9882 -0.4569,0.7333 -0.7657,1.5528 -1.2363,2.2774 -0.2349,0.3617 -0.5108,0.6994 -0.8477,0.9687 -0.3373,0.2698 -0.7387,0.4699 -1.166,0.5332 -0.462,0.068 -0.9426,-0.025 -1.3554,-0.2441 -0.4129,-0.2187 -0.7585,-0.5583 -1.002,-0.957 -0.4861,-0.7962 -0.556,-1.7963 -0.3633,-2.709 0.1932,-0.9148 0.632,-1.7618 1.1602,-2.5332 0.5279,-0.7709 1.1507,-1.4827 1.5605,-2.3223 0.1043,-0.2136 0.1952,-0.4343 0.2696,-0.6602 0.012,-0.1192 0,-0.2419 -0.049,-0.3535 -0.043,-0.1097 -0.1167,-0.2121 -0.2187,-0.2715 -0.093,-0.054 -0.2027,-0.069 -0.3106,-0.072 -0.1084,0 -0.2174,0.01 -0.3242,0.025 -0.2132,0.04 -0.4315,0.047 -0.6484,0.047 h -15.7871 c -0.2205,0 -0.4441,-0.012 -0.6563,-0.072 -0.1052,-0.037 -0.2168,-0.052 -0.3281,-0.047 -0.057,0 -0.1145,0.01 -0.1699,0.023 l -0.1446,0.096 -0.01,-0.055 c -0.032,0.044 -0.057,0.093 -0.072,0.1445 -0.016,0.055 -0.022,0.1128 -0.023,0.1699 0,0.1105 0.012,0.2212 0.047,0.3262 0.06,0.2122 0.072,0.4338 0.072,0.6543 v 117.7018 c 0,0.22 -0.024,0.439 -0.072,0.654 -0.024,0.108 -0.048,0.216 -0.047,0.326 7e-4,0.06 0.01,0.115 0.023,0.17 l 0.072,0.147 0.1445,0.09 c 0.056,0.01 0.1129,0.02 0.1699,0.03 0.1114,0 0.223,-0.01 0.3282,-0.05 0.2121,-0.06 0.4357,-0.07 0.6562,-0.07 h 15.7871 c 0.2169,0 0.4353,0 0.6485,0.05 0.1066,0.02 0.2157,0.03 0.3242,0.02 0.1076,0 0.2181,-0.02 0.3125,-0.07 0.1041,-0.06 0.1833,-0.16 0.2168,-0.274 l 0.023,-0.35 c -0.086,-0.22 -0.1715,-0.442 -0.2578,-0.662 -5.5549,-14.161 -11.4257,-28.553 -12.2656,-43.742 -0.8457,-15.292 3.6405,-30.7791 12.2656,-43.4357 2.6583,-3.9008 5.7757,-7.6116 9.8184,-10.0488 4.1088,-2.4771 8.924,-3.4931 13.6757,-4.1562 1.8617,-0.2598 3.7544,-0.4716 5.6172,-0.2207 1.8629,0.2508 3.7165,1.0114 4.959,2.4218 0.6738,0.7648 1.1458,1.6947 1.4356,2.6719 0.2897,0.9772 0.4027,2.0003 0.4042,3.0195 0,2.0385 -0.4278,4.0492 -0.6933,6.0704 -0.9567,7.2826 0.2305,14.6818 1.9531,21.8222 1.7226,7.1406 3.9841,14.1596 5.2285,21.3986 2.5443,14.801 0.6961,30.28 -4.9277,44.205 -0.089,0.221 -0.1803,0.444 -0.2715,0.664 -0.02,0.12 0,0.246 0.049,0.356 0.051,0.11 0.1354,0.204 0.2403,0.265 l 0.2793,0.07 h 0.2851 c 0.187,-0.04 0.3791,-0.05 0.5703,-0.05 h 14.6543 1.2832 0.5332 0.5254 c 0.2149,-0.08 0.3995,-0.237 0.5039,-0.44 0.1057,-0.205 0.1285,-0.445 0.096,-0.673 -0.065,-0.455 -0.3362,-0.849 -0.5937,-1.229 -4.3581,-6.433 -6.5882,-14.143 -7.2793,-21.883 -0.691,-7.739 0.094,-15.541 1.375,-23.205 2.5614,-15.326 7.1219,-30.6025 5.9043,-46.0939 -0.2797,-3.5583 -0.8693,-7.1106 -2.0566,-10.4766 -1.1875,-3.3663 -2.991,-6.5489 -5.4981,-9.0898 -4.3256,-4.384 -10.4888,-6.5864 -16.6191,-7.1778 -1.4681,-0.1415 -2.9431,-0.1982 -4.418,-0.1914 z m -71.2871,0.072 c -0.1105,0 -0.2212,0.012 -0.3262,0.047 -0.2122,0.06 -0.4338,0.072 -0.6543,0.072 h -16.6953 c -0.18,0 -0.3616,-0.01 -0.5371,-0.047 -0.087,-0.025 -0.1777,-0.034 -0.2676,-0.025 -0.087,0.01 -0.1735,0.033 -0.2519,0.072 l -0.012,-0.055 -0.098,0.1445 c -0.014,0.055 -0.021,0.1129 -0.023,0.1699 -0.01,0.1113 0.012,0.2229 0.049,0.3281 0.06,0.2131 0.072,0.4369 0.072,0.6582 v 117.7014 c 0,0.221 -0.024,0.44 -0.072,0.656 -0.024,0.108 -0.05,0.217 -0.049,0.328 8e-4,0.06 0.01,0.115 0.023,0.17 l 0.098,0.144 c 0.079,0.04 0.1647,0.07 0.252,0.08 0.09,0 0.1807,0 0.2676,-0.03 0.1755,-0.04 0.357,-0.05 0.5371,-0.05 h 15.6387 1.0546 c 0.217,0 0.4353,0 0.6485,0.05 0.1067,0.02 0.2158,0.03 0.3242,0.03 0.1077,0 0.2184,-0.02 0.3125,-0.08 0.086,-0.05 0.1557,-0.123 0.1934,-0.214 0.041,-0.09 0.065,-0.199 0.072,-0.301 0.014,-0.205 -0.045,-0.406 -0.098,-0.604 -0.053,-0.199 -0.1006,-0.397 -0.1446,-0.597 -0.02,-0.204 -0.023,-0.411 -0.023,-0.616 v -116.64 c 0,-0.2203 0.024,-0.4412 0.072,-0.6563 0.024,-0.1076 0.05,-0.2159 0.049,-0.3261 -8e-4,-0.057 -0.01,-0.1149 -0.025,-0.17 l -0.072,-0.1445 c -0.044,-0.032 -0.092,-0.057 -0.1445,-0.072 -0.055,-0.016 -0.1128,-0.022 -0.1699,-0.023 z m 285.8457,39.8965 c -0.7177,0.015 -1.4348,0.045 -2.1504,0.094 -11.4492,0.7759 -22.2551,5.7387 -31.8398,12.0489 -31.0264,20.4267 -50.8619,55.1537 -58.5586,91.4937 -1.6651,7.862 -2.8027,15.799 -3.4864,23.776 -2.6419,0.883 -5.186,2.102 -7.5722,3.537 -4.9075,2.95 -9.2298,6.765 -13.4825,10.599 -8.144,7.343 -16.1465,14.863 -23.9824,22.553 -0.1902,-0.138 -0.3776,-0.279 -0.5683,-0.416 -19.6495,-14.13 -41.4256,-25.298 -64.3653,-33.014 -12.7067,-4.273 -25.7623,-7.41 -38.9902,-9.443 -0.5075,-0.216 -1.0165,-0.43 -1.5332,-0.621 -5.3809,-1.992 -11.2072,-2.674 -16.9316,-2.285 -1.4664,0.1 -2.9212,0.271 -4.3653,0.502 -33.0301,-1.918 -66.4859,2.829 -97.6894,13.84 -0.8371,-0.776 -1.6776,-1.548 -2.5313,-2.293 -16.389,-14.314 -36.6832,-25.089 -58.4004,-26.442 -10.8587,-0.676 -21.9245,1.051 -31.8476,5.512 -9.9235,4.461 -18.6592,11.706 -24.4297,20.93 -8.886,14.204 -10.2312,31.937 -8.461,48.597 1.6034,15.091 5.5244,29.841 7.8008,44.84 -5.8922,8.681 -11.2315,17.738 -15.9941,27.09 h 515.8301 v -247.8397 c -0.5516,-0.2372 -1.1074,-0.4695 -1.67,-0.6777 -4.7082,-1.7431 -9.7575,-2.4829 -14.7812,-2.3809 z"
         transform="matrix(0.41366399,0,0,0.41366399,28287.175,11907.384)" />
    </g>
  </g>
</svg>
