<?xml version="1.0" encoding="UTF-8" standalone="no"?>
<svg
   xmlns:dc="http://purl.org/dc/elements/1.1/"
   xmlns:cc="http://creativecommons.org/ns#"
   xmlns:rdf="http://www.w3.org/1999/02/22-rdf-syntax-ns#"
   xmlns:svg="http://www.w3.org/2000/svg"
   xmlns="http://www.w3.org/2000/svg"
   xmlns:sodipodi="http://sodipodi.sourceforge.net/DTD/sodipodi-0.dtd"
   xmlns:inkscape="http://www.inkscape.org/namespaces/inkscape"
   inkscape:export-ydpi="300"
   inkscape:export-xdpi="300"
   inkscape:export-filename="/home/ludi/works/work.balsamine.2020-2021/kit-com/emoji-facebook.png"
   sodipodi:docname="emoji-twitter.svg"
   inkscape:version="1.0 (4035a4fb49, 2020-05-01)"
   id="svg7184"
   version="1.1"
   viewBox="0 0 19.678507 15.699794"
   height="15.699794mm"
   width="19.678507mm">
  <defs
     id="defs7178">
    <inkscape:path-effect
       effect="spiro"
       id="path-effect7499"
       is_visible="true"
       lpeversion="1" />
    <inkscape:path-effect
       lpeversion="1"
       is_visible="true"
       id="path-effect7495"
       effect="spiro" />
    <inkscape:path-effect
       lpeversion="1"
       is_visible="true"
       id="path-effect7513"
       effect="spiro" />
  </defs>
  <sodipodi:namedview
     inkscape:window-maximized="1"
     inkscape:window-y="0"
     inkscape:window-x="0"
     inkscape:window-height="1051"
     inkscape:window-width="1920"
     fit-margin-bottom="0"
     fit-margin-right="0"
     fit-margin-left="0"
     fit-margin-top="0"
     inkscape:snap-page="true"
     inkscape:snap-bbox="true"
     inkscape:showpageshadow="false"
     showborder="true"
     showgrid="false"
     inkscape:document-rotation="0"
     inkscape:current-layer="layer1"
     inkscape:document-units="mm"
     inkscape:cy="51.726271"
     inkscape:cx="56.732957"
     inkscape:zoom="5.6"
     inkscape:pageshadow="2"
     inkscape:pageopacity="0.0"
     borderopacity="1.0"
     bordercolor="#666666"
     pagecolor="#ffffff"
     id="base" />
  <metadata
     id="metadata7181">
    <rdf:RDF>
      <cc:Work
         rdf:about="">
        <dc:format>image/svg+xml</dc:format>
        <dc:type
           rdf:resource="http://purl.org/dc/dcmitype/StillImage" />
        <dc:title></dc:title>
      </cc:Work>
    </rdf:RDF>
  </metadata>
  <g
     transform="translate(4.6635912,4.8840949)"
     id="layer1"
     inkscape:groupmode="layer"
     inkscape:label="Layer 1">
    <path
       inkscape:path-effect="#path-effect7513"
       inkscape:original-d="M 0,10.815699 -9.7038053e-4,-4.8611826 15.014916,-4.8840949 15.003406,10.813899 Z M 11.985075,0.86574122 c 0,0 0.235401,0.0156254 0.611905,-0.41318773 0.74826,-0.85221291 0.76566,-0.99738235 0.08866,-0.73999771 C 11.931412,-6.9900503e-4 11.249832,-0.55008064 11.716653,-1.2057181 12.836426,-2.4927046 10.962386,-2.6163507 10.148895,-2.9912314 9.1091499,-3.4945642 8.1532552,-3.2589139 7.465903,-2.6772288 6.5644508,-1.9143272 6.4779024,-0.61154261 6.4779024,0.72507534 L 5.6235071,0.58854246 C 4.5934164,0.42387206 0.02023059,-2.3115918 -2.8534074,-3.6094897 c -0.2780988,-0.1256116 -0.6054915,-0.5331625 -0.8471749,-0.346885 -0.6626806,0.5107129 0.030593,1.706439 0.3280341,2.4883558 0.1067463,0.2805513 0.67773,0.49916502 0.5056864,0.74516762 -0.099509,0.14242123 -0.3355506,-0.16235584 -0.5056864,-0.12694379 -0.2082944,0.0433562 -0.4770674,0.17864075 -0.5056866,0.38945854 -0.099344,0.73206051 0.775611,1.28533006 1.3318743,1.77149323 0.1213845,0.1060059 0.4312933,0.075281 0.4216878,0.2360861 -0.00658,0.105792 -0.19461,0.083916 -0.2939051,0.1211542 -0.1449048,0.054409 -0.407181,-0.00196 -0.4398134,0.1492964 -0.1455627,0.6740571 0.9194795,1.0582522 1.5105628,1.4133677 0.2406308,0.1445429 0.76167948,-0.00576 0.79671322,0.2727354 0.025823,0.2043072 -0.32247485,0.2701804 -0.51670652,0.3385804 -0.8229309,0.2898096 -1.7858652,-0.046268 -2.6050955,0.2538416 -0.2722106,0.099723 -0.7303138,0.205255 -0.7152312,0.4947554 0.011514,0.2322327 0.3967859,0.246759 0.6118897,0.3351084 3.45970507,1.420947 7.2651584,4.3381406 10.7884996,3.0832634 C 9.7454157,7.0358994 11.985075,0.86574122 11.985075,0.86574122 Z"
       sodipodi:nodetypes="ccccccssccacsaaaaaaaaaaaaaaaaac"
       id="path7511"
       d="M 0,10.815699 -9.7038053e-4,-4.8611826 15.014916,-4.8840949 15.003406,10.813899 Z M 11.985075,0.86574122 C 12.237245,0.82981964 12.469434,0.67303468 12.59698,0.45255349 12.724454,0.23219803 12.745736,-0.040069 12.68564,-0.28744422 12.630117,-0.51599454 12.507363,-0.72778127 12.336646,-0.88956394 12.165929,-1.0513466 11.947855,-1.1625492 11.716653,-1.2057181 11.501124,-1.9968753 10.905533,-2.6751917 10.148895,-2.9912314 9.7150766,-3.1724327 9.2339332,-3.2378622 8.7671017,-3.1821783 8.3002702,-3.1264943 7.8487247,-2.9501388 7.465903,-2.6772288 6.9472832,-2.3075097 6.5584066,-1.7593771 6.3807897,-1.147731 6.2031728,-0.53608487 6.2379755,0.13508058 6.4779024,0.72507534 L 5.6235071,0.58854246 C 4.0417165,0.33577138 2.4609444,-0.04856448 1.0640143,-0.83249104 -0.33291589,-1.6164176 -1.5238593,-2.7160376 -2.8534074,-3.6094897 -2.9819085,-3.695842 -3.112452,-3.7803482 -3.25314,-3.8449713 c -0.1406879,-0.064623 -0.2926394,-0.1090992 -0.4474423,-0.1114034 -0.1526626,-0.00227 -0.305346,0.037114 -0.4394235,0.1101497 -0.1340775,0.073036 -0.2494618,0.1793173 -0.3359243,0.3051556 -0.1729249,0.2516765 -0.2247719,0.577589 -0.1620234,0.8764313 0.062749,0.2988424 0.2345292,0.5696463 0.4621668,0.7731781 0.2276376,0.2035319 0.5089391,0.3420042 0.8032385,0.4234411 0.098705,0.027313 0.1992491,0.048506 0.2959088,0.082353 0.09666,0.033847 0.190552,0.08143 0.2628466,0.153971 0.036147,0.036271 0.066525,0.078578 0.08716,0.1254429 0.020636,0.046865 0.031372,0.098347 0.028813,0.14949038 -0.00256,0.0511432 -0.018661,0.10185725 -0.048022,0.14381072 -0.029361,0.0419535 -0.072156,0.0747868 -0.1210202,0.0900997 -0.042246,0.013239 -0.087851,0.0133003 -0.1314098,0.005386 -0.043559,-0.007915 -0.085349,-0.0235551 -0.1259162,-0.0412837 -0.081134,-0.0354572 -0.1604864,-0.0801772 -0.2483604,-0.0910457 -0.056804,-0.007026 -0.1150774,7.0905e-4 -0.1689986,0.0199084 -0.053921,0.0191994 -0.1035378,0.0496857 -0.1467783,0.0871872 -0.086481,0.0750031 -0.1464021,0.17647845 -0.1899097,0.28236287 -0.083683,0.20366038 -0.1109244,0.42991941 -0.07986,0.64789986 0.031065,0.21798046 0.1201513,0.42718365 0.2542622,0.60181107 0.134111,0.17462741 0.3128085,0.3144313 0.5138011,0.4043338 0.2009926,0.089903 0.4238407,0.1299075 0.6436708,0.1174485 0.09689,-0.00549 0.1972035,-0.020543 0.2887013,0.011797 0.045749,0.01617 0.088118,0.044788 0.1147436,0.085353 0.013313,0.020282 0.022529,0.043352 0.02598,0.067367 0.00345,0.024015 0.00105,0.048957 -0.00774,0.07157 -0.010187,0.026207 -0.028723,0.048751 -0.051103,0.065771 -0.022381,0.01702 -0.048505,0.028704 -0.075543,0.036419 -0.054076,0.015429 -0.1111477,0.015233 -0.1672583,0.018964 -0.1566986,0.010419 -0.3146749,0.05441 -0.4398134,0.1492964 -0.096303,0.073022 -0.1701424,0.1745033 -0.21334,0.2873767 -0.043198,0.1128735 -0.056032,0.2367473 -0.040455,0.3565965 0.031154,0.2396983 0.1759174,0.457017 0.3701795,0.6008505 0.1942621,0.1438334 0.434319,0.218032 0.6752566,0.2373934 0.2409377,0.019361 0.4835668,-0.013769 0.7189217,-0.068849 0.1607693,-0.037625 0.3256726,-0.085846 0.48825072,-0.057023 0.081289,0.014412 0.16037111,0.049111 0.21919294,0.1070381 0.0294109,0.028964 0.0534915,0.063506 0.0692622,0.101653 0.0157708,0.038147 0.0231254,0.079907 0.0200073,0.1210673 -0.004228,0.055811 -0.027691,0.1093423 -0.0624625,0.1532025 -0.0347714,0.04386 -0.0804764,0.078354 -0.13025602,0.1039424 -0.0995593,0.051176 -0.21299936,0.066855 -0.32398804,0.081435 -0.8652596,0.1136674 -1.7336697,0.2068144 -2.6050955,0.2538416 -0.1655804,0.00894 -0.3371,0.017703 -0.4846223,0.093425 -0.073761,0.037861 -0.1399785,0.092708 -0.183744,0.1631264 -0.043766,0.070418 -0.063712,0.1570226 -0.046865,0.2382036 0.0127,0.061195 0.045634,0.1172975 0.089406,0.1619086 0.043772,0.044611 0.098052,0.078104 0.1557641,0.1020908 0.1154246,0.047975 0.2423826,0.058277 0.3667198,0.071109 1.8794496,0.1939641 3.60575393,1.0760292 5.329998,1.8486449 C 3.2779834,7.547343 5.1364997,8.2363873 7.0122409,8.0093457 8.6378875,7.8125758 10.162935,6.895168 11.098488,5.5512232 12.03404,4.2072784 12.364927,2.458587 11.985075,0.86574122 Z"
       style="fill:#000000;stroke-width:0.203967" />
  </g>
</svg>
