<?xml version="1.0" encoding="UTF-8" standalone="no"?>
<svg
   xmlns:dc="http://purl.org/dc/elements/1.1/"
   xmlns:cc="http://creativecommons.org/ns#"
   xmlns:rdf="http://www.w3.org/1999/02/22-rdf-syntax-ns#"
   xmlns:svg="http://www.w3.org/2000/svg"
   xmlns="http://www.w3.org/2000/svg"
   xmlns:sodipodi="http://sodipodi.sourceforge.net/DTD/sodipodi-0.dtd"
   xmlns:inkscape="http://www.inkscape.org/namespaces/inkscape"
   sodipodi:docname="schaerbeek.svg"
   inkscape:version="1.0 (4035a4fb49, 2020-05-01)"
   id="svg8825"
   version="1.1"
   viewBox="0 0 10.162675 8.2269754"
   height="8.2269754mm"
   width="10.162675mm">
  <defs
     id="defs8819" />
  <sodipodi:namedview
     inkscape:window-maximized="1"
     inkscape:window-y="0"
     inkscape:window-x="0"
     inkscape:window-height="1051"
     inkscape:window-width="1920"
     fit-margin-bottom="0"
     fit-margin-right="0"
     fit-margin-left="0"
     fit-margin-top="0"
     showgrid="false"
     inkscape:document-rotation="0"
     inkscape:current-layer="layer1"
     inkscape:document-units="mm"
     inkscape:cy="572.59531"
     inkscape:cx="1611.7034"
     inkscape:zoom="0.33878453"
     inkscape:pageshadow="2"
     inkscape:pageopacity="0.0"
     borderopacity="1.0"
     bordercolor="#666666"
     pagecolor="#ffffff"
     id="base" />
  <metadata
     id="metadata8822">
    <rdf:RDF>
      <cc:Work
         rdf:about="">
        <dc:format>image/svg+xml</dc:format>
        <dc:type
           rdf:resource="http://purl.org/dc/dcmitype/StillImage" />
        <dc:title></dc:title>
      </cc:Work>
    </rdf:RDF>
  </metadata>
  <g
     transform="translate(320.59653,3.3325097)"
     id="layer1"
     inkscape:groupmode="layer"
     inkscape:label="Layer 1">
    <g
       id="g6152"
       transform="matrix(0.06526928,0,0,0.06526928,-331.16359,-7.640097)">
      <path
         id="path5318"
         d="m 166.5458,191.99419 c -1.08395,-0.1091 -2.37335,-0.44222 -3.43239,-0.88677 l -0.63161,-0.26512 v -1.18065 c 0,-0.64936 0.0286,-1.16757 0.0635,-1.1516 0.0349,0.016 0.42733,0.20761 0.87201,0.42584 1.27869,0.62753 2.10875,0.83789 3.51632,0.89115 2.87194,0.10867 4.27942,-0.68269 4.27942,-2.40613 0,-1.02904 -0.62417,-1.93095 -1.72495,-2.49253 -0.181,-0.0923 -1.17424,-0.45495 -2.2072,-0.8058 -3.23006,-1.09711 -4.0522,-1.60567 -4.64555,-2.87364 -0.49259,-1.05263 -0.41388,-2.57361 0.19568,-3.78166 0.34669,-0.68707 1.2992,-1.6357 1.96159,-1.95358 0.98133,-0.47095 1.64799,-0.59185 3.27718,-0.59433 1.34611,-0.002 1.55906,0.0186 2.32761,0.22538 0.46527,0.12521 1.1225,0.35898 1.4605,0.5195 l 0.61455,0.29184 v 1.14328 1.14327 l -0.71017,-0.34077 c -1.00561,-0.48252 -1.77314,-0.66697 -3.01783,-0.72525 -1.558,-0.0729 -2.76813,0.20103 -3.46023,0.78339 -0.39483,0.33222 -0.68391,0.98364 -0.68494,1.54347 -0.002,1.07512 0.64408,1.54806 3.55573,2.60293 0.86118,0.312 1.96583,0.75815 2.45478,0.99144 0.75221,0.35891 0.98774,0.52343 1.53075,1.06922 0.98734,0.99238 1.34513,1.87581 1.34691,3.32566 0.002,1.35723 -0.3539,2.21591 -1.26801,3.06221 -1.18982,1.10156 -3.41653,1.66642 -5.67365,1.43925 z m 16.129,-0.0306 c -1.01679,-0.11066 -1.74605,-0.32342 -2.667,-0.77812 -0.75432,-0.37244 -0.99932,-0.54855 -1.6172,-1.1625 -1.05412,-1.04739 -1.54572,-2.03366 -1.95446,-3.92109 -0.15987,-0.73824 -0.18787,-1.12958 -0.18917,-2.64446 -0.002,-2.34802 0.19808,-3.38315 0.96559,-4.99533 0.60613,-1.2732 1.45966,-2.11502 2.83757,-2.79863 1.12291,-0.5571 1.85822,-0.72097 3.4835,-0.77633 1.90942,-0.065 3.53786,0.17213 5.10466,0.74342 l 0.51351,0.18723 v 1.05605 c 0,0.97217 -0.0118,1.05128 -0.14817,0.99603 -0.77296,-0.31308 -1.37854,-0.51216 -2.1341,-0.70161 -0.80548,-0.20196 -1.04996,-0.22415 -2.5014,-0.227 -1.74615,-0.003 -2.19342,0.0711 -3.15355,0.52573 -0.63147,0.29899 -1.45558,1.08243 -1.78114,1.69324 -0.6634,1.24466 -0.97634,3.34871 -0.7988,5.37064 0.12152,1.38391 0.27578,2.02269 0.70714,2.92819 0.75294,1.58058 2.11905,2.36943 4.37204,2.52461 1.43379,0.0987 3.27367,-0.20603 4.78181,-0.79213 l 0.65617,-0.255 v 1.04815 1.04814 l -0.3175,0.13648 c -0.61292,0.26349 -2.52867,0.69518 -3.49699,0.78801 -1.07343,0.10291 -1.75977,0.10453 -2.66251,0.006 z m 9.779,-8.5485 v -8.382 h 1.143 1.143 v 3.68382 3.68382 l 4.04283,-0.022 4.04283,-0.022 0.0221,-3.66184 0.0221,-3.66183 h 1.1421 1.1421 v 8.382 8.382 h -1.143 -1.143 v -3.64067 -3.64066 h -4.064 -4.064 v 3.64066 3.64067 h -1.143 -1.143 z m 15.65677,8.1915 c 1.96395,-5.06197 5.5844,-14.43113 6.00357,-15.53633 l 0.39336,-1.03717 h 1.24076 c 0.91339,0 1.25202,0.0279 1.28344,0.10583 0.0235,0.0582 0.61504,1.59174 1.31458,3.40784 2.05093,5.32449 5.02307,13.02981 5.07017,13.1445 0.0335,0.0816 -0.2189,0.10583 -1.10202,0.10583 h -1.14549 l -0.31688,-0.8255 c -0.17428,-0.45403 -0.57444,-1.49225 -0.88924,-2.30717 l -0.57237,-1.48166 -3.54116,-0.0216 -3.54116,-0.0216 -0.88398,2.3288 -0.88399,2.3288 h -1.25175 -1.25175 z m 10.378,-6.81567 c -0.0334,-0.0815 -0.62826,-1.63115 -1.32197,-3.44369 -0.69371,-1.81253 -1.27919,-3.31341 -1.30105,-3.33528 -0.0219,-0.0219 -0.0589,0.0133 -0.0824,0.0782 -0.0234,0.0649 -0.61486,1.61266 -1.31432,3.43954 -0.69946,1.82687 -1.27175,3.34135 -1.27175,3.3655 0,0.0242 1.20423,0.0439 2.67606,0.0439 2.5153,0 2.67241,-0.009 2.61538,-0.14817 z m 6.81589,6.97258 c 0,-0.021 0.21309,-0.58395 0.47352,-1.25109 0.26044,-0.66714 0.98112,-2.52744 1.60152,-4.13399 0.6204,-1.60655 1.82072,-4.7117 2.66738,-6.90033 0.84666,-2.18863 1.57751,-4.08411 1.6241,-4.21217 l 0.0847,-0.23283 h 1.24198 1.24197 l 0.21641,0.5715 c 0.11902,0.31432 1.01077,2.6289 1.98167,5.1435 0.9709,2.5146 2.32294,6.0198 3.00454,7.78933 l 1.23927,3.21734 -1.09891,0.0237 c -0.6044,0.013 -1.12736,-0.006 -1.16212,-0.0423 -0.0348,-0.0363 -0.45337,-1.08524 -0.93023,-2.33089 l -0.86701,-2.26484 h -3.52899 -3.52899 l -0.88443,2.30717 -0.88443,2.30717 -1.24598,0.0234 c -0.68529,0.0129 -1.24599,0.006 -1.24599,-0.0147 z m 9.95363,-8.20024 c -0.29037,-0.75671 -0.8866,-2.31786 -1.32495,-3.46923 -0.43835,-1.15136 -0.81606,-2.09362 -0.83934,-2.0939 -0.0233,0 -0.43623,1.03701 -0.91766,2.30506 -0.48144,1.26806 -1.07795,2.82944 -1.32559,3.46973 l -0.45026,1.16417 h 2.69287 2.69287 z m 8.24971,-0.15619 v -8.39001 l 3.78883,0.0364 c 3.77611,0.0363 3.79165,0.0372 4.62902,0.26086 1.98177,0.5294 3.28461,1.78321 3.65145,3.51404 0.25479,1.20215 0.10732,2.74335 -0.3552,3.71242 -0.46317,0.97039 -1.92999,2.19191 -2.935,2.44414 -0.13563,0.0341 -0.221,0.10367 -0.19863,0.16198 0.0216,0.0563 0.75814,1.18503 1.63678,2.50839 0.87865,1.32336 1.85299,2.79664 2.16522,3.27395 l 0.56769,0.86783 h -1.38944 -1.38944 l -2.01648,-3.17472 -2.01647,-3.17472 h -1.92616 -1.92617 v 3.175 3.175 h -1.143 -1.143 v -8.39002 z m 7.68617,-0.2892 c 0.71225,-0.16793 1.10955,-0.38224 1.4907,-0.80412 0.54997,-0.60876 0.67688,-1.00242 0.68217,-2.11599 0.004,-0.89916 -0.0135,-1.01048 -0.2316,-1.45471 -0.37377,-0.76113 -0.97519,-1.20149 -2.02873,-1.48545 -0.4347,-0.11717 -0.95179,-0.14328 -2.89971,-0.14638 l -2.37067,-0.004 -0.0222,3.06916 -0.0222,3.06917 2.43522,-0.001 c 1.85127,-9.3e-4 2.56276,-0.0313 2.96706,-0.12664 z m 8.31583,0.30238 v -8.38716 h 2.99669 c 3.36911,0 4.44245,0.0796 5.41752,0.40189 0.96047,0.31744 1.5728,0.75363 2.02764,1.4444 0.54437,0.82672 0.74752,1.43499 0.79734,2.38742 0.0838,1.60246 -0.4073,2.74835 -1.52706,3.56273 l -0.32087,0.23337 0.51287,0.27336 c 1.43665,0.76572 2.37254,2.22467 2.37254,3.69852 0,1.80324 -0.96965,3.46851 -2.40607,4.13218 -1.22839,0.56755 -1.2685,0.57176 -5.78543,0.60783 l -4.08517,0.0326 z m 7.6318,6.22275 c 1.18039,-0.25019 1.75323,-0.64043 2.12005,-1.44424 0.16015,-0.35096 0.19311,-0.56809 0.1928,-1.27 0,-0.75857 -0.0246,-0.89301 -0.23301,-1.29197 -0.28291,-0.54152 -0.73826,-0.88879 -1.49177,-1.13768 -0.51449,-0.16993 -0.76507,-0.18676 -3.2457,-0.21793 l -2.68817,-0.0338 v 2.75885 2.75884 l 2.39183,-0.001 c 1.72835,-0.001 2.54777,-0.0345 2.95397,-0.12062 z m -1.03964,-7.50144 c 1.16879,-0.14656 1.80643,-0.4796 2.15045,-1.12321 0.16516,-0.30897 0.18972,-0.48186 0.18972,-1.33523 0,-0.94373 -0.01,-0.9958 -0.25663,-1.39541 -0.31079,-0.50267 -0.65088,-0.74331 -1.38699,-0.98137 -0.49393,-0.15973 -0.81189,-0.18498 -2.78021,-0.22073 l -2.2225,-0.0404 v 2.53581 c 0,1.3947 0.0254,2.56122 0.0565,2.59226 0.0904,0.0904 3.47759,0.0651 4.24971,-0.0317 z m 9.07117,1.27353 v -8.382 h 5.461 5.461 v 1.10067 1.10066 h -4.318 -4.318 v 2.58234 2.58233 h 3.81 3.81 v 1.05833 1.05834 h -3.81 -3.81 v 2.58233 2.58233 h 4.318 4.318 v 1.05834 1.05833 h -5.461 -5.461 z m 14.478,0 v -8.382 h 5.461 5.461 v 1.10067 1.10066 h -4.318 -4.318 v 2.58234 2.58233 h 3.81 3.81 v 1.05833 1.05834 h -3.81 -3.81 v 2.58233 2.58233 h 4.318 4.318 v 1.05834 1.05833 h -5.461 -5.461 z m 14.39334,0 v -8.382 h 1.143 1.143 l 0.001,4.08517 10e-4,4.08516 0.82561,-0.84666 c 0.45409,-0.46567 1.49153,-1.55152 2.30542,-2.413 1.85234,-1.96065 3.04838,-3.21843 3.96517,-4.16984 l 0.71388,-0.74083 h 1.44553 1.44552 l -0.34206,0.35983 c -0.18813,0.19791 -1.21215,1.29329 -2.2756,2.43417 -2.02738,2.17501 -2.57687,2.75999 -3.79344,4.03843 l -0.74107,0.77876 3.66429,4.33197 c 2.01536,2.38259 3.75277,4.44197 3.86093,4.57641 l 0.19664,0.24443 -1.46664,-0.002 -1.46664,-0.002 -3.048,-3.59983 c -1.6764,-1.9799 -3.09837,-3.66481 -3.15992,-3.74424 -0.10056,-0.12974 -0.21413,-0.037 -1.11869,0.91393 l -1.00676,1.05833 -0.003,2.68817 -0.003,2.68817 h -1.143 -1.143 v -8.382 z m -141.39334,-16.764 v -0.67733 h 77.216 77.216 v 0.67733 0.67733 h -77.216 -77.216 z m 80.30634,-16.30276 c -2.63583,-0.35486 -5.4671,-1.42801 -7.37977,-2.7972 -1.86053,-1.33186 -2.7759,-2.21941 -4.08151,-3.95741 -0.46521,-0.61929 -2.04495,-2.9401 -2.32796,-3.42004 -0.0426,-0.0723 0.83767,-0.55331 2.90539,-1.5875 1.63161,-0.81607 2.99536,-1.48329 3.03054,-1.48272 0.0352,5.9e-4 0.25447,0.37043 0.4873,0.8219 0.61894,1.20015 1.31757,2.13195 2.29222,3.05727 2.04012,1.93685 4.6719,2.97744 7.52912,2.97695 1.81098,-3.4e-4 3.2726,-0.33304 4.826,-1.09864 2.70236,-1.33186 4.87261,-3.82057 5.7479,-6.59135 0.34682,-1.09788 0.48074,-2.04514 0.48074,-3.4005 0,-1.8978 -0.31662,-3.32947 -1.07303,-4.852 -0.43073,-0.86698 -0.7408,-1.34401 -1.3314,-2.04833 -2.06648,-2.46436 -4.56841,-3.81984 -7.57726,-4.10517 -0.49699,-0.0471 -2.47628,-0.0857 -4.39841,-0.0858 l -3.4948,-7e-5 2.03042,-2.51884 c 1.11673,-1.38535 3.38341,-4.19523 5.03706,-6.24416 l 3.00664,-3.72534 -8.04043,-0.0216 -8.04043,-0.0216 v -3.34387 -3.34393 h 14.90633 c 11.90202,0 14.8937,0.0213 14.8437,0.10584 -0.0344,0.0582 -0.44874,0.58208 -0.92065,1.16417 -0.47191,0.58209 -2.49275,3.0967 -4.49075,5.58803 -1.99801,2.49132 -4.04342,5.03799 -4.54535,5.65927 -0.50194,0.62128 -0.91261,1.15487 -0.91261,1.18576 0,0.0309 0.23812,0.14738 0.52916,0.25886 1.41771,0.54304 3.29581,1.64067 4.5085,2.63493 0.85884,0.70413 2.37256,2.29146 3.02573,3.17285 1.80161,2.4311 2.8706,4.97268 3.33889,7.9384 0.18787,1.18978 0.18702,4.00965 -0.002,5.25955 -0.58045,3.84671 -2.25083,7.09166 -5.10832,9.92363 -2.85439,2.82892 -6.22252,4.46365 -10.18483,4.94324 -0.98348,0.11905 -3.58795,0.0939 -4.61655,-0.0446 z m 47.58266,0.0375 c -4.61304,-0.3473 -8.7743,-1.91031 -12.40366,-4.65896 -4.21476,-3.19198 -7.32367,-7.55609 -8.75538,-12.29031 -1.59156,-5.26274 -1.31798,-11.55111 0.71533,-16.44242 1.08698,-2.61486 2.54898,-4.90073 4.56113,-7.13147 3.97226,-4.4038 9.05361,-7.06676 14.85425,-7.78457 1.51856,-0.18792 4.62569,-0.18505 6.10833,0.006 3.01916,0.38831 5.82703,1.27215 8.382,2.63843 0.89529,0.47875 2.62983,1.64115 3.61205,2.4206 1.11675,0.8862 3.1323,2.90438 4.04643,4.0517 2.85774,3.58673 4.50395,7.511 5.05196,12.04302 0.16608,1.3734 0.18627,4.29159 0.0391,5.65231 -0.31089,2.87479 -1.011,5.31411 -2.24777,7.83167 -2.21716,4.51321 -5.91792,8.3699 -10.44974,10.89006 -3.86626,2.15004 -8.67989,3.13823 -13.51404,2.77429 z m 4.826,-6.72185 c 4.24203,-0.65888 7.92623,-2.77887 10.81431,-6.22284 2.86796,-3.41998 4.17142,-7.26378 4.01956,-11.85333 -0.15145,-4.57676 -1.71308,-8.2707 -4.87709,-11.53641 -2.21517,-2.28638 -4.40266,-3.70848 -7.06882,-4.59551 -2.1026,-0.69953 -3.83469,-0.93476 -6.35019,-0.86242 -4.66172,0.13406 -8.44723,1.78072 -11.81063,5.1375 -2.99423,2.98834 -4.62333,6.32761 -5.09933,10.45239 -0.13026,1.12875 -0.051,4.075 0.13799,5.12978 0.44775,2.4989 1.30261,4.62607 2.67863,6.66525 0.98366,1.45771 2.83111,3.37744 4.30537,4.47381 2.73732,2.03567 5.24752,2.98323 8.9322,3.37174 0.68286,0.072 3.4954,-0.0322 4.318,-0.15996 z M 167.64646,129.39778 V 108.9931 h -2.87348 -2.87349 l 0.73419,-1.2065 c 0.40381,-0.66358 1.28937,-2.12091 1.96791,-3.23852 l 1.23371,-2.03201 4.20758,-0.022 4.20758,-0.022 v 23.66516 23.66512 h -3.302 -3.302 z m 34.48763,5.38364 c -3.18868,-0.60843 -5.87689,-2.79756 -7.05344,-5.74392 -0.52297,-1.30964 -0.62885,-1.90292 -0.63077,-3.53439 -0.002,-1.2824 0.0247,-1.58252 0.19497,-2.2316 0.90219,-3.43935 3.35967,-5.94666 6.75225,-6.88915 0.77131,-0.21428 0.95638,-0.23228 2.40203,-0.23354 1.77484,-0.002 2.49253,0.13198 3.76767,0.70101 1.58552,0.70755 3.247,2.10457 4.14903,3.48861 3.14318,4.82283 1.27799,11.26173 -3.97537,13.72354 -1.21638,0.57001 -2.08929,0.76185 -3.645,0.80107 -0.92634,0.0233 -1.5465,-0.002 -1.96137,-0.0816 z m 19.81193,-25.40359 c 0,-0.0678 0.0324,-0.10327 0.0719,-0.0788 0.0396,0.0244 0.05,0.0799 0.0232,0.12328 -0.0685,0.11078 -0.0952,0.0983 -0.0952,-0.0445 z m -14.37561,-0.97154 c -0.0268,-0.0434 -0.004,-0.10639 0.0504,-0.14009 0.0594,-0.0367 0.0765,-0.0247 0.0427,0.0301 -0.031,0.0502 0.0107,0.10886 0.0927,0.13026 0.13339,0.0348 0.13403,0.04 0.006,0.0487 -0.0788,0.005 -0.16509,-0.0256 -0.19188,-0.069 z M 162.65113,91.721057 v -0.677333 h 77.216 77.216 v 0.677333 0.677334 h -77.216 -77.216 z m 3.96374,-8.298525 c -0.95372,-0.109179 -1.99568,-0.375945 -2.99598,-0.767044 l -0.88309,-0.345271 v -1.217739 -1.217741 l 0.63309,0.341488 c 1.77282,0.956248 4.10573,1.31196 5.98098,0.911954 1.61385,-0.344245 2.43406,-1.374447 2.1816,-2.740127 -0.24359,-1.317622 -1.02343,-1.956362 -3.31815,-2.71774 -1.62292,-0.538484 -3.15884,-1.114753 -3.68069,-1.38098 -0.53417,-0.272514 -1.31793,-1.050036 -1.60633,-1.593552 -0.70656,-1.331578 -0.52861,-3.195128 0.43391,-4.543969 0.50562,-0.708569 0.97263,-1.108041 1.70392,-1.457512 0.932,-0.445384 1.4698,-0.557331 2.90686,-0.605076 1.7996,-0.05979 2.85216,0.127866 4.26864,0.761043 l 0.5715,0.255463 v 1.172711 1.172711 l -0.50268,-0.255442 c -1.10108,-0.559531 -2.33043,-0.842651 -3.65891,-0.842651 -2.41151,0 -3.79061,0.871006 -3.80894,2.405629 -0.003,0.253158 0.0529,0.560771 0.12849,0.706976 0.31654,0.612127 1.27991,1.14482 3.48171,1.925199 0.74506,0.264072 1.82553,0.705284 2.40103,0.980469 0.90872,0.434521 1.12682,0.581129 1.65802,1.114532 0.70057,0.703478 1.0811,1.392706 1.27402,2.307528 0.58092,2.754671 -0.94182,4.87551 -3.94389,5.492963 -0.80229,0.165013 -2.38825,0.231978 -3.22511,0.136178 z m 16.63377,-0.0046 c -2.5597,-0.247645 -4.5913,-1.572365 -5.61001,-3.658052 -0.75816,-1.552239 -1.0829,-3.398308 -0.99229,-5.641014 0.0754,-1.866927 0.3904,-3.228113 1.05287,-4.550003 0.71413,-1.424997 2.15454,-2.607745 3.83259,-3.147016 2.0064,-0.644796 4.71175,-0.551449 7.34483,0.253431 l 0.86783,0.265279 v 1.09629 c 0,1.011742 -0.0114,1.091412 -0.14816,1.033027 -1.47622,-0.630306 -2.66934,-0.890298 -4.34288,-0.946348 -1.71113,-0.05731 -2.49397,0.06888 -3.51528,0.566624 -1.84915,0.901214 -2.661,2.748598 -2.661,6.055204 0,3.810836 1.11849,5.749222 3.72466,6.45497 0.79687,0.215792 3.31191,0.211163 4.318,-0.008 0.61799,-0.13459 1.99622,-0.563671 2.4791,-0.771815 0.14078,-0.06068 0.1492,0.0067 0.127,1.017 l -0.0238,1.081989 -0.70867,0.237993 c -1.83763,0.617134 -3.82752,0.845879 -5.74482,0.660386 z m 9.88249,-8.672578 v -8.509 h 1.14211 1.14211 l 0.0221,3.704167 0.0221,3.704166 h 4.10634 4.10633 l 0.0221,-3.704166 0.0221,-3.704167 h 1.14211 1.14211 v 8.509 8.509 h -1.143 -1.143 v -3.683 -3.683 h -4.14866 -4.14867 v 3.683 3.683 h -1.143 -1.143 z m 15.91733,8.430617 c 0,-0.0456 0.2799,-0.799094 0.62199,-1.67443 0.3421,-0.875336 1.32024,-3.40127 2.17366,-5.613187 0.85342,-2.211917 2.03717,-5.278967 2.63055,-6.815666 l 1.07888,-2.794 h 1.28769 1.2877 l 1.0948,2.836333 c 4.02626,10.430918 5.34574,13.86131 5.38254,13.993624 0.0389,0.1399 -0.0407,0.148942 -1.11772,0.127 l -1.15962,-0.02362 -0.89847,-2.3495 -0.89846,-2.3495 h -3.6251 c -2.84218,0 -3.62569,0.02286 -3.62784,0.105833 -0.002,0.05821 -0.39387,1.115483 -0.87191,2.3495 l -0.86916,2.243667 -1.24476,0.02343 c -0.77176,0.01453 -1.24477,-0.0081 -1.24477,-0.05948 z m 10.58334,-6.936268 c 0,-0.06725 -0.53262,-1.478222 -2.04097,-5.406742 -0.34344,-0.894517 -0.64753,-1.599367 -0.67575,-1.566334 -0.0378,0.04429 -1.78876,4.577047 -2.66416,6.896894 -0.0525,0.139195 0.10869,0.148166 2.66249,0.148166 1.49511,0 2.71839,-0.03239 2.71839,-0.07198 z m 7.874,-1.494349 v -8.509 h 5.54566 5.54567 v 1.100667 1.100667 h -4.40389 -4.40389 l 0.0224,2.603499 0.0224,2.6035 3.8735,0.02202 3.8735,0.02202 v 1.099813 1.099812 h -3.89589 -3.89589 l 0.0224,2.6035 0.0224,2.6035 4.3815,0.02193 4.3815,0.02193 v 1.057572 1.057571 h -5.54567 -5.54566 z m 14.732,0 v -8.509 h 3.58724 c 2.8057,0 3.74563,0.02762 4.31422,0.126775 1.84086,0.321019 3.18296,1.201622 3.88079,2.546328 0.42956,0.827753 0.53548,1.344512 0.52805,2.57623 -0.006,0.918328 -0.0366,1.146721 -0.2351,1.726471 -0.47655,1.392174 -1.44688,2.388273 -2.9312,3.009077 -0.25612,0.107118 -0.47835,0.2062 -0.49385,0.220182 -0.0155,0.01398 0.98283,1.552613 2.21852,3.419179 l 2.24671,3.393758 -1.41419,-0.0011 -1.41419,-0.0011 -0.39326,-0.61274 c -0.78465,-1.222545 -1.49733,-2.341008 -2.6153,-4.104345 l -1.14011,-1.798275 -1.92616,-8.94e-4 -1.92617,-8.94e-4 v 3.259666 3.259667 h -1.143 -1.143 z m 6.99922,-0.211724 c 1.42854,-0.150525 2.24587,-0.632145 2.70934,-1.596514 0.18811,-0.391411 0.23613,-0.626912 0.2657,-1.302984 0.0565,-1.292251 -0.27027,-2.060101 -1.12816,-2.650951 -0.83371,-0.574199 -1.27871,-0.649751 -4.0836,-0.693311 l -2.4765,-0.03846 v 3.183471 3.183472 l 1.9685,-0.0015 c 1.08267,-8.46e-4 2.3178,-0.03827 2.74472,-0.08326 z m 9.25678,0.216879 v -8.514155 l 3.3655,3.22e-4 c 3.6929,3.56e-4 4.37149,0.05926 5.403,0.468999 1.11838,0.44425 1.66133,0.958921 2.19328,2.079068 0.90865,1.913353 0.40673,4.311245 -1.11313,5.31796 l -0.37999,0.2517 0.42625,0.215998 c 0.44486,0.22543 1.25808,0.851059 1.59414,1.226422 0.1076,0.120192 0.32832,0.485231 0.49049,0.811197 0.69534,1.397644 0.54091,3.214799 -0.3919,4.611706 -0.43407,0.650024 -0.89716,1.044082 -1.63931,1.394925 -1.19595,0.565379 -1.33695,0.580215 -5.86316,0.6169 l -4.08517,0.03311 v -8.514154 z m 7.94017,6.269422 c 1.41802,-0.361342 2.03725,-1.078194 2.1186,-2.452621 0.078,-1.317828 -0.27475,-2.057182 -1.19531,-2.50525 -0.84278,-0.410221 -1.70059,-0.512373 -4.30255,-0.512373 h -2.27491 v 2.846113 2.846112 l 2.56117,-0.04323 c 1.95555,-0.03301 2.68692,-0.07528 3.093,-0.178751 z m -0.59993,-7.696848 c 1.29479,-0.371781 1.71763,-0.960744 1.71862,-2.393813 10e-4,-1.605322 -0.69082,-2.319648 -2.48921,-2.56978 -0.36038,-0.05013 -1.47163,-0.09114 -2.46945,-0.09114 h -1.8142 v 2.635092 2.635092 l 2.30717,-0.04457 c 1.67827,-0.03242 2.42708,-0.079 2.74707,-0.170885 z m 8.57709,1.422271 v -8.509 h 5.54567 5.54567 v 1.100667 1.100667 h -4.4039 -4.40388 l 0.0224,2.603499 0.0224,2.6035 3.83116,0.02203 3.83117,0.02203 v 1.099804 1.099804 h -3.85356 -3.85355 l 0.0224,2.6035 0.0224,2.6035 4.3815,0.02193 4.3815,0.02193 v 1.057572 1.057571 h -5.54567 -5.54567 z m 14.64734,0 v -8.509 h 5.54566 5.54567 v 1.100667 1.100667 h -4.40389 -4.40389 l 0.0224,2.603499 0.0224,2.6035 3.8735,0.02202 3.8735,0.02202 v 1.099813 1.099812 h -3.89589 -3.89589 l 0.0224,2.6035 0.0224,2.6035 4.3815,0.02193 4.3815,0.02193 v 1.057572 1.057571 h -5.54567 -5.54566 z m 14.732,0 v -8.509 h 1.14219 1.1422 l 0.022,4.11754 0.022,4.11754 3.89467,-4.114183 3.89466,-4.114183 1.46665,-0.0034 1.46665,-0.0034 -0.17678,0.224729 c -0.0972,0.123601 -0.68459,0.761776 -1.30525,1.418167 -3.85882,4.08097 -5.64201,6.024971 -5.60797,6.113705 0.0214,0.0557 1.36543,1.671383 2.98679,3.590402 1.62135,1.919019 3.19556,3.783722 3.49825,4.143783 0.30268,0.360062 0.7158,0.850983 0.91805,1.090935 l 0.36771,0.436279 h -1.48452 -1.48453 l -2.56619,-3.019683 c -1.4114,-1.660825 -2.86693,-3.378334 -3.23449,-3.816686 -0.64231,-0.766025 -0.67403,-0.790985 -0.81587,-0.642151 -0.0812,0.08517 -0.53291,0.56794 -1.00387,1.072824 l -0.85629,0.917971 v 2.743863 2.743862 h -1.143 -1.143 z"
         style="fill:#000000;stroke-width:0.0846667" />
      <path
         sodipodi:nodetypes="ccscscccsccccs"
         d="m 203.60618,101.1127 c -13.30625,0.0672 -24.05758,10.87303 -24.05745,24.17945 3e-5,10.54971 6.75638,19.52138 16.17814,22.82413 2.50437,0.8779 5.19707,12.19528 8.00126,12.19529 2.90094,-1e-5 5.68256,-11.3509 8.2598,-12.28758 9.28658,-3.37515 15.91957,-12.27888 15.9196,-22.73184 -4e-5,-13.3539 -10.8255,-24.17941 -24.1794,-24.17945 -0.0406,-1e-4 -0.0813,-1e-4 -0.12195,0 z m 0.0713,7.05439 c 0.0169,-2e-5 0.0338,-2e-5 0.0506,0 9.45787,7e-5 17.12498,7.66718 17.12505,17.12506 -7e-5,9.45787 -7.66718,17.12498 -17.12505,17.12505 -9.45788,-7e-5 -17.12498,-7.66718 -17.12505,-17.12505 3e-5,-9.43814 7.63632,-17.09708 17.07441,-17.12506 z"
         style="fill:#000000;fill-opacity:1;stroke:none;stroke-width:0.4;stroke-linecap:round;stroke-linejoin:bevel;paint-order:stroke fill markers"
         id="path5320" />
    </g>
  </g>
</svg>
