<?xml version="1.0" encoding="UTF-8" standalone="no"?>
<!-- Created with Inkscape (http://www.inkscape.org/) -->

<svg
   xmlns:dc="http://purl.org/dc/elements/1.1/"
   xmlns:cc="http://creativecommons.org/ns#"
   xmlns:rdf="http://www.w3.org/1999/02/22-rdf-syntax-ns#"
   xmlns:svg="http://www.w3.org/2000/svg"
   xmlns="http://www.w3.org/2000/svg"
   xmlns:sodipodi="http://sodipodi.sourceforge.net/DTD/sodipodi-0.dtd"
   xmlns:inkscape="http://www.inkscape.org/namespaces/inkscape"
   version="1.1"
   id="svg2"
   width="344.09982"
   height="531.79327"
   viewBox="0 0 344.09982 531.79327"
   sodipodi:docname="theatre-de-liege.svg"
   inkscape:version="0.92.3 (2405546, 2018-03-11)">
  <metadata
     id="metadata8">
    <rdf:RDF>
      <cc:Work
         rdf:about="">
        <dc:format>image/svg+xml</dc:format>
        <dc:type
           rdf:resource="http://purl.org/dc/dcmitype/StillImage" />
        <dc:title></dc:title>
      </cc:Work>
    </rdf:RDF>
  </metadata>
  <defs
     id="defs6" />
  <sodipodi:namedview
     pagecolor="#ffffff"
     bordercolor="#666666"
     borderopacity="1"
     objecttolerance="10"
     gridtolerance="10"
     guidetolerance="10"
     inkscape:pageopacity="0"
     inkscape:pageshadow="2"
     inkscape:window-width="1600"
     inkscape:window-height="1172"
     id="namedview4"
     showgrid="false"
     fit-margin-top="0"
     fit-margin-left="0"
     fit-margin-right="0"
     fit-margin-bottom="0"
     inkscape:zoom="0.34202899"
     inkscape:cx="-247.55508"
     inkscape:cy="289.20313"
     inkscape:window-x="1366"
     inkscape:window-y="0"
     inkscape:window-maximized="1"
     inkscape:current-layer="svg2" />
  <path
     style="fill:#000000;stroke-width:0.99999994"
     d="m 50.612386,102.28083 c -1.017023,-0.35976 -2.132933,-1.57326 -2.417498,-2.6289 -0.128939,-0.478317 -0.193517,-1.589638 -0.149712,-2.576417 0.06529,-1.470802 0.163542,-1.893742 0.644651,-2.774949 0.989957,-1.813219 2.41792,-2.431828 5.293828,-2.293343 1.027374,0.04947 1.968897,0.152337 2.092276,0.228587 0.135697,0.08387 0.224323,0.667376 0.224323,1.476925 v 1.338284 h -0.553352 c -0.516104,0 -0.560211,-0.06086 -0.655258,-0.904118 -0.128033,-1.13589 -0.487695,-1.409591 -1.852313,-1.409591 -1.20877,0 -2.439259,0.516962 -2.965772,1.246 -0.986525,1.365997 -1.129048,4.391214 -0.285913,6.068892 0.65964,1.31255 1.254653,1.65073 2.904386,1.65073 1.975169,0 2.058559,-0.0568 2.058559,-1.40145 0,-1.317861 -0.202787,-1.58709 -1.195417,-1.58709 -0.604134,0 -0.732674,-0.06765 -0.732674,-0.385618 0,-0.365051 0.12854,-0.385618 2.410113,-0.385618 2.256572,0 2.410114,0.02382 2.410114,0.373978 0,0.292977 -0.156607,0.386941 -0.723034,0.433821 l -0.723034,0.05984 -0.0964,1.638257 -0.0964,1.63826 -0.964046,0.22312 c -1.343561,0.31096 -3.70742,0.29584 -4.627418,-0.0296 z M 0,102.01196 c 0,-0.33013 0.11817269,-0.40543 0.63627,-0.40543 0.3499485,0 0.7403869,-0.10412 0.8676409,-0.23137 0.2443682,-0.24437 0.3467672,-7.534361 0.1143377,-8.140059 C 1.5392624,93.029266 1.2572001,92.930117 0.75060772,92.930117 0.11652996,92.930117 0,92.867233 0,92.525058 c 0,-0.398341 0.05356622,-0.40384 3.2295523,-0.331618 2.7678921,0.06294 3.3535805,0.130881 4.0971931,0.475273 1.5478309,0.716852 2.243517,1.860879 2.4452415,4.021105 0.2294161,2.456746 -0.6178953,4.240132 -2.4110911,5.074772 -1.0136938,0.47182 -1.3261872,0.51477 -4.2277481,0.58114 C 0.05477513,102.41614 0,102.41031 0,102.01196 Z m 6.4852996,-0.85115 c 1.2270197,-0.63452 1.7842591,-1.812346 1.795953,-3.796083 0.01849,-3.135713 -1.191109,-4.41641 -4.1840594,-4.430009 l -1.0122478,-0.0046 v 4.366034 4.366038 l 1.423606,-0.10767 c 0.7829822,-0.0592 1.6725186,-0.23638 1.9767482,-0.39371 z m 3.5407734,0.83133 c 0,-0.31958 0.12854,-0.38561 0.750607,-0.38561 0.506593,0 0.788655,-0.0992 0.867641,-0.30499 0.152609,-0.39769 0.152609,-7.668747 0,-8.066439 -0.07899,-0.205835 -0.361048,-0.304984 -0.867641,-0.304984 -0.622067,0 -0.750607,-0.06603 -0.750607,-0.385618 0,-0.373932 0.12854,-0.385618 4.2418,-0.385618 h 4.2418 v 1.253259 c 0,1.190681 -0.02287,1.253259 -0.457922,1.253259 -0.359545,0 -0.484057,-0.130674 -0.579573,-0.608253 -0.209942,-1.049714 -0.378472,-1.127029 -2.456677,-1.127029 h -1.904483 v 1.928091 1.928091 h 1.021888 c 1.115532,0 1.48463,-0.225293 1.48463,-0.906202 0,-0.344487 0.107582,-0.443461 0.482023,-0.443461 0.480332,0 0.482023,0.0064 0.482023,1.831686 0,1.668639 -0.03249,1.831686 -0.36499,1.831686 -0.37778,0 -0.599056,-0.354298 -0.599056,-0.959186 0,-0.44418 -0.371618,-0.583286 -1.558242,-0.583286 h -0.948276 v 2.024495 2.024499 h 1.891239 c 2.151449,0 2.493035,-0.15312 2.580781,-1.15686 0.05032,-0.575549 0.129909,-0.67483 0.541016,-0.67483 0.46092,0 0.48452,0.05698 0.539035,1.30146 l 0.05701,1.30146 h -4.347014 c -4.218474,0 -4.347014,-0.0114 -4.347014,-0.38562 z m 12.339781,0.0111 c 0,-0.30279 0.156972,-0.38589 0.819439,-0.43382 l 0.819439,-0.0593 v -4.241798 -4.2418 l -0.819439,-0.05929 c -0.662467,-0.04793 -0.819439,-0.131033 -0.819439,-0.43382 0,-0.352341 0.154223,-0.374532 2.602923,-0.374532 2.474383,0 2.602923,0.01905 2.602923,0.385618 0,0.32804 -0.12854,0.385618 -0.860858,0.385618 -0.653771,0 -0.908869,0.08971 -1.06045,0.372943 -0.119025,0.2224 -0.199592,1.973567 -0.199592,4.338205 v 3.965266 h 1.817914 c 2.185753,0 2.423886,-0.1529 2.423886,-1.55625 0,-0.885084 0.03307,-0.950273 0.482023,-0.950273 0.476352,0 0.482022,0.01928 0.482022,1.638883 v 1.63887 H 26.51125 c -3.975955,0 -4.145396,-0.0153 -4.145396,-0.37453 z m 9.447646,-0.0111 c 0,-0.32824 0.12854,-0.38561 0.863968,-0.38561 0.735861,0 0.879763,-0.0643 0.970495,-0.43382 0.05859,-0.23861 0.08194,-2.169106 0.05188,-4.290006 l -0.05465,-3.856182 -0.865917,-0.09641 c -0.623791,-0.06945 -0.883829,-0.190751 -0.92998,-0.43382 -0.05846,-0.307922 0.164692,-0.337416 2.552997,-0.337416 2.488519,0 2.617059,0.01893 2.617059,0.385618 0,0.317966 -0.12854,0.385618 -0.732674,0.385618 -0.402971,0 -0.836792,0.104117 -0.964046,0.231371 -0.327025,0.327026 -0.327025,7.886637 0,8.213667 0.127254,0.12725 0.561075,0.23137 0.964046,0.23137 0.604134,0 0.732674,0.0677 0.732674,0.38561 0,0.36658 -0.12854,0.38562 -2.602922,0.38562 -2.474383,0 -2.602923,-0.019 -2.602923,-0.38562 z m 6.555509,0 c 0,-0.31958 0.12854,-0.38561 0.750608,-0.38561 0.506592,0 0.788654,-0.0992 0.867641,-0.30499 0.06437,-0.16774 0.117033,-1.982688 0.117033,-4.033218 0,-2.05053 -0.05266,-3.865481 -0.117033,-4.033221 -0.07899,-0.205835 -0.361049,-0.304984 -0.867641,-0.304984 -0.622068,0 -0.750608,-0.06603 -0.750608,-0.385618 0,-0.373932 0.12854,-0.385618 4.2418,-0.385618 h 4.2418 v 1.253259 c 0,1.208271 -0.0173,1.253259 -0.482023,1.253259 -0.37306,0 -0.482023,-0.09926 -0.482023,-0.43912 0,-0.241519 -0.135066,-0.631957 -0.300145,-0.867641 -0.275945,-0.393965 -0.454741,-0.428521 -2.217305,-0.428521 h -1.917159 v 1.928091 1.928091 l 1.012248,-0.0029 c 1.19087,-0.0035 1.391283,-0.108056 1.564661,-0.816486 0.0872,-0.356315 0.25504,-0.530225 0.51171,-0.530225 0.353918,0 0.381945,0.134411 0.381945,1.831686 0,1.677886 -0.03109,1.831686 -0.370298,1.831686 -0.261347,0 -0.410299,-0.184371 -0.506247,-0.626629 -0.174687,-0.805194 -0.355094,-0.909313 -1.581771,-0.912892 l -1.012248,-0.0029 v 2.024495 2.024496 h 2.000888 c 2.206405,0 2.354124,-0.069 2.478382,-1.15711 0.06453,-0.565067 0.153231,-0.674577 0.546411,-0.674577 0.44531,0 0.472301,0.06674 0.52639,1.301467 l 0.05701,1.30146 h -4.347014 c -4.218474,0 -4.347014,-0.0114 -4.347014,-0.38562 z m 19.316554,0.0482 c 0.04353,-0.22981 0.27863,-0.35623 0.73717,-0.39641 1.104012,-0.0967 1.155276,-0.29091 1.155276,-4.375618 0,-4.084713 -0.05126,-4.278877 -1.155276,-4.375615 -0.461635,-0.04045 -0.693569,-0.166223 -0.73789,-0.400139 -0.0605,-0.319303 0.210962,-0.337819 4.240221,-0.289214 l 4.304858,0.05193 v 1.156854 c 0,1.118694 -0.01749,1.158868 -0.530225,1.217863 -0.489843,0.05636 -0.530225,0.0092 -0.530225,-0.619844 0,-0.920203 -0.369071,-1.080042 -2.493842,-1.080042 h -1.747958 v 1.928091 1.928091 h 1.021889 c 1.115531,0 1.48463,-0.225293 1.48463,-0.906202 0,-0.346235 0.107267,-0.443461 0.489258,-0.443461 h 0.489257 l -0.05544,1.783484 c -0.05232,1.68325 -0.07982,1.786947 -0.489259,1.845096 -0.363414,0.05161 -0.43382,-0.02818 -0.43382,-0.491663 0,-0.793172 -0.325626,-1.016017 -1.48463,-1.016017 h -1.021889 v 2.024495 2.024501 h 1.914319 c 2.176309,0 2.520291,-0.17293 2.520291,-1.26703 0,-0.576597 0.06159,-0.661066 0.482022,-0.661066 0.468251,0 0.482023,0.03856 0.482023,1.349666 v 1.34966 h -4.352341 c -4.040899,0 -4.34777,-0.0241 -4.288423,-0.33741 z M 42.032382,90.327195 41.180856,89.459554 h 0.705714 c 0.619424,0 0.778704,0.106087 1.302666,0.867641 l 0.596953,0.867641 h -0.451141 c -0.279995,0 -0.774179,-0.329152 -1.302666,-0.867641 z M 1.9280909,88.10989 c 0,-0.312167 0.12854,-0.385618 0.6748318,-0.385618 H 3.2777545 V 83.953931 80.18359 l -0.9158431,0.05877 -0.9158432,0.05877 -0.096405,0.867641 C 1.2591622,81.983272 1.21488,82.040112 0.62662914,82.096831 L 0,82.157241 V 80.698957 79.240672 H 4.3466515 8.693303 l -0.056649,1.397866 -0.056649,1.397866 -0.6266295,0.06042 c -0.5985469,0.05771 -0.6266296,0.03033 -0.6266296,-0.61086 0,-1.136347 -0.133634,-1.281245 -1.1816459,-1.281245 H 5.197518 l 0.052367,3.711575 0.052365,3.711575 0.7230341,0.05984 c 0.5664268,0.04688 0.723034,0.140843 0.723034,0.43382 0,0.350153 -0.1535415,0.373978 -2.4101136,0.373978 -2.2815736,0 -2.4101136,-0.02057 -2.4101136,-0.385618 z m 7.5195545,0.01165 c 0,-0.292977 0.1566073,-0.386941 0.7230336,-0.433821 l 0.723035,-0.05984 0.05228,-3.807979 0.05228,-3.80798 h -0.775312 c -0.6467726,-6e-6 -0.7753126,-0.06394 -0.7753126,-0.385624 0,-0.364195 0.12854,-0.385618 2.3137086,-0.385618 2.159939,0 2.31371,0.02482 2.31371,0.373402 0,0.280342 -0.156172,0.38846 -0.62663,0.43382 l -0.62663,0.06042 -0.056,1.590675 -0.056,1.590675 h 1.839483 1.839484 v -1.626661 -1.626661 l -0.625051,-0.06042 c -0.411657,-0.03979 -0.646872,-0.175613 -0.688968,-0.397835 -0.05815,-0.306931 0.156383,-0.337416 2.374469,-0.337416 2.218095,0 2.432612,0.03048 2.374446,0.337416 -0.04477,0.236235 -0.281486,0.355432 -0.789411,0.397497 l -0.725467,0.06008 0.05224,3.796099 0.05224,3.796101 0.723034,0.05984 c 0.566427,0.04688 0.723034,0.140843 0.723034,0.43382 0,0.350153 -0.153541,0.373978 -2.410113,0.373978 -2.281574,0 -2.410114,-0.02057 -2.410114,-0.385618 0,-0.312167 0.12854,-0.385618 0.674832,-0.385618 h 0.674832 V 85.98899 84.253708 H 14.557086 12.7254 v 1.430299 c 0,1.801039 0.09285,2.040265 0.791865,2.040265 0.429259,0 0.557799,0.08886 0.557799,0.385618 0,0.364195 -0.12854,0.385618 -2.31371,0.385618 -2.1611677,0 -2.3137086,-0.02466 -2.3137086,-0.373978 z m 11.1829276,0 c 0,-0.292977 0.156607,-0.386941 0.723034,-0.433821 l 0.723034,-0.05984 0.05228,-3.807979 0.05228,-3.80798 h -0.775312 c -0.646772,-6e-6 -0.775312,-0.06394 -0.775312,-0.385624 0,-0.373376 0.12854,-0.385618 4.048991,-0.385618 h 4.04899 v 1.156855 1.156854 h -0.578427 c -0.512633,0 -0.578427,-0.06502 -0.578427,-0.571644 0,-0.775617 -0.443303,-0.970829 -2.204629,-0.970829 h -1.458744 v 1.649442 1.649441 l 0.915843,-0.05877 c 0.84777,-0.0544 0.929556,-0.105343 1.100323,-0.685396 0.138711,-0.471166 0.294175,-0.62663 0.62663,-0.62663 0.428242,0 0.44215,0.05458 0.44215,1.735282 0,1.6807 -0.0139,1.735282 -0.44215,1.735282 -0.332455,0 -0.487919,-0.155464 -0.62663,-0.62663 -0.170767,-0.580052 -0.252553,-0.630996 -1.100323,-0.685395 l -0.915843,-0.05877 v 1.745846 1.745846 h 1.711674 c 1.819871,0 2.055322,-0.104398 2.174235,-0.964045 0.05006,-0.36188 0.198835,-0.49723 0.596903,-0.543032 l 0.530224,-0.06101 v 1.266066 1.266065 h -4.145395 c -3.973851,0 -4.145395,-0.01548 -4.145395,-0.373978 z m 9.062027,0.03408 c 0,-0.186944 0.194222,-0.425545 0.431607,-0.530225 0.344625,-0.15197 0.724116,-1.006331 1.883031,-4.239319 l 1.451425,-4.048991 0.986997,-0.05751 c 0.927786,-0.05406 0.998682,-0.02514 1.181746,0.482023 2.831095,7.843352 2.883805,7.962678 3.517284,7.962678 0.252633,0 0.381173,0.130038 0.381173,0.385618 0,0.362248 -0.12854,0.385618 -2.1209,0.385618 -1.969232,0 -2.1209,-0.0267 -2.1209,-0.373401 0,-0.280343 0.156172,-0.388461 0.62663,-0.433821 0.691458,-0.06667 0.724656,-0.275119 0.23226,-1.458284 l -0.260786,-0.62663 h -1.627779 -1.627781 l -0.310149,0.775139 c -0.450119,1.124958 -0.406102,1.345761 0.268278,1.345761 0.449887,0 0.578427,0.08569 0.578427,0.385618 0,0.357054 -0.12854,0.385618 -1.735281,0.385618 -1.528938,0 -1.735282,-0.04042 -1.735282,-0.339897 z m 5.920577,-3.578238 c -0.05377,-0.14012 -0.336764,-1.051143 -0.628878,-2.024495 -0.292113,-0.973361 -0.586008,-1.769739 -0.653102,-1.769739 -0.110641,0 -1.360843,3.596036 -1.360843,3.914281 0,0.07409 0.616631,0.13471 1.370293,0.13471 1.056468,0 1.347903,-0.05835 1.27253,-0.254763 z m 5.069541,3.544151 c 0,-0.292977 0.156607,-0.386941 0.723034,-0.43382 l 0.723034,-0.05984 0.0524,-3.721796 0.0524,-3.721798 -1.016447,0.05842 -1.016447,0.05842 -0.05877,0.915843 c -0.05801,0.903993 -0.06736,0.915843 -0.723034,0.915843 H 38.754627 V 80.68674 79.240672 h 4.338205 4.338204 v 1.446068 1.446068 h -0.664268 c -0.655672,0 -0.665027,-0.01186 -0.723034,-0.915843 l -0.05877,-0.915843 -1.016447,-0.05842 -1.016447,-0.05842 0.0524,3.721798 0.0524,3.721796 0.723034,0.05984 c 0.566427,0.04688 0.723034,0.140843 0.723034,0.43382 0,0.350153 -0.153541,0.373978 -2.410113,0.373978 -2.256572,0 -2.410114,-0.02383 -2.410114,-0.373978 z m 7.519554,0 c 0,-0.292977 0.156608,-0.386941 0.723035,-0.43382 l 0.723034,-0.05984 V 83.86809 80.108313 l -0.723034,-0.05984 c -0.566427,-0.04688 -0.723035,-0.140843 -0.723035,-0.433821 0,-0.354082 0.159675,-0.373978 3.001217,-0.373978 3.065824,0 3.448307,0.07393 4.274375,0.826166 1.037108,0.944419 0.630239,2.705775 -0.783495,3.391784 -0.565319,0.274317 -0.685338,0.393103 -0.404016,0.399859 0.566962,0.01361 1.144399,0.706373 1.61513,1.9377 0.644702,1.686395 0.807038,1.928091 1.294993,1.928091 0.320902,0 0.449442,0.110287 0.449442,0.385618 0,0.348892 -0.12854,0.385618 -1.349664,0.385618 -1.026652,0 -1.349663,-0.06443 -1.349663,-0.269236 0,-0.508581 -1.13419,-3.055943 -1.564635,-3.514131 -0.309389,-0.329328 -0.640519,-0.458433 -1.175809,-0.458433 h -0.745134 l 0.05571,1.68708 0.05571,1.68708 0.626629,0.06042 c 0.470458,0.04536 0.62663,0.153478 0.62663,0.433821 0,0.348585 -0.153771,0.373401 -2.313709,0.373401 -2.161169,0 -2.313709,-0.02466 -2.31371,-0.373978 z m 5.073914,-5.05617 c 0.640705,-0.341241 0.890291,-0.766743 0.897037,-1.529298 0.0082,-0.922853 -0.505351,-1.362992 -1.727197,-1.480396 l -0.965999,-0.09282 v 1.663409 1.663408 h 0.687507 c 0.37813,0 0.877023,-0.100936 1.108652,-0.224303 z m 4.75935,5.05617 c 0,-0.292977 0.156607,-0.386941 0.723034,-0.43382 l 0.723034,-0.05984 0.05224,-3.796101 0.05224,-3.796099 -0.725468,-0.06008 c -0.507924,-0.04206 -0.74464,-0.161262 -0.78941,-0.397497 -0.0593,-0.312918 0.238769,-0.337416 4.105212,-0.337416 h 4.169155 l -0.05783,1.108652 c -0.05688,1.090448 -0.06732,1.108653 -0.636251,1.108653 -0.47067,0 -0.590848,-0.0898 -0.645104,-0.482023 -0.117803,-0.851628 -0.360098,-0.964046 -2.077831,-0.964046 h -1.615269 v 1.638878 1.638877 h 0.829079 c 0.93056,0 1.291821,-0.253421 1.291821,-0.906203 0,-0.344486 0.107581,-0.443461 0.482022,-0.443461 0.478452,0 0.482023,0.01286 0.482023,1.735282 0,1.722427 -0.0036,1.735282 -0.482023,1.735282 -0.374441,0 -0.482022,-0.09897 -0.482022,-0.443461 0,-0.652782 -0.361261,-0.906203 -1.291821,-0.906203 h -0.829079 v 1.735282 1.735282 h 1.828013 1.828013 l 0.116181,-0.530225 c 0.206838,-0.943957 0.257622,-1.012248 0.752756,-1.012248 0.472166,0 0.488073,0.04085 0.488073,1.253259 v 1.253259 h -4.145395 c -3.973852,0 -4.145396,-0.01548 -4.145396,-0.373978 z M 24.566525,77.649997 c 0.437484,-0.735752 0.571515,-0.825558 1.31239,-0.879358 l 0.825144,-0.05992 -0.859583,0.879358 c -0.537924,0.5503 -1.029024,0.879358 -1.31239,0.879358 h -0.452807 z m 8.018211,0.711728 c 0,-0.05924 0.274813,-0.449679 0.610696,-0.867641 0.513248,-0.638669 0.724962,-0.75993 1.326781,-0.75993 0.693494,0 1.131604,0.363871 1.799138,1.49427 0.307188,0.52019 -0.840395,0.242255 -1.346895,-0.326204 l -0.505393,-0.567215 -0.477279,0.567215 c -0.285205,0.338947 -0.664368,0.567216 -0.942164,0.567216 -0.255686,0 -0.464884,-0.04847 -0.464884,-0.107711 z M 28.084267,66.019949 C 13.507061,63.752522 2.013513,51.937199 0.18620345,37.340847 -0.1536592,34.626066 0.04454468,28.989529 0.56496148,26.569642 2.9969011,15.261354 10.530068,6.3703894 21.276267,2.1252692 c 7.17529,-2.83448707 16.621196,-2.83362329 23.773793,0.00218 6.626198,2.6270952 11.958914,6.9177819 15.863962,12.7640888 2.158598,3.231677 3.964754,7.574892 4.841015,11.641057 0.58936,2.73485 0.736797,8.41737 0.296157,11.414454 -2.130303,14.489559 -13.497296,25.901025 -27.973414,28.082848 -2.390923,0.360359 -7.646476,0.35513 -9.993513,-0.0099 z M 37.983391,33.1593 V 13.878391 H 33.163163 28.342936 V 33.1593 52.440209 h 4.820227 4.820228 z m 14.460681,14.431745 v -4.849166 l -1.108652,1.761627 c -1.916493,3.045273 -4.74351,5.788686 -7.570857,7.346963 l -1.05735,0.582754 4.86843,0.0035 4.868429,0.0035 z M 14.461013,22.603536 c 0.779929,-1.482019 2.601527,-3.77857 4.090798,-5.157406 1.184976,-1.097107 1.933058,-1.645971 4.518761,-3.315389 0.280726,-0.181246 -0.649096,-0.232063 -4.409839,-0.241011 l -4.76557,-0.01134 -0.05466,4.820372 c -0.03006,2.651201 -0.01113,4.820304 0.04208,4.820227 0.0532,-7.9e-5 0.313496,-0.412033 0.578427,-0.915454 z"
     id="path817"
     inkscape:connector-curvature="0" />
</svg>
